ZMYND11
HS6ST3
NIFKP1
WISP3
TAS2R7
TTC36
PTAR1
TMEM25
ITFG1
GAPDHP1
RPS11P7
PLEKHM3
GRAP2
PPP1R2P9
NANOGP10
NDP-AS1
KRT8P14
ARMCX6
PPIAP14
ST6GALNAC5
MTRNR2L9
GGACT
RFWD2P1
C2orf68
CCDC58P1
SFXN1
MYLK2
KRT12
CCDC58P3
LONP2
HSPA8P5
NF1P5
DOCK5
CCDC168
DDX5
FGF7P1
CHST6
MRPL30
KRTAP1-4
KRTAP4-16P
DUS1L
SCARNA10
FAM26E
EFCAB11
C11orf91
ARL10
SLC25A15P4
CYCSP41
KRTAP17-1
BAGE2
FGF7P2
OR4K12P
GRAMD4P1
ISPD
IFNWP9
CYCSP42
IFNWP18
IFNWP5
IFNA22P
RAD23BLP
IFNA20P
TNXB
MTRNR2L12
CMC2
POU5F1P3
TRBV25OR9-2
TRBV26OR9-2
FIGN
SHISA8
SNTA1
MINA
CACNA1C
PTPLB
PPT2
FEM1AP4
SNX19P2
SLC2A5
FAM58DP
PURA
ST6GALNAC4P1
KRR1P1
COMMD9
RPS12P23
MIPEPP3
DDX39AP1
IPMKP1
NUS1P2
CEBPE
SHC3
B3GAT2
SNX33
AKAP9
C6orf136
FAM101B
MCAT
OGFOD1
TLDC1
ANKDD1B
HIGD1AP8
USP46
CSPG5
C19orf53
APOPT1
SLC25A16
IGKV1-5
FBXO31
VWC2L
TRIM71
ACSBG1
TMC6
CCR4
IGKV1-9
IGKV1-16
IGKV1-17
AK2
IGKV2-30
KLHL10
KLHL11
TMEM218
XPOT
UBB
KIAA1211
BRCA1
ZNF665
PSMB9
SLC22A31
RPL36AP26
C12orf5
BRF2
KATNB1
RAB30
HMGB3
CYCS
CLEC19A
CCDC90B
SAMHD1
TEPP
NDUFA3
CNOT3
CREBZF
TSEN34
GPR139
OR1D3P
FAM185A
HOMER1
OR1R1P
GOLGA6L4
LILRB5
ENTPD5
ZNF138
CPA5
TUBB8P7
TTYH1
RPS3AP2
KIF2A
RTN4RL2
ISG20
RABL2B
DUSP9
ACTR3BP6
SLC25A15P5
PARP4P3
ANKRD62P1-PARP4P3
SLC24A4
OSER1
CRIP2
IMPA1
TBC1D16
PDP2
SREK1IP1
NPM1P48
SPCS2P3
TBL2
ARHGAP4
CLDN3
PDZK1
CLIP2
Ablim1
Acot11
Acpt
Acsf3
Acvr1
Adam22
Adap2
Adar
Adcy2
Adipor2
Adora1
Adra1a
Afap1l2
aicda
Ak7
Akr7a2
Als2cl
Amot
Amz1
Ankrd45
Ankrd46
Ankrd66
Anks1b
Ankrd28
Apcdd1
Apol11a
Appl1
Araf
Arf4
Arhgef19
Arhgef33
Arl15
Arhgef26
Arpc2
Armc6
Aspn
Atf7ip
Ate1
Atad2b
Atp6v0e2
Atrnl1
Atxn7l3b
Azgp1
B3gnt4
B3gnt9
B4galt6
Bbs12
Bcas3
Bckdk
Bcl7b
Bles03
Bricd5
Bzw2
Cacna1c
Cacna1i
Cacng1
Cabp2
Cadm2
Cadps2
Calr
Car10
Casp1
Cask
Cbl
Cbx1
Ccbe1
Ccdc106
Ccdc109b
Ccdc107
Ccdc88a
Cd93
Cdc40
Cdc42se1
Cdca4
Cdh20
Cdh22
Cdk11b
Ceacam10
Celf1
Celf2
Cemip
Cela1
Cetn4
Ch25h
Chac2
Cgn
Chmp3
Chrm2
Chrna6
Chst2
Cir1
Cldn22
Cldn8
Clpx
Cmss1
Cntn5
Cog1
Cog5
Commd7
Col6a3
Coq7
Cox14
Cox10
Cpeb3
Cox6c-ps1
Crebl2
Crebrf
Cracr2b
Crispld1
Cry2
Crtap
Crygd
Csnk1a1
Csmd3
Ctnna3
Ctsc
Cxxc5
Cyb5d1
Cyp2g1
Cyp1b1
Cyp24a1
Cyp8b1
Cyss
Cyyr1
Dach2
Dapk2
Dag1
Dach1
Dclre1b
Dcp2
Dctn4
Ddn
Defb28
Ddx55
Deptor
Dip2c
Dkk3
Dlgap1
Diaph3
Dlg2
Dnajb3
Dnajc18
Dnm1l
Dnttip1
Dock3
Dolk
Dpcd
Dpp4
Dpy19l2
Dsel
Dsg2
Dtd2
Dtx3l
Dusp14
Dtna
Eapp
Ears2l1
Eda
Edar
Edil3
Eef1e1
Efhb
Eif1ad
Eif3k
Eif5a2
Ell2
Elp3
Emc6
Emilin2
Endod1
Enox2
Epha3
Eml6
Epc1
Erc2
Erg
Ept1
Erich3
Ermn
Esr1
Exosc8
F2r
Fadd
Ext1
Faim2
Fam102b
Fam155a
Fam169a
Fam185a
Fam46b
Fam63b
Fam53c
Fam83e
Fam48b1
Fanca
Fas
Fat3
Fam83g
Faxc
Fbln2
Fbln7
Fanci
Fbrsl1
Fbxw8
Fcer1a
Fcrl1
Fgd5
Fmnl2
Fiz1
Fnip1
Foxd1
Foxi2
Foxa1
Foxp2
Fpgt
Frmd3
Frmd6
Foxl2
Frmd5
Fstl3
Fto
Fut4
Fxyd6
Fzd7
Fxyd1
Gabrg3
Gadd45gip1
Galc
Galnt1
Gapdh-ps1
Gbp1
Gcnt4
Gdf3
Gca
Gemin4
Gjb5
Gjb4
Glipr2
Glt8d2
Gmfb
Gmnc
Glyr1
Gns
Gosr1
Gpd1l
Gpr115
Gpr142
Gpr98
Gpr21
Grm7
Grm8
Gstcd
Gstm5
Gucy1a2
H1fx
Hdac4
Hdgf
Hbg1
Hist1h3a
Hist1h3b
Hmgb4
Hnmt
Hnrnpa0
Hnrnph2
Hnrnpll
Hpse2
Hoxb2
Hsf2bp
Hspb3
Htr7
Htr2c
Hyal5
Hydin
Hypk
Ift140
Igf2bp2
Igfbp5
Igip
Igsf21
Il1a
Il2ra
Il7
Ildr2
Immp2l
Inca1
Ing1
Inpp4a
Ints9
Itga2
Jam2
Kansl1l
Kbtbd3
Klb
Kcne1
Kcnf1
Kcnip4
Kcnj3
Kcnk9
Kcnj8
Kcnrg
Kcnq5
Kcns2
Kctd11
Kctd14
Kctd2
Kif2a
Kif5a
Kif9
Klhl2
Klhl33
Knop1
Kpna1
Krtap14l
Ksr1
Lats1
Lbh
Lclat1
Lcorl
Ldlrad1
Lgals3
Lhx9
Lin28a
Lin9
Lhx6
LOC100359986
LOC100360200
LOC100360527
LOC100360828
LOC100361706
LOC100363110
LOC100363287
LOC100363296
LOC100363436
LOC100363537
LOC288913
LOC288930
LOC288777
LOC297756
LOC308401
LOC308536
LOC362306
LOC362473
LOC498426
LOC500205
LOC500269
LOC500684
LOC502613
LOC502619
LOC679594
LOC679811
LOC680656
LOC680768
LOC680775
LOC680964
LOC681216
LOC681241
LOC681282
LOC681380
LOC681383
LOC681406
LOC685067
LOC685338
LOC685352
LOC685495
LOC685881
LOC686143
LOC686748
LOC687281
LOC688672
LOC688724
LOC689085
LOC689589
LOC689927
LOC689955
LOC689991
LOC690082
LOC690467
LOC690468
LOC690669
LOC690921
LOC691030
LOC691170
LOC691415
LOC691806
LOC691807
LOC691918
Lonrf2
Lppr5
Lrat
Lrch3
Lrrc25
Lrrc38
Lrrc3b
Lrrc75a
Lrrc8d
Lrrtm2
Lysmd3
Maats1
Macrod2
Maml3
Manea
Map2k1
Mapk8ip2
Mapt
Mat1a
Matn2
Mc4r
Mbnl2
Mctp1
Mecp2
Mertk
Mettl6
Mettl11b
Mgll
Mgst3
Mia2
Mief2
Mina
Mir196b
Mir29b2
Mir29c
Mir483
Mir489
Mir592
Mir615
Mir653
Mir935
Mkl1
Mixl1
Mk1
Mkrn3
Mmp28
Morc4
Mos
Mospd4
Mpped2
Mroh2b
Mrpl17
Mrpl45
Mrpl49
Mrpl50
Mrps7
Msi2
Msl2
Msn
Mtcl1
Muc16
Mvb12b
Mycbp
Mylk2
Myo16
Myl6
Mzt1
N4bp2l1
N4bp2l2
Nanos1
Nars2
Nat8b
Nck1
Ndc80
Ndufa4l2
Nek2
Neo1
Neu3
Nfat5
Nfe2l1
Nfil3
Nhlh2
Nfia
Nkain1
Nol4l
Nol4
Npm3
Nptx1
Npepo
Nr3c2
Nr4a3
Nr5a2
Nr2f1
Nt5c2
Nt5m
Nts
Nsf
Nudt1
Nwd2
Nxph1
Nup62
Obp1f
Olr159
Olr163
Olr226
Olr701
Olr806
Olr892
Oprk1
Orai2
Osgin2
Otud1
Pabpc1
Paip2b
Paip2l1
Padi2
Parp16
Paxbp1
Pbx1
Pcdh1
Pcdh11x
Pcdh9
Pcf11
Pcdhga2
Pcyt1a
Pdcd4
Pdcl2
Pde1b
Pde4b
Pebp4
Pecam1
Pepd
Pfdn2
Pgr
Phex
Phf21a
Phactr3
Phykpl
Pigu
Pikfyve
Pih1d3
Pla2g4c
Plaa
Plac1
Plagl1
Plcl2
Plcxd1
Plekha6
Plekhf1
Polb
Pold3
Polr2f
Ppfia3
Ppil1
Ppme1
Ppp1r7
Ppp2r5b
Prdm15
Prdm5
Prdm6
Prdx6
Prkag3
Prkd3
Prpf39
Prr16
Prr18
Prr9
Prrg3
Prss38
Psat1
Psen1
Pstpip2
Ptchd4
Ptger4
Ptges3
Ptplb
Ptpn4
Ptprq
Pura
Purg
Pycard
Pygo1
Rab30
Rab22a
Rab23
Rad18
Rad9a
Rapgef4
Rbpms
RGD1304694
RGD1305422
RGD1305645
RGD1305704
RGD1306186
RGD1306441
RGD1307704
RGD1307830
RGD1310335
RGD1310951
RGD1559938
RGD1560234
RGD1561870
RGD1561871
RGD1561916
RGD1562037
RGD1562140
RGD1562725
RGD1562755
RGD1563300
RGD1563680
RGD1563705
RGD1563738
RGD1563746
RGD1564308
RGD1564405
RGD1564804
RGD1564897
RGD1564887
RGD1565472
RGD1565498
RGD1565534
RGD1565660
RGD1565655
RGD1565679
RGD1566354
RGD735029
Rgs2
Rhobtb3
Rhof
Rmi1
Rmnd1
Rnaseh2c
Rnd3
Rnf103
Rnf13
Rnf138
Rnf11
Rnf220
Rnft1
Rnh1
Rph3al
Rora
Rpl7l1
Rpp14
Rprd1a
Rspo4
RT1-A1
Rwdd4
Ryr3
S100a9
S1pr5
Samt2
Sap30bp
Sap30l
Satb1
Sbf2
Sbspon
Schip1
Scmh1
Scrg1
Sec22b
Sec24d
Sel1l3
Sele
Sept5
Sepw1
Serf1
Sergef
Sh3bgrl
Sh3bgrl2
Sh3pxd2b
Shank3
Shisa9
Shq1
Sh3d19
Six3
Ski
Skor1
Slc25a36l1
Slc25a2
Slc25a21
Slc30a9
Slc35b3
Slc35f1
Slc39a3
Slc6a14
Smarce1
Smg6
Smim12
Smim15
Snrnp25
Snrnp27
Snn
Snx17
Snx21
Sorcs3
Sort1
Sox30
Sp3
Spag6l
Spata17
Spink4
Spock1
Sptssb
Srcap
Srd5a2
Srek1ip1
Srp54a
Sptlc2
Sspn
St6galnac3
Stard5
Star
Stfa2
Stfa2l3
Styx
Stmnd1
Stx3
Sugp1
Sycn
Sys1
Syp
Syt11
Syt16
Sytl2
Tagln
Tcam1
Tceal5
Tcf12
Tcf23
Tead4
Tectb
Tet3
Tex22
Tfe3
Tfg
Themis
Thoc7
Thumpd1
Tifa
Timm10b
Timm17al1
Timm8a1
Tle6
Tlr6
Tlx3
Tm9sf3
Tmem108
Tmem132c
Tmem14a
Tmem161b
Tmem219
Tmem240
Tmem246
Tmem253
Tmem198
Tmem200a
Tmem41b
Tmem52
Tmem29
Tmem87a
Tmem91
Tmprss11e
Tmtc1
Tnfrsf1b
Tnfsf11
Tnpo1
Tob2
Tnfsf13b
Tomm6
Tp53i3
Tpbgl
Tpcn1
Trappc13
Tril
Trim59
Ttc39a
Ttll3
Ttll5
Txndc15
Uba2
Ubald2
Ubc
Ube2d2
Ube2n
Ube4b
Ube2d1
Ubr3
Ubtd2
Uchl3
Uck2
Uhrf1bp1
Ulk2
Uprt
Uqcrq
Uxt
Vamp5
Vamp7
Ust5r
Vit
Vma21
Vcsa1
Vom2r65
Vom2r69
Vrk2
Vsig10
Wdr27
Wdr34
Wdtc1
Wfdc1
Wwp2
Xkr4
Yif1a
Yme1l1
Yod1
Ypel1
Zbtb43
Zbtb47
Zbtb8os
Zcchc10
Zcchc14
Zcchc6
Zcchc8
Zfand2a
Zcwpw2
Zfp169
Zfp187
Zfp12
Zfp346
Zfp407
Zfp248
Zfp536
Zfp418
Zfp628
Zfp629
Zfp647
Zfp717
Zfp9
Zmat3
Znrf1
Znrf2
Zim1
Zkscan2
Zswim6
Zrsr2
Zscan29
Zscan30
Zswim1
LOC100912525
LOC100911668
LOC100910054
LOC100912342
LOC100912892
LOC100363675
Garem
LOC100909538
LOC100910243
LOC100911283
Tcf19
LOC679730
LOC100910851
LOC100909795
LOC100909663
Arpc1a
LOC100911576
LOC100909964
LOC683674
Dpp9
Rp2
LOC686313
LOC100910419
LOC100912261
LOC100912849
LOC100910087
LOC100910732
Jarid2
Tmem247
LOC100911015
LOC100910371
Pim2
LOC687399
LOC100911140
LOC100909556
LOC100912524
LOC687553
LOC687560
LOC100365646
LOC100911829
LOC100912498
LOC100912125
LOC100909828
Alas2
LOC100911583
LOC100911664
LOC683404
LOC684828
LOC100912102
LOC100912293
Pla2g12b
LOC100911795
LOC100910427
Slc35f3
LOC100364027
LOC100910134
Morn3
LOC100913007
LOC100911055
LOC100912258
LOC100909697
LOC100910652
LOC100912061
Zfp449
LOC100909750
LOC100910438
LOC100911639
LOC100909836
LOC100910850
St6galnac4
Mipol1
Sik3
LOC100365502
LOC100912275
Gprasp1
LOC100364509
LOC100911372
LOC100911926
LOC100909961
LOC100365958
LOC100911908
LOC100910954
LOC100911271
Vrtn
LOC100364062
LOC100911895
Noxred1
LOC100909732
LOC100911395
LOC100911772
LOC100912608
LOC100910298
LOC100912502
LOC100911956
LOC100910483
LOC100909605
LOC100909688
LOC100910068
Adcyap1
LOC100911693
LOC100910224
LOC100909885
Adssl1
LOC100911804
Il2rb
Pradc1
Fam167b
Iqcc
LOC100909772
LOC100909712
LOC100909617
LOC100911166
LOC100909434
LOC100363869
Gpx1
LOC100911919
LOC100911762
LOC100365450
LOC100911859
LOC100910104
LOC100911679
LOC100911625
LOC100911650
Hsf5
LOC687029
LOC100910090
Mbtd1
Ensa
LOC100912338
LOC100911116
LOC100911154
Gdf5
LOC100910990
LOC100911217
LOC100911617
Pfdn4
LOC100910895
LOC100912866
St6galnac5
LOC100364984
Cbx4
Tspan10
Arl16
LOC100910143
LOC100366030
LOC100909936
LOC686911
Nkx3-2
LOC100911029
LOC100912445
Mir3583
LOC100911224
LOC100909747
Exoc3l2
LOC100913063
LOC100364352
LOC100909892
LOC100911911
LOC100909893
LOC687508
LOC100912070
LOC100910839
Lysmd4
LOC100909455
LOC100911002
LOC100366231
LOC100911047
LOC100912099
LOC684179
LOC100912217
Iqck
LOC683884
LOC100911840
LOC100912573
LOC687088
LOC687097
LOC100911854
LOC100912050
LOC100911763
Arhgap19
Exosc1
LOC100909561
LOC100910928
LOC100911129
LOC100911839
LOC100911695
LOC100911132
LOC100911394
LOC100910721
LOC100365588
LOC100909517
LOC100910814
LOC100912934
LOC684841
LOC100365043
LOC100912010
LOC100910200
LOC100910977
LOC100910554
Hist1h2ac
Brcc3
Cldn3
LOC100364191
LOC100912527
LOC100912450
LOC100909911
LOC100912292
LOC100911847
LOC100366044
LOC100912024
LOC100910682
LOC100910979
LOC100910863
LOC100364427
Inafm1
LOC100910729
LOC100909835
LOC100910165
Mapre2
LOC100912317
LOC100911776
Evi2b
LOC687483
LOC100910263
LOC100912475
LOC100912365
Mir598
Mir128-1
Mir140
Mir628
Mir30e
Mir30c-1
Mir28
Mir336
Mir344a-2
Mir542
Mir411
Mir423
Mir152
Mir142
Mir342
Mir702
Mir3562
Mir582
Mir349
Mir190
Mir383
Mir664-2
Mir139
Mir204
Mir3543
Mir107
Mir3582
Mir761
Mir103-1
Mir322
Mir421
Mir7a-2
Mir350
Mir25
Mir351
Mir3542
Mir3559
Mir148b
Mir211
Mir874
Mir214
Mir186
Mir652
Mir484
Mir503
Mir877
Mir488
Mir196c
Mir224
Mir374
Mir106b
Mir218-2
Mir7a-1
Mir3550
Mir93
Mir511
Mir3584
Mir1
Mir208b
Mir3541
Mir33
Mir361
Mir23b
Mir872
Mir3573
Mir301a
Mir3572
Mir499
Mir3558
Mir153
Mir1224
Mir346
Mir3594
Mir668
Mir879
Mir2985
Mir141
Mir3547
Mir1249
Mir326
Mir455
Mir339
Mir26b
Mir32
Mir343
Mir551b
Mir448
Mir381
Mir671
Mir711
Mir101b
Mir3568
SNX18P7
LCN10
C2orf48
FOXD4L3
CTDP1
ASAH2C
CD79B
SIAH1P1
HMGB1P16
MOB1AP2
GOLGA2P6
SLC30A4
TIMM17B
PRSS45
RNF181
PQBP1
UBE2D1
GLG1
PRH2
TUBE1
FAM149B1
MAMDC2
HAMP
TAS2R14
TAS2R50
TAS2R30
IL9RP4
FAM47DP
ADPRM
RNF187
FAM229B
RAB4A
ADM5
RBP3
MED14-AS1
DPRXP6
DNAJC9
BICC1
IFT46
TATDN2P1
COX6CP3
ARL14EP
ARMCX1
RPL31P59
PGBD5
ZNF500
DLGAP1-AS2
TM9SF2
DNAJC24
TRIM40
ARMCX2
RPL6P27
TRIM10
AASS
SCML2P1
SLC25A51P2
FKBP1C
SCN8A
AKR1B1P6
RAB42
PIGPP4
CCDC177
KCNK12
FAM162A
CACNA1C-IT2
CACNA1C-AS3
TRIM15
KIR2DL2
NDOR1
HTR5A
NEXN
KRT20
POLG2
ARHGEF9
CXCR5
BCL9L
BLACE
BLNK
C4B
RHOT1P1
FEM1AP2
GIPC2
HTR1F
KRT39
FGF22
NDUFS6
MSANTD1
ZC4H2
ALG1
SLC10A1
ARGLU1
KRT40
ATOH8
CT55
KRTAP3-3
LIG4
SMIM4
HYOU1
RPS10P27
RPL23AP77
KRTAP3-2
KRTAP3-1
KRTAP1-5
KRTAP1-1
KRTAP2-1
ADAT1
KRTAP2-3
PPM1E
KARS
DDX26B
CIDEA
KRTAP4-9
KRTAP4-11
KRTAP4-12
RPP21
KRTAP9-2
KRTAP9-3
KRTAP9-4
HLA-E
KRTAP9-9
RPL13P5
KRTAP9-7
CD59
GNL1
ZNF788
TEKT4P2
RPS20
KRT37
SDC3
ANKRD30BP2
NKD1
FEM1AP1
TERF1P1
FAM207CP
GXYLT1P2
CNN2P7
DNMT3B
GNAQ
PSMG2
MRPS18C
NOD2
RHOT1P2
PPP6R2P1
GPRC5A
TM4SF4
MTND6P5
NKX6-1
UBE2QL1
NANOGP1
RBMX2P1
IFNNP1
IFNWP4
RBPMSLP
IFNA12P
IFNWP19
MMGT1
KRT15
SLC9A6
FAM110B
ABCF1
SUMO2P2
TAS2R15
SLC25A6P2
ASS1P12
PRSS3P4
TRBV22OR9-2
TMEM173
IDNK
C1orf52
FABP3
GPR37
RPL37P3
GNA13
COX5A
EHF
ZP4
MTRNR2L11
CHRM3
IRAK4
FST
CHD7
PLCG2
MRPS18B
C12orf55
POLR2E
HIST4H4
TCF20
OR5H8P
THY1
MRPL48
PXMP4
SNX13
GZMK
IRX6
LY86
LONRF2P2
GXYLT1P1
LITAF
CNN2P12
SNX18P26
LINC00328-2P
ANKRD20A9P
PHF2P2
CENPIP1
CD40LG
SMPD4P2
TRIM44
BARHL2
ANKRD26P3
MRPL3P1
PARP4P2
MRPS31P2
ESRRAP1
PPIAP28
RANP8
CNOT4P1
PPIAP27
RPSAP54
LATS2-AS1
UCP2
IPPKP1
C6orf57
GPR157
SLC16A7
OVOL3
MTND3P1
FTH1P7
GOT2P3
POLK
TMEM74
GAST
TRAF6
IMP3
RAG2
SYCE2
S100P
AKR1C1
NKAIN3
H2BFWT
TBCEL
H2BFM
OR14A2
OR1C1
OR2AJ1
SEPT9
NDUFS7
LYPD8
KCNE3
TADA2B
TAS2R63P
PLGLB1
TAS2R67P
MTND1P23
WBP1LP6
STX10
KLK13
OSBPL10
HCFC2
SGCB
POTEI
PPM1D
CACNA1A
CAMTA1-IT1
ROPN1
IBSP
MRPS18CP4
MT2A
CFL1P6
MT1E
RPL39P6
ARF6
SCN1A
MDC1
SV2C
SCAF11
SCN3B
SCN9A
DFFA
IRF8
AKR1CL1
NANOS3
GPSM3
NOTCH4
SH2D7
IGKC
IGKJ5
IDH3A
IGKJ4
AADACL2
IGKJ2
IGKV4-1
IGKV5-2
GSX2
CDKL1
AVPR1A
BARD1
SPANXB1
SPANXC
UMPS
SPANXA2
IGKV1-8
SPANXD
IGKV3-15
IL2RG
OOEP
GPR78
PPM1K
C7orf72
IGKV1-39
IGKV2-40
SPANXN3
IGKV2D-30
IGKV2D-29
BRIP1
RSPO3
IGKV6D-21
IGKV3D-15
IGKV1D-13
IGKV1D-43
IGKV1D-8
SLITRK2
POTEE
ACER3
AFF2
SLC37A2
B3GNT6
HLA-DQB1
RPAP3
KIAA0408
G6PC2
ABCB11
PKLR
DPH5
NT5C1B-RDH14
HLA-DQA2
HLA-DOB
ALG2
DNAJC7
UNC93B2
HS3ST1
TAP2
CDPF1
MSANTD3
STT3A
ERVV-1
WDR55
HAS2
LYPD1
VSTM2A
GAPDHP68
MAGEA11
ST20-MTHFS
MAGEA9
NKIRAS2
PSMB8
ZNF354B
TAS2R2P
ACTN4
SLC44A1
TAP1
RBMX2P4
ZNF703
EEF1A1P26
ZNF778
MPP6
ZNF385C
TMX1
AEBP2
MTMR1
ACOT4
HLA-DMB
DNAL1
DHX58
FAM200B
FRRS1L
HLA-DMA
TAF13
BRD2
ZNF713
HSPB9
SYT17
RAB5C
GAPT
HLA-DPB1
LPHN3
TFPT
GTF2H4
BHMT2
COL7A1
UGCG
HNRNPA1P16
ODF3
BET1
GABRQ
SAMD11P1
INIP
MAGEA6
MAGEA2B
PSMC6
MAGEA12
SNIP1
WDR31
OR1P1
PHKG1
CETN2
OR1AC1P
RAB8A
LILRB3
HOXA13
LMNA
PTPMT1
ATP6V0CP1
LILRA6
ABCC9
NXPE3
TLCD2
LILRB2
ALOX12P2
ATP6V1G1
PSORS1C2
TNFSF15
RPL7AP64
ZNF117
PNMA6A
CPA1
IL13RA2
RXRB
LILRA3
LILRA5
BGLAP
CCHCR1
PNMA6B
MAGEA1
ZNF275
ZFP92
RPL29P2
WASIR2
LAIR1
IL9RP3
SLC39A7
PMPCB
ST8SIA1
TRIM32
CDH11
MEST
TMEM135
LENG8
OR4C13
OR4C12
ZC2HC1A
LENG9
LAIR2
KIR3DX1
OR5T2
CT83
RTN4RL1
NBPF1
LILRB1
OR9G4
NPIPB3
C5
PACS2
LILRA1
MRPL51
ARSA
KLF14
RPS12
HEYL
HLA-C
KIR2DL4
RBFOX3
GARS
DUXAP8
NEK2P2
CHEK2P4
KCNMB3P1
FABP5P11
KIR2DL1
CXXC11
VWFP1
FABP12
FITM2
EEF2K
BCL2L15
TRAPPC12-AS1
RAB7A
TYW1B
ENTPD7
ADA
MICB
POM121
TRIM74
IGHD6-6
KIF5C
AIF1
ATP1A2
SPSB2
B4GALT3
UNG
Aadac
Aamdc
Aasdhppt
Abca13
Abcb9
Abcb8
Abcg1
Abhd13
Abi3bp
Abo2
Acbd3
Acer3
Acot1
Acox1
Actl10
Adal
Adam10
Adam26a
Adamts16
Adamts5
Adamts8
Adamtsl5
Adarb2
Adamtsl1
Adora3
Adig
Adra2b
Adrb2
Aff3
Aff2
Agbl1
Agps
Agtr2
Ahr
Ahi1
Ahctf1
Ahnak2
Aipl1
Ak4
Akap7
Akr1d1
Aldh5a1
Aldh4a1
Alg13
Alk
Amelx
Amigo1
Amer3
Amigo2
Ammecr1
Anapc10
Anapc16
Ang
Ankdd1b
Ankfy1
Ankdd1a
Ankrd13b
Ankrd63
Ankub1
Ano10
Anlnl1
Ano9
Anxa9
Ap1s3
Ap5b1
Ap5z1
Apcs
Apln
Apoc3
Apol2
App
Aprt
Arf1
Arfgap3
Arfgef1
Arhgap32
Arhgap36
Arhgap6
Arhgef10
Arhgef4
Arhgef9
Arl1
Arl13b
Arid2
Arl6ip6
Arl6ip5
Armcx1
Arpin
Arsa
Arsb
Arse
Asap2
Art2b
Asb16
Arxes2
Ascc3
Ascl5
Asrgl1
Asns
Asprv1
Atf4
Atf5
Atf6
Astn2
Atf7ip2
Atg5
Atp6ap2
Atp8a1
Atp8b2
Atxn1
Atxn7l3
Atxn7l4
Avl9
B3gat2
B3galt6
B3gntl1
Baalc
Baat
Bad
Bag4
Bahd1
Bambi
Banf2
Baiap3
Bbs9
Bcl6b
Bcl7a
Bean1
Bdnf
Bcr
Bex1
Bhlhb9
Bhlhe41
Bhlhe23
Bfsp2
Bid
Birc7
Birc6
Bloc1s3
Bmp6
Bmp8b
Brca2
Braf
Brat1
Brms1l
Brinp2
Bsph2
Btbd19
Btbd2
Btla
Btnl7
Btf3l4
Btnl8
C1qc
C1qtnf1
C1qtnf7
C1qtnf4
C2cd4b
C2cd4d
C5
C2cd4a
Cables2
C8g
Cacfd1
Cadm3
Cadps
Calcrl
Calm1
Calm3
Calm2
Calml5
Camkmt
Calr4
Camk2d
Capn5
Car3
Carns1
Casc4
Casp2
Carkd
Casz1
Cby3
Ccdc120
Ccdc122
Ccdc108
Ccdc147
Ccdc138
Ccdc141
Ccdc149
Ccdc160
Ccdc166
Ccdc3
Ccdc28b
Ccdc6
Ccdc71l
Ccdc85a
Ccdc86
Ccdc96
Ccl28
Ccl6
Ccnc
Ccnyl1
Ccr3
Ccsap
Ccr8
Cd160
Cd209f
Cd164l2
Cd209c
Cd300lg
Cd36
Cd47
Cd84
Cdan1
Cdc42
Cdcp2
Cdh18
Cdk5rap1
Cdkal1
Cdkl4
Cdkn2a
Cdkn1c
Cdkl5
Cdr2l
Cdrt4
Cds1
Cebpb
Cebpg
Cecr6
Celf4
Celsr1
Cenpb
Cenpn
Cenph
Cenpv
Cenpo
Cep72
Cep85
Cers1
Cers3
Cers6
Ces2e
Cetn1
Ces5a
Cfdp1
Cfi
Cgnl1
Cgm4
Chat
Chchd7
Chi3l3
Chi3l1
Chmp2b
Chmp7
Chn3
Chrm3
Chrm5
Chrna3
Chmp4bl1
Chrna7
Chst12
Chst11
Chtf8
Ciapin1
Chsy3
Cib2
Cib4
Ciz1
Clcnka
Cldn17
Cldn5
Cldn9
Clec14a
Clec16a
Clec4a3
Clic4
Clip4
Cln5
Cluh
Cml3
Cmtm6
Cnga3
Cnnm4
Cmya5
Cntnap4
Cntnap5c
Cnst
Coa5
Coil
Cnpy1
Col12a1
Col25a1
Col4a5
Col9a3
Col8a2
Colec11
Commd1
Colca2
Cotl1
Cox11
Cpa4
Cpeb2
Cphx
Cpg1
Cpn2
Cpsf4l
Cpxm2
Crebbp
Cracr2a
Crim1
Crk
Crct1
Crkl
Crls1
Crnn
Crp
Crtc3
Cryab
Crygb
Crygc
Csgalnact1
Csnka2ip
Csf2ra
Csrnp3
Cstf2
Ctbs
Ctdsp2
Ctdspl
Ctnna2
Ctnnd2
Ctnnb1
Ctsll3
Cubn
Cux1
Cxcl9
Cxcr4
Cyb561d1
Cybb
Cylc2
Cyld-ps1
Cyp2b2
Cyp2c79
Cyp2j10
Cyp2c24
Cyp3a23/3a1
Cyp46a1
Cyp4f39
Cyp4f5
Cyp4f17
Cyth1
Cystm1
Dars
Dact1
Dbi
Dcaf12l2
Dcaf12l1
Dchs2
Dck
Dcbld1
Dct
Dcun1d2
Dcun1d1
Ddx11
Ddhd2
Ddx58
Dear
Dedd2
Defb29
Defb30
Defb50
Dennd3
Dennd2a
Depdc1
Dfna5
Dffb
Dhfr
Dhrs3
Dhrs9
Dido1
Dimt1
Diras3
Dis3l2
Dlg5
Dlx4
Dlx6
Dmrtc1a
Dmwd
Dmxl1
Dmrta2
Dnah11
Dmxl2
Dnajb7
Dnal1
Dnajc30
Dner
Dos
Dpep1
Dph1
Dph3
Dpt
Dpy19l4
Dpysl3
Dpy19l1
Drg2
Dscc1
Dspp
Dtx1
Dusp21
Dvl2
Dydc1
Dzip3
Ece1
Echdc3
Ecel1
Edc3
Edem1
Eda2r
Eef2k
Efna3
Egfem1
Egln1
Egr1
Ehmt1
Eid2b
Eif2ak2
Eid2
Eif2s3
Elavl2
Elf5
Elmo2
Elovl7
Eltd1
Emc2
Eme2
Emp1
Emx1
En1
En2
Enox1
Epb4.1l5
Epg5
Epgn
Epha8
Epha6
Ephb2
Epm2aip1
Epn2
Eps8
Erap1
Erich2
Erich5
Erp27
Erp29
Erp44
Ergic1
Erh
Eva1c
Evi5
F8
Faf1
Fahd1
Fam107a
Fam109a
Fam110a
Fam114a1
Fam102a
Fam131c
Fam131a
Fam122c
Fam154a
Fam149a
Fam160a1
Fam160b1
Fam163b
Fam166a
Fam168b
Fam169b
Fam170a
Fam171b
Fam172a
Fam174b
Fam183b
Fam19a3
Fam19a2
Fam206a
Fam19a1
Fam214b
Fam210a
Fam216b
Fam220a
Fam227b
Fam3b
Fam43a
Fam228b
Fam43b
Fam50b
Fam60a
Fam65c
Fam71a
Fam71e1
Fam78a
Fam78b
Fam57a
Fam84b
Fam8a1
Fam92a1
Fam96b
Fam9b
Fancf
Fap
Faxdc2
Fbll1
Fbp2
Fbxl17
Fbrs
Fbxl2
Fbxl7
Fbxo10
Fbxo15
Fbxw7
Ffar3
Fgf14
Fgf16
Fgf9
Fgf18
Fhad1
Fhit
Fibin
Filip1l
Fjx1
Flad1
Flg2
Flrt1
Flywch1
Fmn2
Fmnl3
Fn3k
Fn3krp
Fndc3c1
Fnip2
Fndc9
Foxb1
Foxc1
Foxd3
Foxf1
Foxn2
Foxo6
Foxr2
Foxs1
Fpr3
Frk
Frmd4b
Frrs1l
Fshb
Fstl5
Ftl1l1
Fut10
Fut8
Fut9
Fv1
Gab2
Gabpb1l
Gabra2
Gabra6
Gabrb1
Galnt12
Galntl6
Gas2l3
Gata6
Gdf11
Gdf2
Gem
Gfm2
Gas1
Gcc1
Gigyf2
Gimap6
Ginm1
Gid4
Gja5
Gjc3
Gk5
Gkn3
Glce
Gle1
Glipr1l1
Glipr1l2
Glp1r
Glra1
Glrb
Gls
Glyat
Glyatl2
Gnal
Gnb1l
Gnb5
Gng12
Gng7
Gng4
Gnpat
Gnas
Golga7b
Gpatch8
Gpbp1l1
Gpc5
Gpn2
Gpr124
Gpr150
Gpr161
Gpr82
Gprasp2
Gprin2
Gprin3
Grm4
Gramd2
Gramd4
Grhl1
Gria4
Grid2
Gpr62
Grp
Grpel1
Gse1
Gsg1l
Gskip
Gspt1
Gsta2
Gstm2
Gtf2b
Gucy1a3
Gxylt2
Gzmbl1
H2afz
H2afj
Hand2
Hbe1
Hbq1b
Hcfc1r1
Hdac7
Hdhd1
Heatr3
Hebp2
Hectd3
Hectd2
Helt
Henmt1
Herc1
Hiat1
Hid1
Hinfp
Hist1h2bcl1
Hist1h2bh
Hist1h2bl
Hist1h4a
Hist2h2aa3
Hist2h2ac
Hist2h3c2
Hist2h4
Hmbox1
Hmcn2
Hmgn2
Hnrnpa2b1
Hmox2-ps1
Hlf
Hnrnpul2
Hoxa3
Hoxa9
Hoxa7
Hoxb6
Hoxc10
Hoxc6
Hoxd9
Hpcal4
Hpdl
Hps3
Hrct1
Hsd17b6
Hspa13
Hspa1a
Hspa1l
Hspa1b
Hspa8
Htr1f
Htr2a
Htra3
Htr5a
Hyls1
Iapp
Iars2
Id2
Idh3B
Idi2
Idh1
Idua
Ier2
Ier5
Ier5l
Ifi44l
Ifit1
Ifit1lb
Ifitm1
Ifitm10
Ifitm5
Ifitm6
Ifitm7
Ift122
Igdcc3
Ifna1
Igfals
Iglon5
Il10
Il1rapl1
Il1rapl2
Il27
Il7r
Il9r
Immp1l
Inhbe
Inip
Ino80b
Insig1
Insig2
Ints12
Ip6k1
Iqgap2
Iqsec1
Islr
Ism1
Ism2
Itga3
Itga6
Ivl
Izumo4
Jph2
Jrkl
Junb
Jund
Jun
Jazf1
Kat6a
Katnbl1
Kb23
Kbtbd11
Kcna2
Kcnb2
Kcnc1
Kcnd1
Kcnd2
Kcnd3
Kcne1l
Kcne2
Kcne4
Kcng1
Kcnip1
Kcnj11
Kcnj1
Kcnj5
Kcnj6
Kcnk1
Kcnk6
Kcnma1
Kcnn3
Kcnq1
Kcnq3
Kcnv1
Kctd1
Kctd8
Kdm3b
Kdm4c
Kdr
Khdc1c
Kif21a
Kif22
Kif3c
Kif4a
Kirrel2
Kirrel3
Klf14
Klf7
Klk14
Klk15
Klra1
Klra2
Klra22
Klrb1b
Klrc3
Klrg1
Kmo
Kng1l1
Kpna4
Kmt2c
Krba1
Kras
Krt222
Krt71
Krt7
Krt79
Krtap16-5
Krtap11-1
Krtap1-3
Krtap2-4
Krtap3-3l1
Krtap3-3
Krtap4-3
Krtap7-1
Ksr2
Lair1
Lalba
Lama2
Laptm4a
Larp1
Lbp
Lcn4
Lcor
Lctl
Ldb2
Ldlrad2
Ldlrad3
Ldoc1l
Lefty1
Lenep
Leprel1
Lgi1
Lgr6
Lims1
Lin52
Lin7a
Lin7c
Lingo2
Lingo4
Liph
Llph
Lman2l
Lmo4
Lmx1b
Lnp1
LOC100125368
LOC100302465
LOC100302372
LOC100359421
LOC100359479
LOC100359539
LOC100359613
LOC100359615
LOC100359700
LOC100359767
LOC100359930
LOC100359956
LOC100360120
LOC100360145
LOC100360238
LOC100360413
LOC100360522
LOC100360557
LOC100360645
LOC100360977
LOC100360993
LOC100361016
LOC100361052
LOC100361067
LOC100361079
LOC100361083
LOC100361344
LOC100361388
LOC100361422
LOC100361476
LOC100361584
LOC100361595
LOC100361671
LOC100361713
LOC100361830
LOC100361913
LOC100361925
LOC100361933
LOC100361993
LOC100362069
LOC100362109
LOC100362342
LOC100362400
LOC100362479
LOC100362612
LOC100362709
LOC100362738
LOC100362748
LOC100362926
LOC100362978
LOC100362987
LOC100363125
LOC100363129
LOC100363184
LOC100363228
LOC100363268
LOC100363408
LOC100363500
LOC257642
LOC287167
LOC288330
LOC290453
LOC291547
LOC291863
LOC298139
LOC298111
LOC299312
LOC300249
LOC300308
LOC300429
LOC301165
LOC301861
LOC302157
LOC302576
LOC302762
LOC302999
LOC304239
LOC304725
LOC306456
LOC306766
LOC308990
LOC310891
LOC310926
LOC314776
LOC360919
LOC362758
LOC363224
LOC363500
LOC365232
LOC365791
LOC365828
LOC365829
LOC365839
LOC365940
LOC366709
LOC366782
LOC367333
LOC367515
LOC367545
LOC367746
LOC497796
LOC498063
LOC498300
LOC498330
LOC499479
LOC499607
LOC499971
LOC500034
LOC500350
LOC500354
LOC500610
LOC500948
LOC501033
LOC501116
LOC501217
LOC501233
LOC501406
LOC502622
LOC503134
LOC678893
LOC679087
LOC679149
LOC679219
LOC679247
LOC679491
LOC679519
LOC679528
LOC679565
LOC679581
LOC679894
LOC679976
LOC680097
LOC680142
LOC680160
LOC680236
LOC680257
LOC680329
LOC680367
LOC680375
LOC680394
LOC680442
LOC680606
LOC680700
LOC680928
LOC680955
LOC681022
LOC681040
LOC681066
LOC681100
LOC681182
LOC681193
LOC681367
LOC681468
LOC681658
LOC681817
LOC681871
LOC682408
LOC682793
LOC682988
LOC684395
LOC684444
LOC684480
LOC684539
LOC685116
LOC685181
LOC685203
LOC685580
LOC685596
LOC685680
LOC685707
LOC685718
LOC685772
LOC685776
LOC685849
LOC686129
LOC686660
LOC686677
LOC687896
LOC688282
LOC688411
LOC688442
LOC688462
LOC688516
LOC688526
LOC688546
LOC688684
LOC688754
LOC688765
LOC688778
LOC688899
LOC688924
LOC688980
LOC689039
LOC689092
LOC689166
LOC689230
LOC689396
LOC689499
LOC690096
LOC690114
LOC690140
LOC690251
LOC690271
LOC690288
LOC690318
LOC690384
LOC690581
LOC690821
LOC691033
LOC691044
LOC691056
LOC691074
LOC691083
LOC691153
LOC691194
LOC691519
LOC691647
LOC691889
LOC691895
LOC691960
LOC691984
LOC691995
Loxhd1
Loxl2
Lpar2
Lpar5
Lppr2
Lrch2
Lrig1
Lrit1
Lrp1b
Lrpap1
Lrrc10b
Lrrc30
Lrrc4
Lrrc4b
Lrrc4c
Lrrc57
Lrrc72
Lrrc8b
Lrrtm4
Lsm10
Lsm11
Lsm14b
Lsm6
Luzp1
Ly49i3
Ly49i5
Lynx1
Lypd6
M1ap
Mab21l2
Maf
Mafb
Magea10
Magea8
Mageb1
mageb1l1
Map10
Map3k15
Map6
Map7
Mapk1
Mapk11
Mapk1ip1
Mapk4
March6
March9
Marcks
Marveld1
Marveld2
Masp1
Max
Mb21d1
Mbtps1
Mcart1l
Mcfd2
Mcm7
Mcpt1l2
Mcpt1l3
Mcpt4
Mdk
Mdn1
Mecom
Med11
Med17
Medag
Mesdc1
Mest
Mettl1
Mettl22
Mettl24
Mex3a
Mex3d
Mff
Mfsd1
MGC109340
Mia3
Micu3
Mief1
Mien1
Milr1
Mip
Mkl2
Mkx
Mlxipl
Mmgt1
Mnd1
Mob2
Mobp
Mpc2
Mpp5
Mpp7
Mpv17
Mpv17l
Mpz
Mrgprf
Mrgprx3
Mrp63
Mrpl12
Mrpl15
Mrps35
Mrps6
Ms4a1
Ms4a12
Ms4a6a
Ms4a6c
Ms4a6bl
Msra
Msrb3
Mstn
Mtcp1
Mtdh
Mtif2
Mtmr1
Mtpn
Mtss1l
Mtx3
Muc5ac
Mup5
Mut
Myadml2
Musk
Myl2
Myl7
Mylip
Mylk4
Myo5c
Naa16
Naa50
Nacc2
Naf1
Naif1
Nap1l2
Naglu
Nav3
Ncan
Nccrp1
Ncmap
Nde1
Ndnf
Ndufs6
Nedd4
Negr1
Nelfcd
Neurl2
Nfatc2ip
Nfkbid
Ngfrap1
Nid1
Nipal3
Nkain3
Nkapl
Nkd1
Nktr
Nkx2-4
Nkx2-5
Nlgn1
Nlgn2
Nmrk2
Nmur1
Nnat
Nog
Nol6
Nova1
Nova2
Notch2
Nphp1
Nptn
Nps
Nr1i3
Nr3c1
Nr6a1
Nrg2
Nrg3
Nrip2
Nrn1
Ns5atp9
Nrxn3
Nrxn2
Nt5c
Ntm
Ntng1
Nudcd3
Nudt10
Nudt11
Numbl
Nup214
Nudt7
Nupl1
Nupr1l
Nxph2
Nxph3
Nxph4
Oas1b
Obox1
Ociad2
Ogdh
Olig3
Olr101
Olr1024
Olr1012
Olr1022
Olr1088
Olr109
Olr1171
Olr1203
Olr1217
Olr1219
Olr1226
Olr1234
Olr1239
Olr1278
Olr1291
Olr1320
Olr1321
Olr1326
Olr1335
Olr1353
Olr1406
Olr1418
Olr1433
Olr1475
Olr1481
Olr1485
Olr1498
Olr1499
Olr1505
Olr1523
Olr1535
Olr1546
Olr155
Olr1564
Olr1572
Olr1585
Olr1644
Olr1668
Olr1671
Olr1675
Olr1686
Olr17
Olr1700
Olr1708
Olr1726
Olr1729
Olr1731
Olr1736
Olr1748
Olr1765
Olr1876
Olr1877
Olr20
Olr23
Olr240
Olr267
Olr271
Olr349
Olr363
Olr376
Olr399
Olr40
Olr446
Olr469
Olr48
Olr566
Olr576
Olr598
Olr62
Olr635
Olr668
Olr687
Olr69
Olr709
Olr716
Olr763
Olr765
Olr80
Olr801
Olr818
Olr819
Olr845
Olr847
Olr906
Olr936
Olr943
Olr97
Onecut2
Ooep
Oog3
Oosp1
Ormdl1
Osbpl10
Ostn
Ostf1
Otol1
Otud7a
Otulin
Ovca2
Otx2
P2ry2
Pabpc1l2a
Pabpc5
Pacrg
Pacrgl
Pacs2
Pacsin2
Pafah1b2
Paip2
Palld
Papd4
Paqr9
Pard3
Park2
Parm1
Parn
Parp12
Pbp2
Pcbd2
Pcdha8
Pcdha9
Pcdhb11
Pcdhb22
Pcdhga1
Pcdhga10
Pcdhga11
Pcdhga3
Pcdhga5
Pcdhga7
Pcdhga8
Pcdhga9
Pcdhgb7
Pcdhgb8
Pced1b
Pcmt1
Pcsk1
Pcsk5
Pctp
Pdcd1
Pde1a
Pde1c
Pde4a
Pde6g
Pdf
Pdia3
Pdk4
Pdxk
Pdzd9
Peg12
Pet112l
Pex13
Pgs1
Phb2
Phf11b
Phka2
Phox2a
Pigg
Pigr
Pigx
Pigz
Pik3c2g
Pink1
Pinx1
Pip5kl1
Pithd1
Pitpnc1
Pja2
Pla2g12a
Plac8l1
Plaur
Plcb1
Plcb4
Plcl1
Plekhg6
Plin1
Pln
Plxna1
Plxna4a
Plxnb1
Pm20d2
Pnma3
Pnma5
Pnrc1
Poc5
Polg2
Polr3a
Polr3gl
Pomp
Pop5
Potec
Pou3f2
Pou3f3
Prelid2
Ppcdc
Ppih
Ppm1b
Ppm1l
Ppm1m
Ppm1n
Ppp1r13l
Ppp1r2
Ppp1r21
Ppp1r26
Ppp1r42
Ppp2r2b
Ppt1
Pqlc2
Prame
Pramel3
Pramel7
Prdm8
Prkar2b
Prkcq
Prkd1
Prl7d1
Prl8a5
Prm1
Prmt8
Prnd
Prodh2
Prom1
Prorsd1
Proser2
Prp15
Prp2l1
Prr15l
Prr32
Prrc2b
Prrt3
Prss32
Prss48
Prss8
Prx
Psapl1
Psg19
Psma2
Psmb1
Psmb11
Ptch2
Ptdss1
Ptdss2
Ptgdrl
Ptges3l1
Ptgs2
Ptpla
Ptpn1
Ptprd
Ptprk
Purb
Pvalb
Pvrl1
Qpct
R3hcc1
Rab11fip5
Rab12
Rab13
Rab14
Rab1b
Rab26
Rab2a
Rab40c
Rab5a
Rab6a
Rab8b
Rac3
Rai1
Ralb
Ralgapa1
Ralgapb
Ranbp6
Rap1b
Raph1
Rarb
Rasgef1a
Rassf9
RatNP-3b
Rax
Rbm14
Rbm15
Rbm19
Rbm27
Rbm28
Rbm4
Rbm8a
Rbms3
Rbpjl2
Rbx1
Rcbtb1
Rcc2
Rd3
Rdh5
Reg1a
Rem1
Rere
Rerg
Rest
Rfng
Rgag1
RGD1304622
RGD1304704
RGD1305184
RGD1305464
RGD1305508
RGD1305537
RGD1305743
RGD1306063
RGD1306282
RGD1306353
RGD1306271
RGD1306556
RGD1306926
RGD1306995
RGD1307262
RGD1307537
RGD1308117
RGD1308544
RGD1309049
RGD1309350
RGD1309362
RGD1309540
RGD1309621
RGD1309651
RGD1309783
RGD1309821
RGD1310049
RGD1310127
RGD1310212
RGD1310257
RGD1310819
RGD1311093
RGD1311224
RGD1311318
RGD1311558
RGD1311595
RGD1559441
RGD1559459
RGD1559519
RGD1559575
RGD1559588
RGD1559714
RGD1559804
RGD1559955
RGD1559970
RGD1559962
RGD1559971
RGD1560034
RGD1560069
RGD1560112
RGD1560203
RGD1560398
RGD1560470
RGD1560523
RGD1560559
RGD1560617
RGD1560648
RGD1560687
RGD1560784
RGD1560775
RGD1560797
RGD1560857
RGD1560883
RGD1560936
RGD1560958
RGD1561102
RGD1561114
RGD1561118
RGD1561113
RGD1561137
RGD1561154
RGD1561151
RGD1561149
RGD1561252
RGD1561277
RGD1561288
RGD1561317
RGD1561481
RGD1561520
RGD1561558
RGD1561635
RGD1561661
RGD1561671
RGD1561689
RGD1561694
RGD1561766
RGD1561777
RGD1561778
RGD1561796
RGD1561853
RGD1561928
RGD1561931
RGD1561986
RGD1562011
RGD1562114
RGD1562276
RGD1562378
RGD1562392
RGD1562404
RGD1562431
RGD1562485
RGD1562608
RGD1562638
RGD1562667
RGD1562673
RGD1562914
RGD1562948
RGD1563072
RGD1563136
RGD1563124
RGD1563365
RGD1563383
RGD1563400
RGD1563405
RGD1563441
RGD1563620
RGD1563482
RGD1563503
RGD1563528
RGD1563551
RGD1563554
RGD1563668
RGD1563753
RGD1563834
RGD1563847
RGD1563888
RGD1563937
RGD1563978
RGD1564095
RGD1564129
RGD1564138
RGD1564148
RGD1564273
RGD1564324
RGD1564378
RGD1564386
RGD1564419
RGD1564420
RGD1564469
RGD1564597
RGD1564651
RGD1564657
RGD1564698
RGD1564770
RGD1564839
RGD1564899
RGD1565117
RGD1565131
RGD1565252
RGD1565317
RGD1565356
RGD1565355
RGD1565617
RGD1565693
RGD1565766
RGD1565977
RGD1566006
RGD1566029
RGD1566035
RGD1566059
RGD1566120
RGD1566314
RGD1566373
RGD1566387
Rgmb
Rgp1
Rgs22
Rgs3
Rgs7bp
Rgsl2h
Rhbdf2
Rhob
Rhoa
Rhoc
Rhox13
Ric1
Rimbp3
Riok1
Ripply1
Ripply2
Rita1
Rln3
Rmnd5a
Rmt1
Rn28s
Rn5s
Rnase1l2
Rnase4
Rnase6
Rnf11l1
Rnf125
Rnf128
Rnf139
Rnf146
Rnf170
Rnf26
Rnf32
Rnf6
Rnpc3
Rnpepl1
Ror1
Ros1
Rpgrip1
Rpl10l
Rpl11
Rpl31
Rpl32-ps1
Rpl34l1
Rpl37a
Rpl37a-ps1
Rprm
Rps15al1
Rps19l1
Rps27l
Rps27l3
Rps6ka1
Rrad
Rrs1
Rsad1
Rsad2
Rsl1d1
Rslcan18
Rsrc1
RT1-CE12
RT1-CE5
RT1-Db2
RT1-DOa
RT1-Ha
RT1-S3
RT1-T18
Rtkn2
Rtn4r
Rttn
Rundc1
Rxra
Rybp
S100a11
S100a14
S1pr3
Sag
Samd14
Sap130
Sat2
Scamp5
Scara5
Scg5
Scgb2b2
Scimp
Scn7a
Sct
Scube2
Sdc2
Sdr16c6
Sec1
Selplg
Selt
Sema4b
Sema5b
Sema6a
Senp1
Senp2
Sephs2
Sepn1
Serac1
Serp1
Serpina3n
Serpinb3
Serpinb3a
Serpinb5
Setdb2
Sfrp1
Sft2d3
Sft2d2
Sgcz
Sgip1
Sgk494
Sgpp1
Sgsh
Sgtb
Sh2d6
Sh3gl2
Sh3rf3
Shb
Shf
Shisa4
Shisa6
Shroom1
Siah1
Simc1
Sipa1l1
Sirt1
Six5
Skida1
Skint8
Skp1
Sla
Slain1
Slc13a4
Slc14a1
Slc16a10
Slc16a1
Slc16a7
Slc17a7
Slc1a1
Slc19a1
Slc1a4
Slc22a24
Slc22a8
Slc25a11
Slc25a45
Slc25a6
Slc26a10
Slc27a6
Slc28a2
Slc29a2
Slc2a3
Slc35d1
Slc35f4
Slc37a3
Slc39a10
Slc44a1
Slc46a1
Slc4a11
Slc51b
Slc6a20
Slc7a12
Slc9a3r1
Slc9a6
Slfn1
Slfn4
Slfn5
Slco1b2
Slmo2
Slpil3
Slpi
Smad2
Smad5
Smarcc2
Smarce1l
Smdt1
Smg5
Smgc
Smim19
Smim24
Smim4
Snap25
Snrpd3
Snrpn
Socs3
Socs7
Sowahb
Sox14
Sox5
Sox9
Sp5
Spaca3
Spaca4
Spaca5
Spag6
Spats1
Spdye4
Spg20
Sphk1
Spin3
Spink12l1
Spink14
Spink6
Spint5p
Spn
Spock2
Spopl
Sppl3
Sprr1a
Spry3
Spty2d1
Spz1
Srebf1
Srpr
Ssbp2
Ssc4d
Ssna1
Ssty1
Ssx1
Ssx2
Stac
Stard4
Stau2
Stfa2l1
Stk24
Stk32b
Stk38
Stoml1
Strn
Stx1b
Sulf1
Sult1c2a
Sult2a1
Sult2a2
Sult2b1
Supt3h
Surf4
Susd4
Svip
Syce2
Syde2
Syk
Synj2bp
Synm
Synpr
Syt2
Taar8c
Tacstd2
Tacr1
Taf13
Taf3
Taf4b
Taf9b
Tal1
Tango6
Tapt1
Tardbp
Tas2r102
Tbata
Tbc1d1
Tbc1d10a
Tbc1d13
Tbc1d15
Tbc1d23
Tbc1d7
Tbc1d5
Tbc1d8b
Tbl2
Tbpl2
Tbrg4
Tbx3
Tcaim
Tceb2
Tceb3
Tcf25
Tcfl5
Tcf7l2
Tcp10b
Tctex1d1
Tctn3
Telo2
Ten1
Tesc
Tex261
Tfcp2l1
Tgfb2
Tgm6
Thap2
Thbd
Thbs1
Thoc1
Thpo
Thrb
Tiparp
Tipin
Tirap
Tk1
Tldc2
Tln2
Tlx2
Tm4sf20
Tmcc1
Tmco1
Tmco2
Tmco5a
Tmco5b
Tmem120b
Tmem121
Tmem132b
Tmem136
Tmem139
Tmem145
Tmem151a
Tmem167a
Tmem170a
Tmem178b
Tmem213
Tmem216
Tmem220
Tmem221
Tmem231
Tmem238
Tmem239
Tmem251
Tmem30b
Tmem56
Tmem64
Tmem74
Tmem74b
Tmem8b
Tmem95
Tmlhe
Tmprss11f
Tnfaip8l1
Tnfaip8l3
Tnfrsf22
Tnfsf8
Tnip3
Tnnc1
Tnnc2
Tnnt3
Tnrc6a
Tns4
Tp53bp2
Tpmt
Tprkb
Traf1
Traf3
Traf7
Trappc2
Trappc3l
Trappc9
Trdn
Treml4
Trhr2
Trim25
Trim33
Trim44
Trim50
Trim63
Trmt10a
Trmt112
Trmt44
Trnau1ap
Trnp1
Tsc22d4
Tshz1
Tshz2
Tspo2
Tspyl5
Tsr2
Tssc1
Tssk2
Tssk1b
Tstd1
Ttc23
Ttc25
Ttc30b
Ttc28
Ttc38
Ttc37
Ttc9c
Txn1
Txndc16
Txndc5
Tymp
Tyw3
U2surp
Ubap1l
Ube2d4
Ube2d4l1
Ube2e2
Ube2e1
Ube2g2
Ube2l3
Ube2o
Ube2q2l
Ube2w
Ube3c
Ubxn2a
Ucn3
Ucn2
Ucp2
Ugt2b7
Unc13c
Unc5c
Upk3b
Uqcr10
Ush2a
Usp11
Usf2
Usp29
Usp26
Usp3
Usp35
Usp38
Utp15
Utp6
Utrn
Vapb
Vash1
Vbp1
Vcpip1
Vegp2
Vezf1
Vhll
Vom1r100
Vom1r108
Vom1r109
Vom1r27
Vom1r49
Vom1r6
Vom1r60
Vom1r68
Vom1r74
Vom1r78
Vom1r93
Vom2r1
Vom2r12
Vom2r17
Vom2r19
Vom2r21
Vom2r23
Vom2r31
Vom2r4
Vom2r55
Vom2r6
Vom2r62
Vom2r66
Vom2r70
Vpreb1
Vps13a
Vps41
Vsig1
Vwa5a
Vwde
Vwf
Wapal
Wbscr17
Wdr44
Wdr5b
Wdr86
Wdr87
Wdr88
Wfdc12
Wfdc8
Wipf3
Wnt10b
Wnt2
Wnt3a
Wwc3
Wwox
XAF1
Xk
Xkr6
Xkr8
Xpo7
Xxylt1
Yaf2
Yap1
Ybx1-ps3
Ybx2
Yjefn3
Ypel5
Ythdf2
Zbed4
Zbtb1
Zbtb34
Zbtb4
Zbtb9
Zc2hc1b
Zc2hc1a
Zc2hc1c
Zc3h4
Zcchc11
Zcchc18
Zcchc3
Zdhhc18
Zdhhc21
Zdhhc23
Zfand5
Zfhx3
Zfp1
Zfp111
Zfp113
Zfp14
Zfp174
Zfp182
Zfp281
Zfp300
Zfp316
Zfp317
Zfp334
Zfp347
Zfp385c
Zfp395
Zfp397
Zfp40
Zfp42l
Zfp428
Zfp462
Zfp496
Zfp503
Zfp512
Zfp518b
Zfp52
Zfp526
Zfp53
Zfp566
Zfp574
Zfp580
Zfp583
Zfp597
Zfp641
Zfp654
Zfp655
Zfp668
Zfp697
Zfp7
Zfp704
Zfp706
Zfp709l1
Zfp69
Zfp711
Zfp770
Zfp867
Zfp868
Zfp869
Zfp951
Zfp952
Zfp958
Zfp964
Zfpm2
Zhx2
Zmat2
Zmat4
Zmiz1
Zmym6nb
Znf750
Znhit1
Zscan2
Zyg11b
