adr-2
aip-1
akt-1
alg-2
arf-1.1
arl-8
arr-1
baf-1
bar-1
ccr-4
ceh-10
cel-1
cep-1
che-11
cit-1.2
clk-1
clk-2
cul-1
daf-1
daf-9
daf-19
dhs-21
egl-45
eri-1
erm-1
qars-1
fat-7
fbp-1
gpd-2
gsa-1
hus-1
iff-1
jkk-1
lbp-6
lbp-7
lin-2
lin-3
lin-23
lmn-1
lars-2
mdh-2
mod-5
mtm-3
nfi-1
npp-2
npp-3
ntl-3
nuc-1
nuo-1
osm-3
blmp-1
pat-4
rbr-2
rcq-5
rpl-30
rps-11
sem-5
ser-1
set-2
sir-2.1
sod-2
spe-5
spt-4
abcx-1
tba-7
tbp-1
tom-1
ubc-13
ulp-1
unc-51
vhl-1
vit-2
vit-5
yars-1
wts-1
B0285.3
atp-5
C07A9.2
C08B11.9
C11H1.3
C14A4.9
C18E9.4
C33A12.1
F13G3.7
F15D3.8
F21D5.8
ncbp-2
F26A3.4
sac-1
F36A2.7
F55C9.3
F55D12.5
F59C6.5
K01C8.7
K01G5.8
K05C4.3
LLC1.3
R10E4.9
T04F3.2
dkf-2
W03C9.1
ash-2
Y39A1A.24
rsks-1
ddl-2
Y53F4B.23
Y53F4B.24
hhat-2
fbxa-220
ZK856.7
clec-186
ZK1098.1
B0205.8
tag-224
C26B2.2
C48E7.2
vps-37
cyc-2.1
F08F8.7
F09F7.3
F28B3.5
vrk-1
F33D4.5
smk-1
F54F2.7
ucr-1
F59A3.3
F59A7.5
F59A7.7
K10B4.3
pup-2
cid-1
R12E2.2
gcy-28
T04A6.1
T12E12.1
T27F7.1
eif-1
W03G1.8
dct-11
nol-1
arx-4
Y23H5B.8
Y54G2A.19
Y55F3AM.3
Y76B12C.3
ZK742.2
aat-8
abu-11
ace-1
aco-2
adr-1
age-1
amt-2
aps-3
asb-2
asg-1
asg-2
asm-3
atp-2
atp-3
bec-1
bra-1
cco-1
cct-4
cct-6
cdc-25.1
cdc-25.3
cdk-7
ced-3
ceh-18
che-2
che-3
che-13
chk-1
cku-70
cnb-1
col-93
crn-5
cua-1
cup-4
cwp-4
cyc-1
daf-2
daf-3
daf-4
daf-5
daf-6
daf-7
daf-8
daf-10
daf-12
daf-14
daf-15
daf-16
daf-18
daf-28
des-2
dis-3
dlk-1
eat-2
eat-3
eat-6
eef-2
egl-3
egl-4
egl-8
egl-9
egl-10
egl-18
egl-30
eif-3.B
eif-3.F
elo-5
elt-6
ero-1
exo-3
frh-1
ftt-2
fzy-1
gas-1
gcy-6
gdi-1
acdh-13
glp-1
goa-1
gpa-1
gpa-2
gpa-3
gpa-5
gpa-6
gpa-8
gpa-9
gpa-10
gpa-11
gpa-15
gpc-1
grl-19
gro-1
gst-5
gst-10
hcf-1
him-6
his-71
hpk-1
hrp-1
hsf-1
hsp-4
hsp-6
hsp-16.1
hsp-16.48
htp-3
hyl-1
ife-1
ife-2
ifg-1
inf-1
ins-1
ins-7
ins-18
ins-21
inx-8
inx-9
inx-14
ire-1
isp-1
itr-1
jnk-1
kat-1
lbp-4
ldb-1
lem-2
let-23
let-60
let-363
let-502
let-653
let-765
lgg-1
lin-14
lin-40
lpd-5
lsm-7
lys-6
lys-8
lys-10
mag-1
max-1
max-2
mcm-2
mec-8
mep-1
mes-1
mev-1
mkk-4
mpk-1
mpz-1
mrp-5
mars-1
mtl-2
mxl-2
nac-2
nac-3
nas-38
nhr-14
nhr-49
nhx-2
nlp-7
nnt-1
npa-1
nars-1
ocr-2
odr-3
old-1
pept-1
osm-1
osm-5
osm-6
pab-1
pab-2
par-5
pat-6
pcm-1
pdk-1
pes-2.1
pfn-2
pgl-1
pha-4
phb-1
phb-2
pnk-1
pod-1
pos-1
prx-5
ptr-23
rab-5
rab-7
rab-10
rhi-1
ric-4
rnf-5
rpl-4
rpl-9
rpl-19
rps-3
rps-5
rps-6
rps-8
rps-10
rps-15
rps-22
rps-23
rps-26
sca-1
scd-2
scl-1
sel-5
ser-4
sgk-1
sid-2
skn-1
skr-1
skr-2
skr-5
smg-1
smn-1
sod-1
spe-26
spg-7
spl-1
spp-17
sru-17
srw-20
srw-99
srw-100
sup-37
syd-2
prdx-2
tag-60
ant-1.1
nduf-2.2
wdr-5
lagr-1
vps-16
tag-174
tax-4
tax-6
tlf-1
top-1
tpa-1
tars-1
ttx-1
ttx-3
tub-1
ubh-1
ubh-3
ubh-4
ufd-1
unc-4
unc-10
unc-13
unc-26
unc-31
unc-32
unc-52
unc-60
unc-62
unc-64
unc-76
unc-83
vab-1
vha-6
zfp-1
tufm-1
wwp-1
epc-1
B0001.3
B0024.4
mboa-1
B0491.5
B0513.2
agmo-1
cpna-3
acs-7
C01G10.6
C08B6.2
nhr-154
ril-2
C17H1.7
C18E9.10
C25D7.10
C27B7.7
nrx-1
C30H6.8
C31H5.4
C32A3.2
C32H11.1
C32H11.5
C32H11.9
dod-24
C36A4.5
C36H8.1
scl-8
C40H1.2
ttr-5
C47E12.2
sams-1
set-6
C50B8.1
ril-1
dod-18
C54G10.4
CE7X_3.1
D1054.8
D1054.14
D2030.1
D2030.4
wdr-23
D2085.3
tkt-1
cyp-13B1
din-1
clec-227
F11A3.2
F14B4.1
F14B4.3
F15B9.6
vps-36
F19B6.1
F22B5.10
F23A7.5
F25B3.5
F26E4.4
F26E4.6
acs-20
usp-48
F33H2.8
sas-5
F40F8.5
F40F12.7
F42G10.1
F43D2.1
F43G9.1
F44E5.2
F45B8.3
F45D3.3
F45H10.2
drr-1
fbxa-188
F49C12.9
dod-23
F52A8.1
F53F4.11
F55B11.1
F55B11.3
F55B11.5
F55B12.4
aakb-1
dod-22
F56D5.5
F58D5.3
dct-18
F59B2.8
idh-1
exos-3
slcf-1
hpa-1
H28O16.1
JC8.4
K01C8.6
ttr-1
iftb-1
K07F5.12
K08E3.5
K08E4.6
eak-7
dod-17
K11B4.1
M05B5.2
atg-7
M117.3
rle-1
R03A10.1
R03D7.4
R04D3.4
prdx-3
R10H10.7
R11A5.4
R53.4
R166.3
mnk-1
sbt-1
T05A1.5
cchl-1
T06G6.4
T07A5.5
T07C4.11
T08D2.1
T08D2.8
T09A5.8
drr-2
T19B10.2
T20D3.6
T20F10.2
chc-1
T21B10.1
hlb-1
T27E9.2
T27F6.1
T28A8.6
T28D6.4
ifta-2
W04A8.3
lpr-5
dct-15
W09C5.8
W09D10.3
mecr-1
Y37D8A.12
cco-2
Y37D8A.18
dct-14
Y39B6A.3
sptf-3
Y41C4A.11
Y41E3.8
Y43C5A.3
Y43F4B.7
Y43F8B.12
Y46G5A.20
aakb-2
Y47D3A.29
Y47H9C.1
Y50E8A.12
Y52B11A.9
Y54E5A.6
Y54E5A.7
bub-3
ddl-3
Y56A3A.19
rsr-2
sinh-1
Y57A10C.1
dct-12
nuo-3
Y75B8A.13
Y75B8A.33
acs-5
cyp-42A1
atg-4.1
gpi-1
Y105E8A.20
dct-13
Y116A8C.30
kri-1
scl-20
ZK632.9
atg-4.2
ZK809.3
ZK856.4
ZK1098.11
trx-1
B0261.4
vps-33.1
B0432.13
B0495.8
B0511.6
B0546.3
dod-20
C01F1.1
sco-1
C03H5.3
C04E6.7
C06A5.1
rha-2
sams-3
ain-1
C09B7.2
C17E7.9
mdt-26
C25H3.9
C26B9.3
vps-22
C29F9.1
C29F9.2
C30A5.3
C30C11.4
C31B8.4
tbc-7
set-4
C33F10.12
C33H5.18
C35A11.3
C35D10.17
C37A2.8
madd-2
C42C1.3
C46G7.2
C50F7.10
C56G2.1
C56G2.5
C56G2.9
D1014.2
D1069.3
D2096.7
E02H9.5
E03H12.5
maoc-1
EEED8.2
F08B4.7
apy-1
numr-2
numr-1
F09C12.6
F09F7.5
F09G8.3
F11G11.13
F13B6.1
F14D2.5
cst-1
F14H12.7
set-9
F16H11.3
F20B6.7
F21H12.1
ets-4
F22D3.5
F23F12.3
symk-1
acl-11
F29B9.8
F29C4.2
F29C4.7
F35D2.3
F35F11.2
F36H5.4
F37C4.4
F39F10.3
F40G9.5
cutl-28
atg-18
cyp-33E2
F43E2.7
F45E12.5
F45F2.9
F46E10.2
F49F1.12
F52C6.2
F53B1.2
F53H1.3
shc-1
F54D12.4
F55E10.7
F57B10.3
F58F9.7
ddl-1
glf-1
H06H21.8
tmem-135
nuo-4
K07H8.1
K07H8.8
scrm-8
K11D12.9
K12H4.5
calu-1
M57.2
R02F11.3
R05G6.9
R07E4.3
R08E3.3
set-15
R12B2.6
wip-1
aak-2
T02H6.11
atp-4
T07A9.8
T09A12.5
nuo-2
hpa-2
T17A3.12
T20H4.5
sma-10
T22B11.5
atg-9
T22H9.4
ucr-2.3
T25D10.1
nol-5
W03D2.9
W03G1.5
sbds-1
Y17G9B.8
Y20F4.2
Y23B4A.2
pnc-1
Y39F10C.1
Y39G10AR.8
Y39H10A.6
lbp-9
mvk-1
Y43H11AL.2
Y45G5AM.5
nuo-5
Y46H3C.6
Y47G6A.18
Y48G1A.4
Y53G8AR.1
ral-1
Y54E10BR.4
Y55B1AL.2
atg-3
vps-20
Y65B4A.4
Y65B4BR.5
Y69A2AR.19
pghm-1
atg-5
Y71H2AM.5
Y71H2AR.2
Y73B3A.10
srt-56
Y76B12C.8
Y77E11A.6
Y77E11A.7
Y110A2AM.4
bet-1
ZC132.3
ZC250.3
ZC262.2
ZC262.3
dod-19
ZK686.2
ZK688.7
ZK1127.5
dve-1
C25E10.13
lin-15B
Y57A10C.11
tag-264
ZC239.20
F59A6.10
bus-4
bus-8
Y49A10A.2
Y41E3.19
Y54G11A.17
Y82E9BR.25
Y10G11A.90
ZK1127.13
F30A10.15
