FUN12
ASF1
CYC1
OPI3
YUH1
SAC1
LOS1
VPS24
DNM1
FBP1
NAM2
SIR3
RPL6B
RPL6A
RPS1B
RPS18B
RIM11
MRE11
FIG4
ERG24
RAD50
PSD1
PHO23
SAL1
GYP1
PTC5
CRC1
CAT5
SNX3
CUP9
ELP3
PHO85
CLB2
CTF4
PET112
PRX1
COQ1
RPL4A
ATP3
VMA2
CIT2
PMP1
YIH1
UFD2
RPS11A
TVP23
ADK1
SIR4
AKR1
INM2
ADA2
RPS18A
VAC8
LPD1
LSB3
TAN1
YPT32
RPL1B
PAC10
CYS4
MRPL9
HSE1
SOD2
YSC84
INM1
ARP1
FLX1
GDH3
SPC72
CLN3
CYC3
SWC3
VPS8
SWD1
ADE1
PEX2
ACO2
CDC6
RPL39
SWE1
RPL17B
CPS1
SET2
QCR8
TPK1
TIF2
RPS21B
LCB3
SPT10
MTC1
LSB6
BCK1
SRS2
SCP160
PRY1
ARG2
LAS21
YHC3
MHP1
MAD2
BBC1
CYR1
SYS1
AVT1
SAG1
RAV1
PTK2
TOR1
MIR1
BNA2
AIM24
BIR1
RPL43B
VPS25
SOD1
ATP2
IBA57
VPS70
RSF2
MNS1
HIR3
RPS4A
ADD66
MNN4
COY1
NNK1
MRPL38
TPK3
RPS27A
CTK1
APL2
YPK1
DGR2
RAD27
HAP4
AAT1
SEG2
CYT2
MDH1
LHS1
TMA19
DCW1
PHD1
NFU1
RGT1
MRT4
VPS1
FOX2
SET3
DID2
UTH1
FMP46
MRS4
TIF1
GPT2
SIS2
MTD1
MRPL20
OMA1
PXL1
ESL2
PCK1
BAS1
VBA5
FRE6
RPL8B
ATG10
UBI4
TPO1
HSP104
BPT1
SSK1
IZH3
AAT2
TRX1
PDC1
RPS0B
SPT8
SHM2
RPL22A
RPL10
SIC1
NYV1
KIN2
HRT3
LCL2
DCN1
TIS11
ACS2
UPS2
IDP2
RFX1
SAM1
VTA1
SWI6
RPL37A
NMT1
QRI5
HRD3
FAR10
LIP2
VPS34
ERF2
SSP120
SYM1
GSY2
YPT6
UBC12
CDC25
BUD6
VRP1
TAL1
VPS38
STE11
NMD4
ROM2
VID22
IKI3
FLD1
PUN1
ATG17
TDA5
DIF1
MRPL4
GMC2
VMA6
LEU3
PGA3
GTR1
NDI1
COQ5
ZDS2
RAD10
ATP18
GAL80
AMD1
RAD52
RPS17A
APT1
PPZ1
TRM9
MRPL39
ERG6
YPT7
ERG5
FAR8
CCS1
SUB1
FET3
AEP1
UBX4
VPS20
YKU80
ADE17
GID8
RPL13B
NDE1
AIM36
ATG16
ALD3
SIP18
SSO2
ADD37
SGS1
MRPL24
HFA1
SCJ1
UBP8
RPL20A
COA6
RKR1
PET111
ROY1
SAP30
PPA2
ZDS1
YKU70
DSS1
HER2
JNM1
ADE4
ADH2
GAS1
TGL3
RPD3
PEX6
PFA3
CLA4
MON2
MET2
BNI1
SIP3
MRPL17
VPS75
ATG2
ZWF1
KEX2
URE2
ADE12
RRG9
SPS19
WHI3
RHO5
MRPL22
SKO1
MEP2
AAH1
NRK1
NMA111
RAS2
NST1
PMS1
SWS2
TPM1
MKS1
RNH201
LAT1
RPL9B
MSG5
IDH1
HDA1
ARK1
PUB1
IDP3
HRB1
CIT1
VPS27
URK1
ALG12
SSK2
LYS9
BRE5
PDR18
MDH2
SKM1
INO4
PKH2
COQ3
HMI1
YPQ1
MSH2
ADH1
MDM20
HST1
RTG1
INP54
SPE2
RPP2A
LAG2
TLG2
HRD1
COQ10
TOP1
PFA4
SGT2
EXO1
PEP12
CYC2
HIR2
WHI2
VHS3
CKA2
CYT1
VPS5
VAM10
VPS21
RPS7A
RAS1
VAM3
RGS2
INP53
ADE2
EFT1
IDH2
SFL1
SYC1
GEP3
NPT1
MGM1
MKK1
RPL33B
HNT3
PNT1
VPH1
UAF30
RRG7
MCH5
RPL20B
LDB19
MRS2
MNE1
PDE2
SCP1
GPB1
ALD4
FUM1
APM1
SSO1
USV1
ALG5
TPK2
RTC6
RTT10
NIP100
ATG29
RRD2
ATG5
COX11
TAF14
VPS30
DBP1
MRP51
PEX25
SYH1
ELP4
ATG21
RPS6A
RLM1
YDC1
RPL21B
ATP4
SUR1
LCL1
SSN3
ISM1
EGD1
TRM44
HST2
MRPS16
TAE2
CHL1
NCR1
HAT1
AGC1
YME1
ATH1
CSR2
ERV2
RPL43A
MAK3
ARO7
JID1
FCY1
MED1
RRG8
CTR1
MSS18
MEP3
KAR3
PIN3
MRP2
ATG13
OPT2
SRO77
RTG3
SFT2
ATP1
RPL23A
NUP170
ATG8
SSA3
SAS3
MOH1
COR1
PET9
RPL19B
PIM1
HAP3
FMT1
HIR1
SLA1
ETR1
HMT1
PDX3
CSG2
FAT1
CST26
TCM62
ZTA1
MUM2
AKL1
BAP2
ECM33
MIS1
RPL19A
AAC3
RXT2
SIF2
ATG14
MEC1
RTC2
AMN1
SEC66
UMP1
SWD3
RPS6B
YPC1
MBA1
PCH2
RPL21A
BEM1
ATG12
SWC5
GPX2
ISW1
HIS7
MTC4
SHG1
SHM1
REI1
RIF1
DUG2
APE3
PCA1
PHO89
MAL33
VAC17
GLK1
GID7
GFD2
AGP1
LEU2
SGF29
LDB16
MRPL32
YCP4
RVS161
CWH43
RIM1
BPH1
RRT12
THR4
ATG15
SOL2
ABP1
CDC13
MRPL11
SNF3
ARF1
VMA1
UGA3
ATG9
RGT2
RPL35B
RPP1B
YFH1
PHO2
DUN1
BUG1
PMT1
NDE2
RPL13A
RPP1A
RPL31A
IDP1
SIR2
BSC1
GPR1
RPN4
OSH2
NTH1
RCR2
RAD57
SOK1
DAS2
VMS1
YOS9
RRG1
DOA4
FMP16
PAA1
IPT1
PPH3
RAD55
SED1
VPS41
RRP8
GIS1
MSH6
BMH2
TVP15
TRS85
FOB1
ALT2
SWF1
MTC5
SAC6
FIN1
SWI5
CTH1
RSM24
SAS4
MSS116
UME6
ADR1
RAD9
RTN1
PEX5
VHS1
CTA1
MSW1
BSC2
PMP3
GCN2
ZIP1
SSD1
HDA2
PMT7
PIB1
RAD34
IPK1
MRP1
ESC2
BCS1
LSM6
RPP2B
EFT2
SXM1
HPT1
URH1
SIZ1
RPL12B
SIP1
DYN2
SNX41
NPL3
YHP1
TOM1
PFA5
PKH3
SNF1
PKH1
RPL37B
GIN4
EMI1
EUG1
SPS1
QCR7
CIN8
HAT2
RPL12A
MAK10
PAU2
MTC7
RIP1
UBC8
GCN4
YEA6
VAB2
AFG3
ISC1
GPA2
GLN3
MXR1
CAJ1
RSM18
PIC2
FCY2
RPL34A
PET117
PCL6
FCY21
ICL1
RPS24A
GET2
MET6
RAD51
SSA4
BOI2
SLX8
SAK1
RPS26B
FTR1
RAD4
CHD1
DNF1
BMH1
PDA1
RPO41
RIM15
LOC1
FAR7
ATG18
RPL29
DUG1
BNA6
RMD8
FZF1
HXK2
RTG2
MTO1
ADE5,7
VID30
KIP3
CLG1
VAM7
SIP2
ATG1
TOS3
MPT5
PMR1
PEX14
RPL9A
SNF4
RMD9
TOS8
LCL3
DBP3
HNM1
RPL7A
SGF73
MRH4
SDS23
TIF4632
RIM8
PNC1
CDH1
UGA1
ACB1
KSS1
LST7
ADE6
SPT4
ENV11
UPF3
TWF1
CTT1
DBF2
TPC1
PCP1
VMA21
CLB1
SHY1
PHB1
LSB1
VPS62
SKN1
NSR1
TIF4631
CBP4
ADE3
DIE2
SMI1
PHB2
GCN5
MTM1
YTA7
YOR1
ECM34
CBP2
WSC4
PRS3
LAG1
ARD1
RPS27B
DAP2
RRM3
SSF1
HTD2
NMD2
HXT5
COX23
TOM71
NDT80
ANS1
RTT107
LIN1
DNA2
ATG7
PTH1
EGD2
RPS4B
SCH9
SKN7
GUT2
OM45
ASG1
KGD1
POG1
SDP1
DPH1
FMC1
PRK1
LYS12
SDS3
SEC28
SPO22
RPS24B
RNR3
FIS1
RPL34B
PCL7
TED1
BCY1
YIA6
INP51
YVH1
LYS1
