DSG2
DSP
PC
SELS
STX18
ADRBK1
ADSS
AGK
ACOX2
ACSS1
ABCC10
11-BETA-HSD2
A2M
ABCG3
ABI2
ACAD8
ACADSB
ACAP3
ACER1
ACOT8
ACTG2
ADCY1
ADCY2
ADCY7
ADORA1
ADORA2B
ADPGK
ADRA1A
ADRA1B
ADRB3
AIRE
AK2
AKR7A2
AKT1
ALAD
ALAS1
ALDH1A3
ALDH3A2
ALDH3B1
ALDOC
ALG9
ALK
ALPL
AMOT
AMY2A
ANAPC2
ANAPC4
AOC2
AP1G2
AP2A2
AP2S1
AP4E1
APEX2
APOC3
AQP7
AQP8
AR
ARAF
ARAP2
ARAP3
ARHGEF12
ARPC1B
ARPC2
ASAP1
ASL
ASPA
ATF1
ATG16L1
ATP6V0A2
ATP6V1B2
ATP6V1C1
ATR
AUH
B3GAT2
B3GNT4
B3GNT5
B4GALT2
B4GALT4
B4GALT6
BACE1
BAI1
BAIAP2
BCAP31
BCKDHA
BCL2A1
BCL3
BET1L
BHLHE40
BMP2
BMPR1B
BRCA1
BRS3
BTBD12
C15H9orf95
C5AR1
C7
C8B
CA4
CAB39L
CACNA1C
CALCR
CALD1
CALR
CAMK2G
CANX
CAPN1
CARS2
CASK
CASP1
CASP10
CASP8
CAV1
CBL
CASP12
CCL5
CCL8
CCNA1
CCNB1
CCNB3
CCND3
CCNT1
CCR4
CCR5
CCR6
CCR7
CD14
CD164
CD1E
CD247
CD28
CD44
CD6
CD74
CDC16
CDC40
CDH1
CDH15
CDH5
CDK4
CDK5
CDKN2C
CEL
CELA3B
CFTR
CH25H
CHIA
CHMP5
CHRNA1
CHRNA9
CHST14
CHST2
CHSY1
CIITA
CKB
CKMT2
CLDN11
CLDN22
CLTA
CLTCL1
CNOT2
CNOT3
CNTN1
COL5A2
COL5A3
COL6A3
COLEC12
COMMD3
COQ7
CPB2
CPEB3
CPLX1
CPSF2
CPT1A
CPT2
CREB1
CRYL1
CSNK1A1
CTSC
CTSG
CTU2
CUL1
CUL2
CUL4B
CUL5
CYP17A1
CYP1A1
CYP3A7
DAAM1
DAAM2
DAG1
DAK
DAPK1
DAPP1
DBF4
DBT
DCN
DCP1A
DCP2
DCTD
DCTN4
DCTN6
DCXR
DDC
DDX5
DDX6
DERL3
DGKG
DGKZ
DGUOK
DIAPH3
DICER1
DKC1
DLD
DLG1
DLGAP1
DLL4
DLX5
DNAI1
DNAJA1
DNAJC10
DNAJC3
DNASE2B
DNM1
DNM1L
DOK1
DOLK
DPAGT1
DPM1
DPM2
DPP4
DTD1
DUSP10
DUSP4
DUSP9
E2F5
EGLN2
EHD4
EIF2S1
EIF3I
EIF4G2
EIF5B
ELAVL1
ENTPD5
ENTPD6
EPAS1
EPB41
EPB41L2
EPB41L3
EPHA3
EPHA4
EPHB6
EPRS
ERBB2
ERBB2IP
ERCC5
ERG
ESAM
ESR1
EXOC3
EXOSC7
EXOSC8
EXOSC9
F10
F13A1
F2R
F5
FABP4
FABP7
FANCI
FANCM
FAS
FASLG
FBP1
FBXO5
FBXW8
FGD3
FGF1
FLJ12529
FMO3
FMO4
FMO5
FOSL2
FOXO3
FOXO4
FPGS
FUT4
FYB
FZD10
FZD2
FZD7
G6PC
GAB1
GABRA1
GABRA5
GABRB3
GABRR1
GAD1
GAL3ST1
GALC
GALNT11
GALNT14
GALNT5
GALNT6
GALNT7
GALNTL1
GALNTL2
GALNTL4
GALR1
GANC
GAPDH
GCDH
GCGR
GEMIN4
GGA1
GGA3
GGH
GLI1
GLT8D3
GLUL
GM-CSF
GNA11
GNAS
GNE
GNG11
GNG3
GNL2
GNPTAB
GNRHR
GNS
GOSR1
GPC3
GPLD1
GPR55
GPR83
GPX1
GPX7
GPX8
GRAP2
GRIK4
GRIN1
GRIN2C
GRM8
GRPR
GSK3A
GSTA3
GSTM3
GTF2H2
GTF2I
GUCA1B
GUCY1B3
HACL1
HAGHL
HARS
HCLS1
HERC3
HEXA
HGD
HK3
HMGA2
HMGCS2
HNMT
HNMT
HOMER1
HRH2
HRH3
HS6ST2
HSP90AB1
HTR1B
HTR2C
HTRA2
HYAL1
ICOS
IFNB1
IFNGR2
IGF2R
IL11RA
IL12B
IL15
IL17B
IL17RB
IL1A
IL20RA
IL2RA
IL5
IL6
IL7
IL8RB
ILK
IMMP2L
IMPA1
INPP4A
INPP4B
INPP5B
IQSEC1
IRAK2
IRF3
IRF5
IRS1
IRS4
ISL1
ISY1
ITGA10
ITGA2
ITGA8
ITGA9
ITGAL
ITGAV
ITPR1
JAG2
KCNJ10
KCNJ2
KCNJ3
KCNJ8
KCNK5
KCNMB1
KCNN1
KCNN2
KCNN3
KDR
KIF5B
KIF5C
KITLG
KLF4
KLRC1
KPNA1
KPNA2
KSR1
LAMA3
LAMA5
LAMB3
LAMP2
LAMP3
LARS2
LCK
LCLAT1
LDLR
LGMN
LIG3
LIG4
LMO7
LOC100423176
LOC100423881
LOC100424240
LOC100424601
LOC100424653
LOC100425016
LOC100425123
LOC100425223
LOC100425255
LOC100425854
LOC100425863
LOC100427076
LOC100427804
LOC100427824
LOC100428398
LOC100428498
LOC100429858
LOC100430178
LOC100430225
LOC100430318
LOC100430397
LOC100430612
LOC100430668
LOC100430923
LOC574097
LOC654490
LOC693631
LOC693731
LOC693768
LOC693795
LOC693811
LOC693888
LOC693914
LOC694079
LOC694125
LOC694175
LOC694310
LOC694408
LOC694416
LOC694658
LOC694661
LOC694667
LOC694818
LOC694845
LOC695092
LOC695172
LOC695250
LOC695264
LOC695383
LOC695407
LOC695427
LOC695456
LOC695506
LOC695558
LOC695578
LOC695843
LOC695886
LOC695891
LOC695951
LOC696110
LOC696131
LOC696317
LOC696475
LOC696549
LOC696587
LOC696617
LOC696629
LOC696685
LOC696727
LOC696870
LOC696880
LOC696943
LOC696946
LOC696970
LOC696990
LOC697033
LOC697086
LOC697248
LOC697252
LOC697476
LOC697532
LOC697612
LOC697675
LOC697726
LOC697796
LOC697835
LOC697850
LOC697935
LOC697981
LOC698068
LOC698073
LOC698105
LOC698160
LOC698329
LOC698482
LOC698509
LOC698535
LOC698566
LOC698602
LOC698664
LOC698788
LOC698871
LOC698953
LOC699043
LOC699050
LOC699152
LOC699207
LOC699276
LOC699280
LOC699309
LOC699331
LOC699337
LOC699426
LOC699642
LOC699700
LOC700039
LOC700070
LOC700107
LOC700296
LOC700338
LOC700557
LOC700795
LOC700843
LOC700954
LOC701024
LOC701134
LOC701147
LOC701235
LOC701254
LOC701255
LOC701290
LOC701501
LOC701584
LOC701855
LOC701978
LOC702076
LOC702100
LOC702103
LOC702233
LOC702302
LOC702356
LOC702562
LOC702586
LOC702700
LOC702783
LOC702878
LOC703000
LOC703120
LOC703300
LOC703434
LOC703619
LOC703717
LOC703950
LOC704016
LOC704112
LOC704116
LOC704127
LOC704356
LOC704467
LOC704599
LOC704750
LOC705098
LOC705139
LOC705316
LOC705326
LOC705345
LOC705448
LOC705723
LOC705782
LOC706029
LOC706078
LOC706165
LOC706346
LOC706500
LOC706615
LOC706673
LOC706751
LOC706899
LOC707215
LOC707219
LOC707243
LOC707266
LOC707386
LOC707521
LOC707547
LOC707601
LOC707640
LOC707673
LOC707681
LOC707712
LOC707900
LOC707967
LOC707968
LOC708089
LOC708185
LOC708206
LOC708263
LOC708446
LOC708458
LOC708569
LOC708606
LOC708607
LOC708670
LOC708736
LOC708741
LOC708743
LOC708812
LOC708813
LOC708858
LOC708871
LOC708930
LOC708931
LOC708939
LOC708940
LOC708990
LOC708996
LOC709133
LOC709186
LOC709333
LOC709350
LOC709484
LOC709540
LOC709557
LOC709604
LOC709605
LOC709615
LOC709676
LOC709678
LOC709735
LOC709823
LOC709882
LOC709935
LOC710000
LOC710039
LOC710107
LOC710115
LOC710121
LOC710132
LOC710187
LOC710188
LOC710221
LOC710226
LOC710238
LOC710257
LOC710316
LOC710329
LOC710344
LOC710360
LOC710363
LOC710417
LOC710485
LOC710500
LOC710548
LOC710562
LOC710619
LOC710643
LOC710665
LOC710718
LOC710748
LOC710783
LOC710804
LOC710858
LOC710937
LOC710948
LOC710991
LOC711023
LOC711026
LOC711043
LOC711113
LOC711212
LOC711350
LOC711412
LOC711416
LOC711453
LOC711456
LOC711512
LOC711526
LOC711570
LOC711683
LOC711691
LOC711693
LOC711698
LOC711713
LOC711719
LOC711800
LOC711825
LOC711840
LOC711936
LOC711967
LOC711989
LOC712059
LOC712070
LOC712072
LOC712092
LOC712133
LOC712161
LOC712243
LOC712291
LOC712321
LOC712334
LOC712352
LOC712464
LOC712476
LOC712485
LOC712617
LOC712618
LOC712627
LOC712674
LOC712713
LOC712865
LOC712917
LOC712934
LOC712969
LOC712977
LOC713032
LOC713125
LOC713160
LOC713174
LOC713211
LOC713222
LOC713244
LOC713353
LOC713388
LOC713428
LOC713442
LOC713521
LOC713563
LOC713617
LOC713672
LOC713699
LOC713711
LOC713768
LOC713777
LOC713856
LOC713858
LOC713863
LOC713883
LOC713904
LOC713939
LOC713952
LOC713953
LOC713994
LOC714013
LOC714042
LOC714058
LOC714123
LOC714126
LOC714136
LOC714140
LOC714153
LOC714207
LOC714218
LOC714315
LOC714403
LOC714483
LOC714497
LOC714508
LOC714562
LOC714611
LOC714621
LOC714639
LOC714677
LOC714698
LOC714710
LOC714728
LOC714746
LOC714762
LOC714825
LOC714869
LOC714914
LOC714916
LOC714917
LOC714920
LOC714945
LOC714981
LOC714984
LOC715000
LOC715002
LOC715025
LOC715070
LOC715074
LOC715127
LOC715194
LOC715211
LOC715244
LOC715265
LOC715272
LOC715326
LOC715335
LOC715374
LOC715417
LOC715426
LOC715471
LOC715505
LOC715737
LOC715743
LOC715772
LOC715786
LOC715820
LOC715826
LOC715859
LOC715893
LOC715911
LOC715923
LOC715924
LOC715993
LOC716003
LOC716043
LOC716078
LOC716130
LOC716139
LOC716146
LOC716159
LOC716286
LOC716287
LOC716377
LOC716378
LOC716409
LOC716411
LOC716460
LOC716474
LOC716564
LOC716580
LOC716633
LOC716736
LOC716769
LOC716771
LOC716821
LOC716888
LOC716892
LOC716908
LOC716909
LOC716917
LOC716936
LOC716980
LOC716998
LOC717052
LOC717088
LOC717117
LOC717129
LOC717169
LOC717171
LOC717212
LOC717222
LOC717294
LOC717360
LOC717371
LOC717375
LOC717379
LOC717437
LOC717446
LOC717528
LOC717554
LOC717555
LOC717640
LOC717665
LOC717781
LOC717888
LOC717972
LOC717999
LOC718002
LOC718007
LOC718018
LOC718034
LOC718089
LOC718136
LOC718143
LOC718301
LOC718302
LOC718331
LOC718350
LOC718351
LOC718472
LOC718640
LOC718660
LOC718694
LOC718733
LOC718759
LOC718783
LOC718834
LOC718848
LOC718875
LOC718894
LOC718930
LOC719021
LOC719024
LOC719074
LOC719214
LOC719239
LOC719305
LOC719379
LOC719501
LOC719528
LOC719601
LOC719614
LOC719706
LOC719763
LOC719800
LOC719914
LOC719943
LOC719983
LOC720006
LOC720009
LOC720079
LOC720406
LOC720448
LOC720534
LOC720922
LOC720924
LOC720960
LOC720987
LOC721048
LOC721285
LOC721291
LOC721412
LOC721420
LOC721476
LOC721488
LOC721528
LOC721576
LOC721605
LOC721703
LOC721710
LOC721731
LOC721886
LOC721888
LOC721897
LOC721956
LOC721991
LOC722027
LOC722178
LOC722261
LOC722335
LOC722618
LOC722740
NUP54
LPCAT2
LPIN2
LRP1
LYPLA1
M3R
MAD2L2
MALT1
MAML3
MAMU-A
MAMU-DRB
MAN1C1
MAP2K1
MAP3K14
MAP3K7IP2
MAPK8IP1
MAPK8IP2
MAPK8IP3
MAPKAPK2
MAPT
MAT1A
MAT2A
MBP-A
MC4R
MCH1R
MCOLN1
MDM2
ME2
ME3
MECOM
MED13
MEF2C
MEFV
MGAT5
MGLL
MGST1
MGST2
MGST3
MINPP1
MLLT1
MLLT3
MLX
MLYCD
MMP9
NLK
MOCS3
MPL
MPZL1
MRC1
MRE11A
MRPL10
MRPL2
MRPS16
MRPS7
MSH3
MSN
MT
MTNR1A
MX1
MYBL1
MYCN
MYH2
MYH7
MYLK
NAE1
NAGK
NAGPA
NANP
NARS2
NCBP2
NCK1
NCSTN
NDUFA4
NDUFA8
NDUFAB1
NDUFB2
NEDD4L
NEIL2
NEO1
NF-AT
NF1
NFATC1
NFE2L2
NFKB1
NFKBIZ
NFS1
NK-3
NLRP1
NLRX1
NMD3
NME4
NOD1
NOS1
NOS1AP
NP
NPR1
NPR2
NR3C2
NR4A3
NT5C2
NTHL1
NUDT13
NUDT16L1
NUMB
NUP205
NUP210
NUP37
OGG1
PAX5
OS9
OSMR
P2RX7
P2RY10
P2RY4
P4HA1
P4HA2
PABPC1
PAFAH1B3
PAH
PAK7
PARD6B
PCCB
PCF11
PCNA
PCYT1B
PDCD4
PDE1B
PDE5A
PDGFA
PDHB
PDK1
PDSS1
PECR
PEMT
PER3
PET112L
PEX10
PEX11A
PEX5L
PGAM1
PGK1
PFN1
PHGDH
PHKB
PHOSPHO1
PHYH
PI4KB
PIGH
PIGU
PIK3R2
PIM1
PIP5K1A
PLAA
PLAU
PLCB2
PLD2
PLEKHG5
PLTP
PLXNB3
PNPLA2
POLB
POLD3
POLG
POLG2
POLR2F
POLR3B
POLR3D
POLR3H
POM121
POMGNT1
POMT2
POP7
PPP2R3C
PR
PRDX6
PRKAG1
PRKAR1B
PRKCE
PRKD3
PRPF40A
PRPF6
PSAT1
PSD2
PSEN1
PSMD14
PSMD2
PSMD3
PSMD4
PTAFR
PTGER1
PTGER4
PTGES2
PVR
PYGM
RAB11B
RAD54B
RAD54L
RAF1
RALBP1
RALGDS
RAMP2
RAMP3
RAPGEF2
RAPGEF4
RARA
RASAL1
RB1
RCE1
REC8
RECK
REV1
RHOBTB1
RHOH
RNASEH2C
RNASEL
RNASEN
RNGTT
RPE
RPL24
RPL38
RPP14
RPS6KB1
RRBP1
RUVBL1
RYR3
S1PR4
SAE1
SAP
SAR1B
SARS
SAV1
SBDS
SC5DL
SCARB1
SCNN1G
SDC1
SDHD
SEC23A
SEC62
SEC63
SELI
SEMA4D
SEMA6C
SEPT11
SEPT5
SERPINC1
SETD7
SETD8
SETDB1
SF3A1
SF3A3
SF3B14
SESN1
SFRS5
SFRS6
SGK3
SGMS1
SH2D2A
SH3GL1
SH3GLB1
SH3GLB2
SH3KBP1
SHC3
SHFM1
SIRT1
SIX1
SLC17A6
SLC17A7
SLC25A4
SLC26A7
SLC2A5
SLC38A1
SLC38A2
SLC38A3
SLC39A12
SLC40A1
SLC44A5
SLC5A6
SLC6A3
SLC7A1
SLC7A9
SLC9A1
SLC9A3
SLCO1A2
SLCO1B1
SMAD1
SMAD7
SMAD9
SMNDC1
SMPD3
SNCA
SNCAIP
SND1
SNRPA
SNRPA1
SNRPB
SNW1
SNX1
SNX3
SNX5
SOCS5
SORT1
SP1
SPATA5
SPDYA
SPINT1
SPR
SPTLC1
SRGAP1
SRP14
SRP54
SRP68
SSH1
SSR1
ST3GAL1
ST3GAL3
ST6GAL1
ST6GALNAC1
ST6GALNAC3
ST6GALNAC4
ST6GALNAC5
ST8SIA5
STAM
STAM2
STAR
STAT5A
STAT6
STXBP1
SUCLG1
SULT1A1
SUMO3
SUV39H1
SUV39H2
TAAR3
TAF11
TAF5L
TAF9
TAFII55
TAPBP
TARSL2
TAS2R46
TAS2R7
TBKBP1
TBP
TDG
TDO2
TEC
TECR
TFG
TH
THOC6
THOC7
THOP1
THRA
THRAP4
TK1
TLR4
TLR6
TLR8
TNFAIP3
TNFRSF19
TNFRSF1B
TNFRSF21
TNFRSF9
TNFSF10
TNFSF11
TNFSF8
TOB2
TP53I3
TPM2
TRA2B
TRAF5
TRIM71
TRPV1
TRPV6
TSC1
TSC2
TSG101
TUBA3C
TUBA8
TUSC3
TXNDC12
TXNDC5
TXNRD1
TYMS
UBA2
UBE2C
UBE2C
UBE2F
UBE4A
UBE4B
UCK2
UCKL1
ULK2
UPB1
UPP1
UPRT
UQCRC1
UQCRQ
UROD
USP1
UST
UTP18
UTS2R
UTY
VAMP2
VAMP5
VAMP7
VAMP8
VAV3
VCL
VDAC1
VDAC3
VIM
VPS37B
VPS45
VPS4A
WDR43
WEE2
WIF1
WNT2B
WNT4
WT1
WWC1
WWP2
XAB2
XCR1
XRCC1
YOD1
ZAK
XRN2
ZFYVE9
ZIC2
ZYX
AANAT
AARS
ACHE
AMD1
AMHR2
ATF3
BAD
BAG1
BAG2
BAG4
BLVRA
CCL1
CCL11
CCL17
CD48
CD5
CD58
CHRM1
CHRM3
CHRM5
COL11A2
COL15A1
NTNG2
COL1A1
COL1A2
COL3A1
COL4A1
SDC4
COL4A2
CTF1
CTGF
DDX20
DIO2
A4GALT
AACS
AARS2
AASDHPPT
ABCA12
ABCA3
ABCA7
ABCA8
ABCA9
ABCB1
ABCB10
ABCB7
ABCB8
ABCB9
ABCC2
ABCC3
ABCC5
ABCC9
ABCD1
ABCD2
ABCD3
ABCD4
ABHD14A
ABHD6
ABL2
ABLIM1
ABLIM3
ABO
ACAA1
ACADM
ACADS
ACAP1
ACAP2
ACAT1
ACE2
ACER3
ACIN1
ACLY
ACO1
ACO2
ACOT7
ACOX1
ACOX3
ACP2
ACSM3
ACSS2
ACTA2
ACTB
ACTC1
ACVR1C
ACVR2A
ACVR2B
ADA
ADAM10
ADAM17
ADCY5
ADCY8
ADCY8
ADCY9
ADCY9
ADCYAP1R1
ADH1A
ADH1B
ADH1C
ADH5
ADIPOQ
ADK
ADO
ADORA2A
ADORA3
ADRA2A
ADRA2B
ADRB2
ADSL
AFF1
AFP
AGA
AGAP1
AGAP2
AGFG1
AGPAT2
AGPAT3
AGPAT4
AGPAT5
AGPS
AGRN
AGT
AGTR2
AHCY
AIFM1
AK1
AK3
AK5
AKAP8L
AKR1A1
AKR1B1
AKT2
AKT3
ALAS2
ALCAM
ALDH18A1
ALDH1A1
ALDH1A2
ALDH1L2
ALDH2
ALDH3A1
ALDH5A1
ALDH6A1
ALDH7A1
ALDOA
ALDOB
ALG10
ALG3
ALG5
ALG6
ALG8
ALOX12B
ALOX15
ALOX5
ALS2
AMACR
AMPD2
AMPD3
AMPH
AMT
ANAPC10
ANAPC7
ANGPT1
ANGPT2
ANK2
ANK3
ANPEP
AOC3
AP1B1
AP2M1
AP3B1
AP3B2
AP3D1
AP3M1
AP3M2
AP3S1
AP4B1
APAF1
APBB1IP
APC
APC2
APEX1
APH1A
APH1B
APLNR
APOA1
APOA2
APOA4
APOB
APOE
APRT
AQP3
AQP4
AQP5
AQR
AREGB
ARFGEF2
ARG2
ARHGDIA
ARHGDIB
ARHGEF11
ARHGEF6
ARHGEF7
ARNT
ARNT2
ARNTL
ARPC3
ARRB2
ARSA
ARSB
ASAH1
ASAP2
ASNS
ATF4
ATF6B
ATG4A
ATG4C
ATG5
ATG7
ATM
ATP1A1
ATP1A2
ATP1B1
ATP2A3
ATP2B4
ATP5A1
ATP5B
ATP5D
ATP5E
ATP5F1
ATP5G1
ATP5G1
ATP5G2
ATP5G3
ATP5J
ATP5L
ATP5O
ATP6AP2
ATP6V0A1
ATP6V0B
ATP6V0E1
ATP6V1D
ATP6V1F
ATP6V1G2
ATP6V1H
AURKA
AVP
AVPR1B
AXIN1
AXIN2
AXL
AZI2
B2M
B3GALT4
B3GALT5
B3GAT1
B3GNT2
B3GNT7
B4GALNT1
B4GALT1
B4GALT5
B4GALT7
BAK1
BAMBI
BAT1
BAX
BBOX1
BCAT2
BCL2L11
BCL2L13
BDNF
BECN1
BET1
BHMT
BIRC2
BIRC3
BIRC6
BIRC6
BIRC7
BLM
BLNK
BLVRB
BMP2K
BMP4
BMP6
BMP7
BMPR1A
BMPR2
BMS1
BNIP1
BPGM
BRCA2
BTC
BTD
BTG2
BTG3
BTG4
BUB1B
C15H9orf23
C1GALT1C1
C1QA
C1QC
C1R
C1S
C3
C3AR1
C3H7orf16
C4BPA
C5
C6H5orf33
C9
CA12
CA13
CA14
CA2
CA3
CA7
CA8
CA9
CAB39
CACNA1A
CACNA1B
CACNA1E
CACNA1F
CACNA1G
CACNA2D2
CACNB1
CACNB2
CACNB3
CACNG2
CACNG3
CACNG6
CALB1
CALCRL
CALML5
CALY
CAMK1
CAMK2D
CAMK4
CAMKK2
CAMP
CAPN2
CAPZA1
CAPZA2
CARD8
CARS
CASC3
CASP3
CASP7
CASP9
CAT
CAV2
CBR1
CCBL1
CCBL2
CCDC53
CCL18
CCL19
CCL20
CCL21
CCL25
CCL27
CCL28
CCL3
CCL4L1
CCNA2
CCND1
CCND2
CCNE1
CCNG1
CCNH
CCR1
CCR10
CCR2B
CCR3
CCR8
CCS
CD19
CD1A
CD1B
CD1C
CD1D
CD2
CD209
CD209L2
CD226
CD27
CD276
CD2AP
CD33
CD36
CD37
CD3D
CD3E
CD3G
CD4
CD40
CD40LG
CD46
CD47
CD59
CD63
CD80
CD81
CD82
CD86
CD9
CDA
CDC20
CDC23
CDC25C
CDC27
CDC37
CDC42
CDC5L
CDC6
CDC7
CDIPT
CDK1
CDK14
CDK2
CDK5R1
CDK6
CDK7
CDK9
CDKN1B
CDKN1C
CDKN2B
CDKN2D
CDO1
CEBPG
CES1
CES2
CFB
CFLAR
CHD9
CHDH
CHIT1
CHMP1A
CHPF
CHRD
CHRNA4
CHRNA5
CHRNA7
CHRNB1
CHRNB2
CHRNE
CHST11
CHST12
CHST7
CHUK
CIRH1A
CISH
CLCA1
CLCF1
CLCN2
CLCNKB
CLDN10
CLDN15
CLDN18
CLDN2
CLDN7
CLEC7A
CLK1
CLN5
CLTC
CMAH
CMAS
CNDP1
CNDP2
CNGA1
CNGA3
CNGB1
CNKSR3
CNOT10
CNOT4
CNOT7
CNOT8
CNR1
CNTF
CNTFR
CNTN2
CNTNAP1
CNTNAP2
COASY
COL4A3
COL4A4
COL4A5
COL4A6
COLEC11
COQ3
COQ6
CORO1A
COX11
COX5A
COX6B
COX7AH
CP
CPE
CPEB1
CPEB4
CPLX2
CPOX
CPSF1
CPSF3
CPSF4
CRB2
CRB3
CREB3
CREBBP
CREM
CRF1
CRH
CRKL
CROT
CRTC1
CRYAA
CRYAB
CSF1
CSF2RB
CSN2
CSNK1E
CSNK1G1
CSNK1G3
CSNK2A2
CST2
CSTF1
CSTF3
CTBP2
CTLA-4
CTNNA1
CTNNA2
CTNNB1
CTNNBIP1
CTNNBL1
CTNND1
CTNS
CTPS
CTRL
CTSA
CTSD
CTSH
CTSK
CTSK
CTSL
CTSL2
CUL3
CUL7
CWC15
CX3CL1
CX3CR1
CXCL1
CXCL10
CXCL11
CXCL12
CXCL13
CXCL3
CXCL6
CXCL9
CXCR1
CXCR3
CXCR4
CXCR5
CXCR6
CYP2A23
CYP2A24
CYP2B6
CYP2C75
CYP2C8
CYP2D6
CYP2E1
CYP2F6
CYP3A43
CYP3A5
CYP3A64
CYSLTR1
CYSLTR2
CYTH1
CYTH4
DAB2
DAPK2
DAPK3
DARS
DARS2
DAZAP1
DBH
DCC
DCI
DCK
DCLRE1C
DCT
DCTN1
DCTN2
DCTN5
DDB1
DDB2
DDIT4
DDX3X
DDX58
DECR2
DERL1
DET1
DFFA
DFFB
DGAT1
DGKB
DGKE
DGKI
DGKK
DGKQ
DHFR
DHODH
DHRS9
DHX15
DHX16
DHX57
DHX8
DIAPH1
DIAPH2
DIO1
DIO3
DIS3
DKK1
DKK2
DLL1
DLL3
DLST
DMBT1
DMD
DMGDH
DNA2
DNAH11
DNAI2
DNAJA2
DNAJA3
DNAJB11
DNAJB2
DNAJC1
DNAJC5
DNAJC6
DNAL1
DNAL4
DNCI1
DNM2
DNMT1
DNMT3A
DNMT3B
DNTT
DOCK1
DOT1L
DPYD
DPYS
DPYSL2
DRD2
DRD4
DRD5
DTX1
DTX4
DUSP1
DUSP16
DUSP3
DUSP5
DUT
DYNC1I2
DYNC1LI1
DYNC1LI2
E2F2
E2F4
EARS2
ECH1
EDC4
EDEM1
EDEM2
EDEM3
EDN1
EDNRA
EDNRB
EEA1
EEF1A1
EEF1D
EEF1G
EEF1G
EEF2
EEF2K
EFNA5
EFNB1
EFNB2
EFNB3
EFTUD2
EGFR
EGR1
EGR2
EHD1
ERBB3
EHHADH
EIF1AY
EIF1B
EIF2AK1
EIF2AK2
EIF2AK3
EIF2AK4
EIF2B1
EIF2B2
EIF2B3
EIF2B4
EIF2B5
EIF2S2
EIF2S3
EIF3B
EIF3D
EIF3E
EIF3F
EIF3G
EIF3H
EIF4A2
EIF4A3
EIF4E2
EIF4EBP1
EIF4G1
ELK4
ELMO1
ELMO2
ELN
ELOVL2
ELOVL4
ELOVL6
EMD
EMG1
EML4
ENO1
ENO1
ENO2
ENOSF1
ENPEP
ENPP1
ENPP2
ENPP4
ENPP6
ENTPD1
ENTPD2
ENTPD3
ENTPD4
EP300
EPHA1
EPHA2
EPHA6
EPHB1
EPHB4
EPHX1
EPN1
EPN2
EPO
EPOR
EPX
ERCC1
ERCC3
ERCC4
ERCC6
ERCC8
ERO1L
ERP29
ESPL1
ESR2
ESX1
ETNK2
ETS1
ETS2
ETV5
ETV6
EXO1
EXOC2
EXOC4
EXOC4
EXOC7
EXOSC1
EXOSC2
EXOSC3
EXOSC4
EXOSC5
EXT1
EXT2
EXTL1
EZH2
F11R
F12
F2
F2RL3
F3
F7
FABP1
FABP2
FABP5
FAH
FANCA
FANCC
FANCG
FAR1
FARP2
FARS2
FARSA
FARSB
FBL
HPN
FBXL3
FBXO32
FBXO4
FBXO43
FBXW7
FCAR
FCER2
FCF1
FCGR2A
FDFT1
FECH
FES
FGA
FGB
FGF11
FGF13
FGF14
FGF2
FGFR1
FGFR2
FGFR3
FGG
FGR
FH
FHIT
FIP1L1
FKBP4
FLCN
FLI1
FLNA
FLNB
FLOT1
FLT1
FMN1
FMO4
FMR1
FN1
FNTA
FOLR2
FOS
FOSB
FOXO1
FOXP3
FRAT1
FRAT2
FSHR
FST
FUCA1
FURIN
FUT1
FUT8
FXN
FXR1
FXR2
FYN
FZD1
FZD3
FZD4
FZD6
FZD8
FZD9
G6PD
GAA
GAB2
GABBR2
GABRA2
GABRA4
GABRB1
GABRB2
GABRQ
GAD2
GADD45A
GADD45B
GALK1
GALNAC4S-6ST
GALNT3
GALNT9
GALNTL6
GAPDHS
GARS
GART
GATA4
GATM
GBA2
GBE1
GBF1
GBL
GCAT
GCH1
GCLC
GCNT1
GCNT2
GCS1
GDA
GDF6
GEMIN6
GFPT1
GGA2
GGCT
GGCX
GGT1
GGT7
GH1
GHR
GHRL
GJA1
GJD2
GK
GK3P
GLA
GLCE
GLDC
GLI3
GLO1
GLRA2
GLRB
GLS
GLT8D3
GLTSCR2
GLUD1
GLYAT
GLYCTK
GMDS
GMPPA
GMPPB
GMPR2
GMPS
GNA12
GNAI2
GNAI3
GNAO1
GNAZ
GNB3
GNB5
GNG10
GNGT1
GNGT2
GNL3
GNL3L
GNMT
GNPAT
GNPDA1
GNPNAT1
GNRH1
GNRH2
GNRHR2
GOT2
GP9
GPAA1
GPAM
GPC1
GPC4
GPD1
GPD2
GPER
GPHN
GPR37
GPR81
GPT
GPX2
GPX3
GPX4
GPX5
GPX6
GRHPR
GRIA1
GRIA2
GRIA3
GRIA4
GRID1
GRID2
GRIN2B
GRK6
GRM1
GRM2
GRM3
GRM5
GRM6
GSK3B
GSN
GSTA1
GSTA1
GSTK1
GSTM2
GSTM4
GSTO2
GSTP1
GSTT1
GSTT2
GTF2A1
GTF2A2
GTF2B
GTF2E1
GTF2E2
GTF2F1
GTF2F2
GTF2H1
GTF2H4
GTF2IRD1
GTPBP4
GUCY1A3
GUCY2C
GUK1
GUSB
GUSB
GYS1
GZMA
GZMB
H2AFY
H2AFY2
HAAO
HADH
HADHA
HADHB
HAGH
HAO2
HBB
HBEGF
HBQ1
HBS1L
HBXIP
HCCS
HCFC2
HCN4
HCST
HEAB
HEATR1
HERC4
HERPUD1
HEXB
HGF
HHEX
HHIP
HIF1A
HIOMT
HLCS
HMBS
HMGCL
HMGCR
HMGCS1
HMMR
HMOX1
HMOX2
HNRNPC
HNRPA1
HOMER2
HPGD
HPSE
HRAS
HRH1
HRH4
HS2ST1
HS3ST6
HSD11B1
HSD17B1
HSD17B10
HSD17B3
HSD17B4
HSD17B8
HSF1
HSP90AA1
HSP90B1
HSPA1B
HSPA4L
HSPA5
HSPA8
HSPA9
HSPB1
HSPD1
HSPG2
HTR1A
HTR1E
HTR2A
HTR2B
HTR3A
HUWE1
HYAL2
HYI
HYOU1
IARS
ICAM1
ICAM2
ICAM3
ID2
ID4
IDE
IDH1
IDH2
IDH3A
IDO1
IDS
IFIH1
IFIT1
IFNAR1
IFNAR2
IFNG
IFT57
IGF1
IGF1R
IGFBP3
IKBKB
IKBKE
IL-12A
IL-6
IL10
IL10RA
IL10RB
IL12RB1
IL12RB2
IL13
IL15RA
IL17F
IL18
IL1B
IL1R1
IL1R2
IL1RAP
IL2
IL2RB
IL2RG
IL3
IL4
IL4I1
IL4R
IL5RA
IL6R
IL7R
IL8
IMMP1L
IMP3
IMP4
IMPA2
IMPAD1
IMPDH2
INHBA
INHBB
INMT
INPP1
INPP5J
INSR
IP6K1
IPMK
IPPK
IQGAP1
IQGAP2
IRAK3
IRAK4
IRF1
IRF7
IRF8
ISG15
ITGA1
ITGA11
ITGA2B
ITGA3
ITGA4
ITGA5
ITGA6
ITGB1
ITGB5
ITGB7
ITGB8
ITPKA
ITPR2
IVD
IYD
JAG1
JAK1
JAK2
JMJD1C
K-ALPHA-1
KARS
KAT5
KCNB1
KCND2
KCNE2
KCNJ1
KCNJ11
KCNJ13
KCNJ5
KCNJ6
KCNJ9
KCNK2
KCNMA1
KCNQ3
KDSR
KGF
KHK
KIAA0174
KIAA0828
KIDINS220
KIF23
KIR2DL4
KIR3DL20
KIR3DL21
KISS1R
KIT
KLF15
KLF3
KLHL13
KLKB1
KLRC3
KLRD1
KNG1
KPNB1
KRAS
KRIT1
LASS3
KSR2
KYNU
L1CAM
L2HGDH
LAMB1
LAMC1
LAMC2
LAMC3
LAMP1
LAP3
LAPTM4A
LARS
LASS4
LASS6
LAT
LCN2
LCP2
LCT
LDHA
LDHB
LEF1
LEP
LEPR
LHPP
LIAS
LIFR
LIG1
LILRA4
LILRAA
LILRAB
LILRAC
LILRAD
LILRAE
LILRBA
LILRBC
LIMK2
LIPC
LIPF
LIPG
LIS1
LMAN1
LMNA
LMO2
LNK
LNPEP
LOC100125588
LOC100423096
LOC100423350
LOC100423472
LOC100423555
LOC100423556
LOC100423634
LOC100423692
LOC100423709
LOC100423838
LOC100423877
LOC100423990
LOC100424174
LOC100424606
LOC100424758
LOC100424761
LOC100425047
LOC100425072
LOC100425079
LOC100425105
LOC100425114
LOC100425237
LOC100425248
LOC100425327
LOC100425382
LOC100425521
LOC100425539
LOC100425803
LOC100426025
LOC100426104
LOC100426107
LOC100426173
LOC100426215
LOC100426308
LOC100426338
LOC100426353
LOC100426406
LOC100426645
LOC100426661
LOC100426722
LOC100426724
LOC100426798
LOC100426891
LOC100426968
LOC100427242
LOC100427251
LOC100427660
LOC100427716
LOC100427953
LOC100428001
LOC100428046
LOC100428228
LOC100428437
LOC100428490
LOC100428522
LOC100428619
LOC100428661
LOC100428682
LOC100428736
LOC100428775
LOC100428826
LOC100428865
LOC100428980
LOC100429005
LOC100429028
LOC100429040
LOC100429168
LOC100429280
LOC100429345
LOC100429378
LOC100429414
LOC100429419
LOC100429653
LOC100429721
LOC100429776
LOC100429853
LOC100429857
LOC100429880
LOC100430132
LOC100430157
LOC100430164
LOC100430731
LOC100430739
LOC100430783
LOC100430821
LOC100430880
LOC100430940
LOC100430996
LOC100431039
LOC574118
LOC574147
LOC574216
LOC574313
LOC574363
LOC574366
LOC574368
LOC678697
LOC678699
LOC693275
LOC693356
LOC693376
LOC693405
LOC693418
LOC693502
LOC693505
LOC693537
LOC693542
LOC693554
LOC693561
LOC693573
LOC693577
LOC693604
LOC693612
LOC693615
LOC693620
LOC693666
LOC693716
LOC693775
LOC693842
LOC693854
LOC693875
LOC693924
LOC693984
LOC694196
LOC694227
LOC694288
LOC694341
LOC694353
LOC694364
LOC694366
LOC694428
LOC694507
LOC694525
LOC694566
LOC694594
LOC694635
LOC694650
LOC694656
LOC694669
LOC694670
LOC694711
LOC694714
LOC694817
LOC694819
LOC694823
LOC694871
LOC694887
LOC694892
LOC694957
LOC695017
LOC695050
LOC695077
LOC695085
LOC695113
LOC695118
LOC695120
LOC695160
LOC695164
LOC695190
LOC695208
LOC695240
LOC695292
LOC695327
LOC695330
LOC695340
LOC695356
LOC695421
LOC695442
LOC695503
LOC695511
LOC695512
LOC695551
LOC695553
LOC695591
LOC695612
LOC695652
LOC695660
LOC695667
LOC695769
LOC695793
LOC695803
LOC695815
LOC695816
LOC695842
LOC695914
LOC695933
LOC695947
LOC695986
LOC696015
LOC696052
LOC696056
LOC696076
LOC696097
LOC696124
LOC696146
LOC696159
LOC696253
LOC696326
LOC696351
LOC696366
LOC696408
LOC696426
LOC696463
LOC696525
LOC696542
LOC696598
LOC696635
LOC696636
LOC696658
LOC696664
LOC696728
LOC696739
LOC696742
LOC696748
LOC696762
LOC696779
LOC696825
LOC696884
LOC696915
LOC696918
LOC696934
LOC696936
LOC696956
LOC697011
LOC697020
LOC697047
LOC697051
LOC697078
LOC697179
LOC697191
LOC697202
LOC697219
LOC697227
LOC697233
LOC697235
LOC697324
LOC697470
LOC697481
LOC697523
LOC697538
LOC697616
LOC697661
LOC697682
LOC697695
LOC697718
LOC697721
LOC697736
LOC697784
LOC697827
LOC697857
LOC697859
LOC697860
LOC697930
LOC698109
LOC697982
LOC697984
LOC698013
LOC698021
LOC698036
LOC698049
LOC698057
LOC698122
LOC698127
LOC698185
LOC698239
LOC698247
LOC698275
LOC698283
LOC698340
LOC698345
LOC698356
LOC698400
LOC698440
LOC698450
LOC698462
LOC698473
LOC698527
LOC698536
LOC698552
LOC698582
LOC698585
LOC698610
LOC698652
LOC698653
LOC698717
LOC698752
LOC698756
LOC698834
LOC698854
LOC698922
LOC698965
LOC698967
LOC699015
LOC699101
LOC699107
LOC699110
LOC699163
LOC699219
LOC699236
LOC699275
LOC699283
LOC699291
LOC699304
LOC699350
LOC699362
LOC699375
LOC699383
LOC699397
LOC699401
LOC699433
LOC699443
LOC699460
LOC699494
LOC699519
LOC699530
LOC699535
LOC699579
LOC699586
LOC699628
LOC699648
LOC699721
LOC699722
LOC699728
LOC699767
LOC699771
LOC699793
LOC699821
LOC699831
LOC699837
LOC699854
LOC699889
LOC699915
LOC699919
LOC699931
LOC699957
LOC699969
LOC700024
LOC700029
LOC700032
LOC700134
LOC700184
LOC700191
LOC700192
LOC700223
LOC700257
LOC700382
LOC700450
LOC700496
LOC700518
LOC700538
LOC700553
LOC700559
LOC700580
LOC700603
LOC700611
LOC700616
LOC700635
LOC700664
LOC700681
LOC700688
LOC700691
LOC700698
LOC700745
LOC700772
LOC700835
LOC700869
LOC700872
LOC700903
LOC700920
LOC700955
LOC701039
LOC701085
LOC701088
LOC701185
LOC701217
LOC701237
LOC701337
LOC701344
LOC701403
LOC701418
LOC701447
LOC701464
LOC701477
LOC701533
LOC701542
LOC701579
LOC701601
LOC701632
LOC701650
LOC701735
LOC701759
LOC701781
LOC701811
LOC701863
LOC701870
LOC701872
LOC701881
LOC701933
LOC701966
LOC701974
LOC702025
LOC702037
LOC702041
LOC702072
LOC702118
LOC702128
LOC702153
LOC702163
LOC702227
LOC702258
LOC702291
LOC702297
LOC702309
LOC702310
LOC702345
LOC702348
LOC702360
LOC702390
LOC702403
LOC702449
LOC702514
LOC702529
LOC702601
LOC702606
LOC702690
LOC702723
LOC702727
LOC702754
LOC702779
LOC702789
LOC702794
LOC702798
LOC702907
LOC702954
LOC702977
LOC702986
LOC702987
LOC703013
LOC703023
LOC703044
LOC703050
LOC703057
LOC703073
LOC703185
LOC703189
LOC703230
LOC703302
LOC703310
LOC703336
LOC703399
LOC703409
LOC703410
LOC703458
LOC703466
LOC703468
LOC703485
LOC703490
LOC703510
LOC703514
LOC703527
LOC703625
LOC703636
LOC703647
LOC703649
LOC703655
LOC703670
LOC703703
LOC703713
LOC703722
LOC703726
LOC703732
LOC703752
LOC703770
LOC703792
LOC703841
LOC703879
LOC703898
LOC703934
LOC703939
LOC703957
LOC703972
LOC704006
LOC704014
LOC704041
LOC704048
LOC704061
LOC704104
LOC704196
LOC704215
LOC704242
LOC704244
LOC704257
LOC704260
LOC704267
LOC704330
LOC704359
LOC704382
LOC704440
LOC704452
LOC704519
LOC704530
LOC704540
LOC704606
LOC704626
LOC704629
LOC704716
LOC704743
LOC704744
LOC704823
LOC704826
LOC704845
LOC704851
LOC704880
LOC704901
LOC704908
LOC705008
LOC705081
LOC705222
LOC705300
LOC705325
LOC705480
LOC705483
LOC705512
LOC705555
LOC705588
LOC705591
LOC705601
LOC705612
LOC705614
LOC705628
LOC705636
LOC705639
LOC705680
LOC705696
LOC705699
LOC705715
LOC705719
LOC705749
LOC705759
LOC705813
LOC705830
LOC705832
LOC705843
LOC705877
LOC705878
LOC705906
LOC706004
LOC706046
LOC706050
LOC706087
LOC706099
LOC706108
LOC706142
LOC706187
LOC706239
LOC706281
LOC706308
LOC706331
LOC706406
LOC706419
LOC706433
LOC706455
LOC706465
LOC706472
LOC706513
LOC706521
LOC706585
LOC706590
LOC706606
LOC706629
LOC706649
LOC706659
LOC706666
LOC706667
LOC706731
LOC706753
LOC706857
LOC706873
LOC706908
LOC706909
LOC706955
LOC706973
LOC706977
LOC707010
LOC707076
LOC707077
LOC707105
LOC707133
LOC707176
LOC707178
LOC707186
LOC707227
LOC707234
LOC707241
LOC707265
LOC707279
LOC707293
LOC707295
LOC707321
LOC707324
LOC707331
LOC707391
LOC707405
LOC707407
LOC707414
LOC707471
LOC707504
LOC707513
LOC707527
LOC707562
LOC707614
LOC707625
LOC707714
LOC707723
LOC707738
LOC707769
LOC707831
LOC707834
LOC707858
LOC707995
LOC708013
LOC708024
LOC708028
LOC708029
LOC708033
LOC708065
LOC708080
LOC708092
LOC708096
LOC708104
LOC708105
LOC708114
LOC708125
LOC708129
LOC708146
LOC708148
LOC708151
LOC708163
LOC708170
LOC708174
LOC708192
LOC708205
LOC708215
LOC708258
LOC708283
LOC708291
LOC708305
LOC708314
LOC708347
LOC708361
LOC708378
LOC708388
LOC708415
LOC708441
LOC708461
LOC708475
LOC708510
LOC708513
LOC708515
LOC708520
LOC708526
LOC708535
LOC708556
LOC708566
LOC708574
LOC708579
LOC708583
LOC708594
LOC708602
LOC708613
LOC708626
LOC708651
LOC708657
LOC708660
LOC708691
LOC708692
LOC708707
LOC708716
LOC708720
LOC708745
LOC708747
LOC708752
LOC708784
LOC708802
LOC708807
LOC708821
LOC708852
LOC708863
LOC708887
LOC708892
LOC708898
LOC708906
LOC708907
LOC708908
LOC708918
LOC708943
LOC708964
LOC708965
LOC708971
LOC708973
LOC708981
LOC708987
LOC708988
LOC708992
LOC708995
LOC708999
LOC709004
LOC709005
LOC709018
LOC709102
LOC709104
LOC709112
LOC709115
LOC709116
LOC709145
LOC709173
LOC709182
LOC709200
LOC709208
LOC709215
LOC709225
LOC709226
LOC709256
LOC709258
LOC709285
LOC709308
LOC709322
LOC709326
LOC709341
LOC709343
LOC709347
LOC709349
LOC709355
LOC709364
LOC709391
LOC709392
LOC709394
LOC709417
LOC709420
LOC709426
LOC709451
LOC709454
LOC709458
LOC709489
LOC709490
LOC709493
LOC709500
LOC709509
LOC709510
LOC709520
LOC709535
LOC709554
LOC709556
LOC709559
LOC709563
LOC709565
LOC709571
LOC709579
LOC709585
LOC709587
LOC709590
LOC709602
LOC709612
LOC709630
LOC709640
LOC709646
LOC709657
LOC709658
LOC709666
LOC709683
LOC709723
LOC709739
LOC709746
LOC709751
LOC709760
LOC709769
LOC709776
LOC709786
LOC709787
LOC709790
LOC709802
LOC709811
LOC709827
LOC709838
LOC709849
LOC709854
LOC709865
LOC709866
LOC709879
LOC709892
LOC709897
LOC709905
LOC709939
LOC709943
LOC709947
LOC709948
LOC709958
LOC709959
LOC709971
LOC709977
LOC710012
LOC710022
LOC710035
LOC710036
LOC710037
LOC710042
LOC710049
LOC710050
LOC710052
LOC710061
LOC710068
LOC710075
LOC710077
LOC710112
LOC710125
LOC710137
LOC710144
LOC710156
LOC710161
LOC710171
LOC710175
LOC710179
LOC710196
LOC710317
LOC710231
LOC710234
LOC710244
LOC710252
LOC710253
LOC710278
LOC710297
LOC710300
LOC710306
LOC710321
LOC710326
LOC710333
LOC710337
LOC710340
LOC710343
LOC710347
LOC710385
LOC710387
LOC710410
LOC710426
LOC710441
LOC710471
LOC710479
LOC710480
LOC710490
LOC710505
LOC710519
LOC710521
LOC710527
LOC710529
LOC710553
LOC710556
LOC710559
LOC710560
LOC710588
LOC710590
LOC710591
LOC710601
LOC710650
LOC710654
LOC710662
LOC710678
LOC710682
LOC710713
LOC710734
LOC710740
LOC710744
LOC710772
LOC710796
LOC710797
LOC710830
LOC710862
LOC710888
LOC710899
LOC710901
LOC710904
LOC710910
LOC710912
LOC710930
LOC710934
LOC710935
LOC710944
LOC710946
LOC710959
LOC710968
LOC710980
LOC711048
LOC711051
LOC711108
LOC711115
LOC711121
LOC711124
LOC711145
LOC711155
LOC711160
LOC711164
LOC711230
LOC711235
LOC711259
LOC711270
LOC711283
LOC711299
LOC711312
LOC711319
LOC711320
LOC711335
LOC711340
LOC711345
LOC711363
LOC711382
LOC711387
LOC711438
LOC711485
LOC711494
LOC711567
LOC711610
LOC711624
LOC711625
LOC711646
LOC711678
LOC711681
LOC711716
LOC711724
LOC711734
LOC711743
LOC711751
LOC711796
LOC711817
LOC711835
LOC711846
LOC711879
LOC711889
LOC711898
LOC711900
LOC711914
LOC711922
LOC711941
LOC711959
LOC711969
LOC711970
LOC711980
LOC712044
LOC712051
LOC712061
LOC712074
LOC712076
LOC712115
LOC712129
LOC712189
LOC712206
LOC712209
LOC712230
LOC712237
LOC712258
LOC712274
LOC712294
LOC712295
LOC712340
LOC712342
LOC712346
LOC712357
LOC712360
LOC712365
LOC712383
LOC712401
LOC712408
LOC712412
LOC712416
LOC712429
LOC712478
LOC712514
LOC712548
LOC712550
LOC712565
LOC712577
LOC712580
LOC712585
LOC712588
LOC712599
LOC712610
LOC712624
LOC712629
LOC712644
LOC712653
LOC712663
LOC712669
LOC712678
LOC712683
LOC712740
LOC712753
LOC712773
LOC712787
LOC712792
LOC712815
LOC712848
LOC712849
LOC712880
LOC712886
LOC712921
LOC712926
LOC712927
LOC712931
LOC712939
LOC712942
LOC712959
LOC712962
LOC712968
LOC712984
LOC712992
LOC712996
LOC713035
LOC713040
LOC713061
LOC713066
LOC713073
LOC713082
LOC713095
LOC713111
LOC713112
LOC713128
LOC713141
LOC713162
LOC713190
LOC713191
LOC713226
LOC713250
LOC713253
LOC713271
LOC713285
LOC713289
LOC713320
LOC713322
LOC713336
LOC713344
LOC713358
LOC713361
LOC713374
LOC713375
LOC713376
LOC713386
LOC713391
LOC713410
LOC713433
LOC713449
LOC713460
LOC713471
LOC713485
LOC713486
LOC713525
LOC713545
LOC713549
LOC713552
LOC713570
LOC713576
LOC713587
LOC713589
LOC713668
LOC713687
LOC713693
LOC713713
LOC713748
LOC713798
LOC713800
LOC713811
LOC713853
LOC713864
LOC713867
LOC713871
LOC713876
LOC713882
LOC713885
LOC713912
LOC713917
LOC713924
LOC713927
LOC713934
LOC713940
LOC713943
LOC713951
LOC713958
LOC713995
LOC714017
LOC714088
LOC714102
LOC714144
LOC714145
LOC714152
LOC714202
LOC714210
LOC714211
LOC714222
LOC714251
LOC714261
LOC714268
LOC714273
LOC714276
LOC714282
LOC714283
LOC714287
LOC714302
LOC714321
LOC714322
LOC714328
LOC714331
LOC714335
LOC714370
LOC714371
LOC714374
LOC714381
LOC714385
LOC714396
LOC714399
LOC714412
LOC714413
LOC714417
LOC714432
LOC714433
LOC714449
LOC714474
LOC714480
LOC714510
LOC714540
LOC714558
LOC714598
LOC714601
LOC714609
LOC714613
LOC714625
LOC714721
LOC714635
LOC714643
LOC714664
LOC714684
LOC714686
LOC714688
LOC714699
LOC714702
LOC714737
LOC714744
LOC714747
LOC714763
LOC714767
LOC714774
LOC714785
LOC714794
LOC714805
LOC714809
LOC714818
LOC714828
LOC714840
LOC714841
LOC714842
LOC714844
LOC714850
LOC714858
LOC714861
LOC714864
LOC714886
LOC714896
LOC714898
LOC714901
LOC714909
LOC714922
LOC714932
LOC714952
LOC714964
LOC714966
LOC714975
LOC714982
LOC714983
LOC715011
LOC715015
LOC715018
LOC715036
LOC715057
LOC715071
LOC715086
LOC715120
LOC715128
LOC715133
LOC715153
LOC715172
LOC715175
LOC715176
LOC715182
LOC715183
LOC715190
LOC715214
LOC715219
LOC715245
LOC715270
LOC715297
LOC715302
LOC715330
LOC715341
LOC715378
LOC715394
LOC715437
LOC715443
LOC715459
LOC715479
LOC715485
LOC715499
LOC715517
LOC715548
LOC715549
LOC715558
LOC715590
LOC715619
LOC715621
LOC715663
LOC715678
LOC715680
LOC715682
LOC715698
LOC715701
LOC715708
LOC715723
LOC715727
LOC715746
LOC715747
LOC715755
LOC715765
LOC715774
LOC715794
LOC715807
LOC715816
LOC715821
LOC715824
LOC715842
LOC715866
LOC715897
LOC715908
LOC715950
LOC715951
LOC715987
LOC716017
LOC716022
LOC716036
LOC716038
LOC716044
LOC716050
LOC716054
LOC716070
LOC716082
LOC716092
LOC716093
LOC716094
LOC716128
LOC716132
LOC716133
LOC716134
LOC716138
LOC716157
LOC716161
LOC716173
LOC716175
LOC716180
LOC716192
LOC716223
LOC716245
LOC716274
LOC716305
LOC716313
LOC716330
LOC716336
LOC716349
LOC716364
LOC716395
LOC716401
LOC716406
LOC716408
LOC716412
LOC716422
LOC716452
LOC716455
LOC716475
LOC716480
LOC716513
LOC716527
LOC716541
LOC716548
LOC716569
LOC716595
LOC716601
LOC716607
LOC716612
LOC716620
LOC716643
LOC716650
LOC716658
LOC716666
LOC716682
LOC716688
LOC716698
LOC716720
LOC716726
LOC716728
LOC716746
LOC716753
LOC716761
LOC716776
LOC716805
LOC716808
LOC716841
LOC716860
LOC716898
LOC716899
LOC716907
LOC716944
LOC716960
LOC716977
LOC716986
LOC717020
LOC717022
LOC717046
LOC717056
LOC717078
LOC717084
LOC717133
LOC717153
LOC717164
LOC717174
LOC717205
LOC717234
LOC717257
LOC717291
LOC717315
LOC717319
LOC717339
LOC717342
LOC717346
LOC717349
LOC717355
LOC717368
LOC717373
LOC717377
LOC717378
LOC717399
LOC717427
LOC717438
LOC717440
LOC717470
LOC717477
LOC717493
LOC717504
LOC717508
LOC717539
LOC717574
LOC717576
LOC717589
LOC717590
LOC717596
LOC717603
LOC717608
LOC717623
LOC717624
LOC717628
LOC717629
LOC717639
LOC717648
LOC717678
LOC717702
LOC717705
LOC717713
LOC717723
LOC717726
LOC717749
LOC717751
LOC717755
LOC717764
LOC717766
LOC717769
LOC717804
LOC717807
LOC717811
LOC717813
LOC717820
LOC717824
LOC717832
LOC717837
LOC717848
LOC717849
LOC717857
LOC717866
LOC717870
LOC717914
LOC717927
LOC717945
LOC717947
LOC717952
LOC717955
LOC717963
LOC717964
LOC717978
LOC717991
LOC717994
LOC718011
LOC718012
LOC718026
LOC718040
LOC718047
LOC718063
LOC718088
LOC718113
LOC718120
LOC718144
LOC718185
LOC718187
LOC718191
LOC718198
LOC718202
LOC718204
LOC718218
LOC718223
LOC718232
LOC718244
LOC718265
LOC718307
LOC718318
LOC718335
LOC718353
LOC718363
LOC718387
LOC718388
LOC718403
LOC718413
LOC718418
LOC718420
LOC718421
LOC718425
LOC718430
LOC718442
LOC718456
LOC718465
LOC718488
LOC718510
LOC718524
LOC718529
LOC718534
LOC718543
LOC718548
LOC718570
LOC718575
LOC718605
LOC718606
LOC718616
LOC718628
LOC718635
LOC718654
LOC718665
LOC718672
LOC718677
LOC718682
LOC718689
LOC718703
LOC718739
LOC718751
LOC718761
LOC718865
LOC718872
LOC718887
LOC718889
LOC718890
LOC718896
LOC718902
LOC718909
LOC718958
LOC718961
LOC718964
LOC718973
LOC718976
LOC718982
LOC718989
LOC719004
LOC719037
LOC719038
LOC719044
LOC719082
LOC719085
LOC719090
LOC719101
LOC719117
LOC719120
LOC719123
LOC719140
LOC719149
LOC719152
LOC719174
LOC719197
LOC719199
LOC719248
LOC719260
LOC719278
LOC719284
LOC719290
LOC719319
LOC719330
LOC719331
LOC719338
LOC719340
LOC719383
LOC719393
LOC719398
LOC719413
LOC719419
LOC719444
LOC719446
LOC719448
LOC719479
LOC719487
LOC719492
LOC719502
LOC719508
LOC719523
LOC719536
LOC719560
LOC719564
LOC719569
LOC719575
LOC719582
LOC719647
LOC719670
LOC719673
LOC719697
LOC719733
LOC719734
LOC719747
LOC719750
LOC719764
LOC719782
LOC719843
LOC719916
LOC719920
LOC719929
LOC719938
LOC719947
LOC719969
LOC719978
LOC719980
LOC719985
LOC720033
LOC720040
LOC720056
LOC720093
LOC720111
LOC720156
LOC720182
LOC720192
LOC720204
LOC720209
LOC720256
LOC720263
LOC720271
LOC720288
LOC720291
LOC720331
LOC720345
LOC720390
LOC720399
LOC720515
LOC720531
LOC720550
LOC720557
LOC720563
LOC720567
LOC720697
LOC720807
LOC720828
LOC720906
LOC720982
LOC721004
LOC721014
LOC721015
LOC721120
LOC721138
LOC721141
LOC721178
LOC721200
LOC721211
LOC721222
LOC721231
LOC721259
LOC721263
LOC721324
LOC721436
LOC721450
LOC721470
LOC721483
LOC721508
LOC721561
LOC721566
LOC721619
LOC721628
LOC721631
LOC721685
LOC721711
LOC721712
LOC721732
LOC721735
LOC721744
LOC721751
LOC721760
LOC721772
LOC721816
LOC721821
LOC721852
LOC721855
LOC721865
LOC721873
LOC721876
LOC721882
LOC721891
LOC721900
LOC721901
LOC721917
LOC721919
LOC721944
LOC721948
LOC722000
LOC722014
LOC722024
LOC722026
LOC722041
LOC722044
LOC722050
LOC722086
LOC722104
LOC722105
LOC722112
LOC722120
LOC722130
LOC722155
LOC722161
LOC722173
LOC722190
LOC722191
LOC722198
LOC722216
LOC722218
LOC722257
LOC722292
LOC722322
LOC722330
LOC722347
LOC722348
LOC722350
LOC722351
LOC722353
LOC722383
LOC722398
LOC722421
LOC722434
LOC722436
LOC722437
LOC722441
LOC722449
LOC722466
LOC722472
LOC722479
LOC722482
LOC722505
LOC722513
LOC722572
LOC722580
LOC722589
LOC722599
LOC722620
LOC722623
LOC722653
LOC722675
LOC722701
LOC722711
LOC722723
LOC722738
LOC722763
LOC722826
LOC722844
LOC722879
LOC722929
LOC723284
LOC723543
LOC723552
LPAR2
LPAR3
LPAR4
LPAR5
LPCAT4
LPGAT1
LPIN3
LPL
LRP2
LRP5
LSM1
LSM2
LSM3
LSM5
LSM6
LSS
LTA
LTA4H
LTB
LTC4S
LUM
LY96
LYN
LYZ
M6PR
MAD1L1
MAGI2
MAML1
MAML2
MAMU-A
MAMU-B
MAMU-B18
MAMU-DPA
MAMU-DPB
MAMU-DQA1
MAMU-DQB1
MAMU-DRA
MAMU-E
MAMU-F
MAMU-I
MAN1A2
MAN1B1
MAN2B2
MAN2C1
MANBA
MAOA
MAOB
MAP2K3
MAP2K4
MAP2K5
MAP3K1
MAP3K12
MAP3K2
MAP3K7
MAP3K7IP3
MAP4K1
MAPK1
MAPK10
MAPK12
MAPK3
MAPK7
MAPKAPK3
MARCKS
MAT2B
MAX
MBL2
MBOAT2
MBTPS1
MBTPS2
MCCC2
MCEE
MCH2R
MCL1
MCM3
MCM5
MCM6
MCM7
MCP-1
MCRS1
MDH1
MDM4
MDN1
MDS032
ME1
MECR
MED1
MED12
MED14
MED17
MED30
MED4
MED8
MEF2A
MEF2D
MEIS1
MEP1A
MET
MGAM
MGAT1
MGAT3
MGAT4B
MGAT4B
MGAT5
MIF
MITF
MLH1
MLH3
MLL
MLL2
MLL4
MLLT4
MLXIP
MMACHC
MME
MMP2
MMP3
MMP7
MNAT1
MOCS2
MPDZ
MPHOSPH10
MPV17
MRAS
MRPL1
MRPL11
MRPL12
MRPL13
MRPL14
MRPL15
MRPL16
MRPL18
MRPL19
MRPL23
MRPL27
MRPL28
MRPL3
MRPL32
MRPS10
MRPS11
MRPS12
MRPS17
MRPS18A
MRPS18B
MRPS18C
MRPS2
MRPS21
MRPS5
MRVI1
MS4A1
MSI1
MT1E
MT2A
MTAP
MTCP1NB
MTHFD1
MTM1
MTMR14
MTMR2
MTMR6
MTMR9
MTR
MTTP
MUT
MUTYH
MVD
MVK
MYBL2
MYBPC3
MYC
MYD88
MYH10
MYH8
MYLK4
MYST3
NADSYN1
NAGA
NAIP
NAMPT
NAPEPLD
NARS
NAT1
NAT10
NAT2
NBN
NCAM1
NCBP1
NCEH1
NCF1
NCF2
NCK2
NCOA2
NCOA3
NCOR2
NCR1
NCR3
NDST1
NDST2
NDST4
NDUFA10
NDUFA9
NDUFB10
NDUFB11
NDUFB3
NDUFB6
NDUFC1
NK-1
NDUFS1
NDUFS2
NDUFS4
NDUFS5
NDUFS8
NDUFV2
NEDD4
NEFL
NEFM
NEIL1
NEIL3
NEU1
NEU4
NEUROD1
NFASC
NFKB2
NFKBIA
NFKBIB
NFKBIE
NFYB
NFYC
NGFR
NGLY1
NHLRC1
NHP2
NKG2D
NKX2-2
NLGN1
NLGN4Y
NLRP3
NMBR
NME6
NME7
NNT
NOB1
NOD2
NOG
NOL3
NOL6
NOP5/NOP58
NOS2
NOS3
NOTCH3
NOTCH4
NPC1L1
NPC2
NPPA
NPY
NPY1R
NPY2R
NPY5R
NQO1
NR1D1
NR1H3
NR3C1
NR4A1
NRAS
NRCAM
NRG1
NRG3
NRG4
NRP1
NRXN1
NRXN2
NSD1
NSDHL
NSMAF
NT5C
NT5E
NT5M
NTN1
NTN4
NTRK2
NTRK3
NTSR2
NUDT2
NUDT21
NUDT5
NUP107
NUP153
NUP155
NUP35
NUP50
NUP93
NUPL2
NVL
NXF3
NXT2
OAS1
OAT
OCLN
ODC1
OGT
OLAH
OPRD1
OPRM1
OR7D4
ORAI1
ORC3L
ORC5L
OXA1L
OXCT1
OXSM
OXTR
P2RX1
P2RX2
P2RX4
P2RX6
P2RY1
P2RY2
P8
PABPC1
PABPC4
PABPC5
PAK2
PAK3
PAK4
PAK6
PANK1
PANK3
PANK4
PAPD5
PAPOLA
PAPSS1
PAPSS2
PARD6A
PARD6G
PARK7
PARP1
PARP2
PARP3
PARVA
PAX6
PAX8
PCCA
PCGF2
PCGF3
PCK1
PCLO
PCYT2
PDCD1
PDCD6IP
PDE11A
PDE1C
PDE2A
PDE3A
PDE3B
PDE4D
PDE6A
PDE6C
PDE6H
PDE7A
PDE7B
PDE8A
PDE9A2
PDGFB
PDGFC
PDGFD
PDGFRA
PDGFRB
PDHX
PDIA3
PDIA4
PDIA6
PDSS2
PDXK
PDYN
PER2
PERP
PEX1
PEX11B
PEX11G
PEX13
PEX16
PEX2
PEX26
PEX3
PEX5
PEX6
PEX7
PFKFB2
PFKFB3
PFKM
PGA4
PGAM2
PGAM5
PGDS
PGF
PGM2
PGM3
PHAX
PHKA1
PHKA2
PHKG1
PHLPP1
PHLPP2
PI4K2A
PI4KA
PIAS1
PIAS2
PIAS3
PIGC
PIGK
PIGL
PIGO
PIGQ
PIGZ
PIK3AP1
PIK3C3
PIK3CB
PIK3CG
PIK3R1
PIK3R3
PIM2
PINK1
PIP4K2A
PIP4K2B
PIPOX
PISD
PIWIL4
PKM2
PKM2
PLA2G15
PLA2G2A
PLA2G2D
PLA2G4A
PLA2G7
PLAT
PLCD1
PLCD4
PLCE1
PLCG1
PLCG2
PLCH2
PLCL1
PLD3
PLEKHM2
PLG
PLK1
PLK2
PLK3
PLK4
PLRG1
PLXNA3
PLXNB2
PML
PMM1
PMM2
PMVK
PNLIPRP2
PNMT
PNPO
POFUT1
POLA1
POLD1
POLD2
POLD4
POLE
POLE2
POLE3
POLK
POLL
POLM
POLR1A
POLR1B
POLR1C
POLR1D
POLR2B
POLR2C
POLR2D
POLR2K
POLR2L
POLR3A
POLR3E
POLR3F
POLR3GL
POMC
POMT1
POP1
POP4
POP5
POU5F1
PPA2
PPARA
PPARD
PPARGAMMA
PPARGC1A
PPAT
PPCDC
PPCS
PPIE
PPIF
PPIH
PPM1B
PPM1D
PPOX
PPP1R12A
PPP1R12B
PPP1R12C
PPP1R1A
PPP1R1B
PPP1R3B
PPP1R3C
PPP1R3D
PPP2R2B
PPP2R2D
PPP3CA
PPP3CC
PPP3R2
PPP5C
PPT1
PRCP
PRDM4
PREB
PREP
PREX1
PRF1
PRICKLE1
PRKAA2
PRKAB1
PRKAB2
PRKACA
PRKACB
PRKAR2B
PRKCA
PRKCB
PRKCI
PRKCQ
PRKCSH
PRKCSH
PRKD1
PRKG1
PRKG2
PRKY
PRL
PRMT5
PRNP
PRNP
PROC
PROM1
PRPF18
PRPF19
PRPF3
PRPF38B
PRPF4
PRPF8
PRSS1
PRSS2
PSD4
PSEN2
PSMA1
PSMA2
PSMA3
PSMA5
PSMB1
PSMB2
PSMB3
PSMB5
PSMB6
PSMB7
PSMB8
PSMC1
PSMC3
PSMC4
PSMD11
PSMD12
PSMD13
PSMD6
PSMD7
PSME1
PSME2
PSMF1
PSTPIP2
PTDSS1
PTEN
PTGDR
PTGER3
PTGES
PTGFR
PTGIS
PTGS1
PTGS2
PTH1R
PTK2
PTPN1
PTPN7
PTPRB
PTPRF
PTPRM
SDC3
PTPRN
PTPRR
PTS
PTTG1
PUF60
PVRL1
PVRL2
PXMP2
PXMP4
PXN
PYCR2
PYGB
PYGL
QRSL1
RAB11FIP1
RAB11FIP2
RAB11FIP3
RAB13
RAB1A
RAB23
RAB27B
RAB31
RAB3A
RAB5A
RAB7A
RAB7B
RAB9B
RAC2
RAD21
RAD23A
RAD23B
RAD51L1
RAE1
RAG1
RAG2
RALA
RALB
RAMP1
RANGAP1
RAP1A
RAP1B
RAP1GAP
RAPGEF3
RAPGEF6
RARB
RARS
RARS2
RASA1
RASA3
RASA4
RASD1
RASGRP1
RASGRP3
RASSF1
RASSF5
RBKS
RBL2
RBM25
RBM28
RBPJ
RCAN1
RCHY1
RCL1
RDH10
RDH11
RDH5
RELA
RELN
REN
RENBP
REST
RETSAT
REV3L
RFC1
RFC2
RFC3
RFC4
RFC5
RFX5
RFXAP
RGN
RGS14
RGS9
RICTOR
RILP
RIOK1
RIOK2
RIPK2
RNASEH1
RNASEH2A
RNF125
RNF7
ROCK1
ROCK2
RPA1
RPA3
RPE65
RPIA
RPL13A
RPL19
RPL23
RPL28
RPL37A
RPL7A
RPN1
RPP21
RPP25
RPP30
RPS11
RPS12
RPS13
RPS20
RPS21
RPS3
RPS4Y1
RPS4Y2
RPS6KA5
RPS9
RPSA
RRAS
RRM1
RRM2
RUNX1
RUNX2
RXFP1
RXFP2
RXRA
RXRG
RYR2
S100G
S1PR1
S1PR2
SAP18
SARS2
SAT1
SC4MOL
SCARB2
SCD
SCIN
SCN1A
SCN1B
SCN7A
SCNN1B
SDHB
SDR16C5
SEC13
SEC24A
SEC24B
SEC31A
SEC61A2
SEC61B
SEH1L
SELL
SEMA3B
SEMA3D
SEMA3F
SEMA3F
SEMA3G
SEMA4B
SEMA4C
SEMA4G
SEMA5A
SEMA7A
SENP2
SEPHS1
SEPHS2
SEPT2
SEPT6
SEPT8
SERPINA1
SFTPD
SERPINA5
SERPINB2
SERPINB5
SERPINB8
SERPINB9
SERPIND1
SERPINF2
SERPING1
SESN2
SESN3
SETDB2
SETMAR
SF3B1
SF3B4
SF3B5
SFN
SFRP1
SFRP4
SFRS4
SFTPA1
SGCB
SGOL1
SGPP2
SGSH
SH2B3
SH3BP2
SH3GL2
SH3GL3
SHC2
SHMT1
SHROOM2
SHROOM3
SHROOM4
SI
SIAH1
SIK1
SIP1
SIPA1
SIPA1L1
SIRPG
SIRT3
SIRT6
SKP2
SLA/LP
SLC11A1
SLC11A2
SLC12A2
SLC15A1
SLC16A10
SLC16A2
SLC17A5
SLC17A8
SLC18A2
SLC18A3
SLC19A2
SLC1A1
SLC1A2
SLC1A3
SLC1A5
SLC1A6
SLC22A5
SLC24A1
SLC25A10
SLC25A17
SLC25A6
SLC26A4
SLC27A2
SLC2A1
SLC31A1
SLC32A1
SLC44A3
SLC45A3
SLC4A2
SLC5A1
SLC6A4
SLC6A4
SLC7A8
SLC8A1
SLC8A2
SLCO1B3
SLCO1C1
SLIT1
SLIT2
SLU7
SMAD2
SMAD3
SMAD4
SMAD5
SMAD6
SMAP2
SMC1A
SMC3
SMN1
SMO
SMPD1
SMPD2
SMS
SMURF2
SNAI1
SNAI2
SNAP23
SNAP25
SNAP29
SNRNP200
SNRNP40
SNRPB2
SNX2
SNX4
SOAT1
SOAT2
SOCS1
SOCS6
SOCS6
SOD1
SORD
SOX17
SOX2
SOX9
SP100
SPCS2
SPG20
SPP1
SPRED2
SPRY4
SQLE
SQSTM1
SRC
STIM2
SRD5A1
SRD5A3
SREBF1
SRF
SRGAP3
SRM
SRP72
SRPK1
SRPR
SRR
SRRP35
SSBP1
SSH3
SSR3
SSR4
SSTR1
SSTR2
SSTR3
SSTR4
SSX2IP
ST3GAL2
ST3GAL4
ST3GAL5
ST3GAL6
ST6GALNAC6
ST8SIA1
STAT1
STAT2
STAT3
STEAP1
STEAP3
STIP1
STK11
STK3
STK36
STK4
STRADB
STRAP
STS
STUB1
STX10
STX11
STX16
STX1B
STX5
STX7
SUCLA2
SUCLG2
SUGT1
SULT2A1
SUMO1
SUPT3H
SUV420H1
SUV420H2
SVIP
SYCP3
SYK
SYNGAP1
SYNJ1
SYT1
TAAR4
TAAR5
TAAR6
TACC3
TACR2
TAF1
TAF12
TAF2
TAF4B
TAF6
TAF6L
TAF7L
TAF8
TANK
TAOK2
TAOK3
TAP2
TAR1
TAS1R2
TAS1R3
TAS2R13
TAS2R16
TAS2R39
TAS2R40
TAS2R5
TAZ
TBC1D1
TBL1Y
TBL3
TBX21
TBX3
TBXA2R
TCEB2
TCERG1
TCF7L1
TCN2
TCOF1
TEK
TELO2
TFAM
TFDP1
TFDP2
TFPI
TFRC
TG
TGFA
TGFB1
TGFB2
TGFB3
TGFBR2
TGM2
TGS1
THBD
THBS1
THBS1
THBS3
THBS4
THOC1
THOC2
THOC3
THOC4
THY1
TIAM1
TICAM1
TIMP-1
TIMP3
TIRAP
TK2
TKTL1
TLN1
TLR1
TLR2
TLR3
TLR5
TLR7
TLR9
TM7SF2
TMLHE
TMPRSS13
TNC
TNF-ALPHA
TNFRSF10A
TNFRSF10D
TNFRSF11B
TNFRSF12A
TNFRSF13B
TNFRSF14
TNFRSF17
TNFRSF1A
TNFRSF25
TNFRSF4
TNFSF13B
TNFSF18
TNFSF4
TNNC2
TNNI3
TNR
TOLLIP
TOMM40
TOP3A
TOP3B
TP53
TP53BP2
TP53INP1
TP63
TPH1
TPH2
TPI1
TPK1
TPM1
TPMT
TPR
TRA2A
TRAF1
TRAF3
TRAK2
TRAM1
TREM2
TRIM21
TRIM32
TRNT1
TRPC1
TRPM2
TRPM6
TRRAP
TSHR
TSPAN7
TSPO
TSTA3
TUBA4A
TUBB2A
TWIST1
TWISTNB
TXK
TXNL4A
TXNRD2
TYK2
TYROBP
UAP1
UAP1L1
UBA1
UBA3
UBA52
UBA7
UBE2D1
UBE2H
UBE2J1
UBE2J2
UBE2K
UBE2S
UBE2T
UBE2W
UBE2Z
UBE3C
UBOX5
UBR5
UCP1
UGCG
UGDH
UGGT1
UGP2
UGT1A1
UGT2B15
UGT2B9*2
UGT8
UMPS
UNC13B
UNC13C
UNC5D
UNG
UPF3B
UQCR
UQCRB
UQCRC2
UQCRFS1
UQCRH
UROS
USP39
USP8
UTP15
VAMP1
VAMP3
VAMP4
VANGL2
VARS
VAV1
VAV2
VCAM1
VCL
VEGFA
VEGFC
VIPR2
VISA
VKORC1L1
VPS28
VPS36
VPS37C
VTA1
VTN
VWF
WARS
WARS2
WASF1
WASL
WBP11
WBSCR17
WDR3
WDR33
WDR48
WDR82P1
WEE1
WHSC1L1
WIPF1
WNT10A
WNT16
WNT2
WNT5A
WNT6
WNT7A
WWP1
XCL1
XIAP
XPA
XPC
XRCC2
XRCC3
XRCC5
XRCC6
XYLB
YARS
YES1
YKT6
YWHAB
YWHAH
YWHAQ
ZAP70
ZBP1
ZBTB16
ZBTB17
ZEB1
ZEB2
ZFHX3
ZFPM2
ZFYVE16
ZFYVE27
ZMAT2
ZMPSTE24
ZNRD1
