si:dkey-176g1.6
asb1
tmod2
sv2bb
coasy
shhb
si:ch73-93k15.2
sparc
tmprss2
ackr4b
ntla
isg15
cdc42ep4a
cyp51
ttll12
naa20
tecrl2
zgc:113324
hsd17b7
zgc:123244
zgc:112335
si:ch211-15j1.1
sertad2b
hid1b
clic5b
ldb3b
zgc:92880
si:dkey-241l7.4
ccdc40
sult1st2
figla
cldng
ces3
gng7
ppp3r1b
zgc:77739
ppm1ba
ugp2b
si:ch211-129c21.1
gbp1
si:ch211-105d11.2
skap2
pvalb2
rcc1
psat1
gpr112b
hsh2d
fbxo5
zgc:122979
caprin2
si:ch211-76m11.7
nqo1
cbfb
si:dkey-14o18.2
agfg1b
zgc:173994
cmya5
hmgcs1
tex2
nt5c2b
nkx6.2
col9a2
irf2bp2b
cyp2x8
anxa2a
pabpc4
zgc:77778
zgc:92533
slc6a9
eprs
lhx4
si:dkey-238o13.4
anxa1b
retsatl
si:dkey-108k21.10
si:rp71-7l19.6
mtnr1c
f2
c6ast3
trak2
crabp2a
nmbr
ugt5b4
hn1l
gpr144
abat
lrig1
si:ch211-106h4.4
abhd17b
krt5
h1m
ivns1abpa
fgd6
ankrd6b
si:ch211-250e5.16
espnl
pard3
si:dkey-240n22.6
si:dkey-32o22.2
mapre1a
gorasp2
ndor1
cpb1
fbxo25
si:ch211-12e13.2
gcshb
mmadhc
si:dkey-73n10.4
b3galt2
zgc:198329
eef1da
si:dkey-211g8.8
ccne1
adipoqb
zbtb2a
scpep1
atf5b
entpd5b
zgc:162879
fmn2b
trim35-22
pabpn1l
nt5e
cpa2
npas4a
tatdn2
bnipl
ccdc73
pgls
macf1
wu:fj20e02
plp1a
zgc:77439
si:dkey-27p18.3
ncalda
bglap
apobb
si:dkey-29j8.3
si:ch73-60g14.3
zgc:161973
baxb
scn4bb
tnni2b.2
socs3b
cth1
phex
otud5a
gbgt1l4
sult2st1
smyhc2
si:ch211-223m11.2
tubb4b
rtn2b
org
crp3
si:dkey-61p9.9
grn2
fam113
cebpd
cyp2x10.2
zgc:123305
lft2
ptprc
cyp11a1
zgc:171704
ap2m1b
si:dkey-46g23.5
f13a1a.1
pde4ba
si:ch73-46j18.5
si:ch211-213a13.2
csnk1g2b
si:ch73-190m4.1
si:rp71-15i12.1
si:dkey-286j17.3
si:dkey-20n3.1
rps19
diras1a
si:ch211-160d14.12
zgc:101040
spg7
si:ch211-117n7.7
ahsg
asz1
olfm2b
tubb5
sema3c
aspn
zp2.2
dao.2
psmb7
si:ch211-66h3.1
fbl
elovl5
gpt2l
crb1
apip
themis2
eif4g2a
b4galt1
dlx3b
si:dkey-241l7.3
crp2
vtg7
e2f4
si:ch211-226o13.1
cdh15
zgc:110783
chrnd
ucn3l
tspan11
znf259
si:dkey-221j11.3
nfil3-2
klf4b
eps8l3
micall2a
trim101
aldh2.1
si:dkey-241l7.6
zgc:171534
hcrtr2
cxcl12b
tmem30c
cyp46a1
slc27a2a
trim54
plk1
ptn
unc5b
pprc1
prg4b
zgc:123068
tln2a
lrrc20
fbp1b
si:ch1073-396h14.1
rgl3a
si:dkeyp-46h3.6
zp3a.1
si:dkey-102c8.3
cldnc
zar1
ctsl.1
zgc:56622
zgc:172142
ambp
cldnk
zgc:113229
zgc:92137
angptl2b
igdcc3
si:ch73-252g14.4
amy2a
itm2ba
si:dkey-49c17.2
casq1a
pnp5a
slc35f3a
slc6a19b
ola1
xirp1
npepps
sirt1
mos
lypd6b
tfdp1a
gc
mylpfa
abca1a
ncana
epha4b
atp1b4
tax1bp1b
hoxc8a
zgc:103681
si:ch211-196c10.11
st8sia1
col8a1b
ptgs2a
lgals9l1
ppp1r3b
si:dkey-246g23.2
ptk6b
myl4
fmo5
urp2
b3gnt7l
vbp1
arglu1b
pygl
arpp21
zgc:64106
ap2m1a
si:dkey-201l21.1
hbbe3
glra1
tnr
smarca4
zgc:158856
cyp2y3
zgc:101084
rbfox2
si:dkey-240e12.6
dusp1
mogat2
rsad2
kars
picalmb
hepacam
krt1-19d
zgc:66382
foxd3
rgs4
hoxc4a
btg4
sult6b1
srebf2
zgc:136254
nrbf2b
agbl4
slc16a9a
tmprss4b
hoxa1a
efemp2b
lnx2b
lama4
serpinc1
sult1st5
si:dkey-86k10.14
epas1b
pcdh10a
fa2h
zgc:123217
cep85l
si:ch211-232i5.1
zgc:162150
c1qc
lsm14b
fabp10a
plxnb2a
aqp7
pvalb1
slc13a1
aldh7a1
arhgef18b
zcchc24
eya4
si:dkeyp-118h9.7
si:dkey-31f5.1
plg
hnf1ba
pitx1
si:ch73-308m11.1
syvn1
tceb2
cdca7a
acsl6
zgc:63972
rps27.2
mycla
gapdh
si:ch211-234p6.5
dab2ipb
sfxn5b
bmp15
hbl3
cd164
wdr90
aldh2.2
cul1a
idh1
zgc:101840
mapkapk2b
tgm2a
smtnl1
zgc:112466
aspdh
kif23
zgc:110377
oxt
ndrg1a
wu:fj55b04
ctnnbl1
plek
si:ch211-262h13.5
si:ch211-191i18.4
gmnn
myhc4
socs3a
spag1a
ehd2
krcp
rhoaa
si:ch211-217g15.3
serpina1l
elovl2
tbx6
sult2st3
gtf3ab
b2m
cav1
cyp2p8
gys2
adh8a
fosb
wu:fb37b09
usp6nl
si:ch73-239k17.1
alpi.2
tacc3
cfhl4
mb
si:dkey-241l7.2
fmn2a
hoxa4a
socs1a
atp2b4
cbx7a
neu3.3
myod1
zgc:158580
cyp3a65
zgc:171426
haao
g0s2
si:ch211-207e19.14
zgc:112052
susd5
slc22a6l
kpna2
sh3bgr
cenpl
si:dkey-193c22.2
csrnp1a
ugt1ab
dtl
ccnt1
si:ch211-236l14.4
aoc2
pif1
dmc1
slc13a5a
cfhl5
neurod6b
prl2
si:dkeyp-46h3.8
atp2a1l
zgc:158432
vtg4
dock3
zgc:77112
si:dkey-44g23.5
polr3b
anpepb
eci1
myhz1.1
cdh17
si:ch211-93f2.1
elovl1a
rhbdd1
rnasel3
hapln1a
brd8
lrrfip2
ap1g2
si:ch73-289h5.1
sult1st3
hspd1
c1r
si:dkeyp-46h3.3
xpnpep2
nfe2l1a
idi1
zgc:153996
zgc:92161
vwa2
smtnl
mrap
tnfsf10l
zgc:113425
agla
itm2cb
slc35d1b
fuca1
si:ch211-105d18.8
desi1a
lrrc30a
cfb
nipsnap1
fn1b
cd36
olfml2ba
arfip1
si:ch73-259k18.1
rdh5
mcm3l
mthfd1b
spaw
coro2ba
try
fgf5
nes
zgc:174178
myoc
zgc:73075
mybpc2a
or129-1
ftr53
col8a2
zgc:110183
slc2a15a
prdx1
pax9
pdlim3b
zgc:162724
rbl1
taar11
nufip2
palmda
apobec2a
galns
mep1a.1
acanb
sox9a
zgc:92411
vtg3
gtse1
wnk1b
acot9.2
eif4h
pias4b
atf7b
zgc:171776
zgc:65811
serpinf2b
nfe2l2b
dmrt2a
si:ch211-209a2.2
insig1
zgc:113442
zgc:103599
si:dkey-242h9.3
hectd1
ogn
fgg
npm1a
lmo7b
si:dkey-103e21.5
msxd
calhm2
nit2
wee2
slc25a37
cyb5r2
mknk2a
pds5a
si:ch211-226h8.6
zgc:113255
sox7
ephx1l
morc3b
cx27.5
prx
pdzd2
mknk2b
acat2
zgc:92791
ppargc1b
nkd2b
si:dkey-112e17.1
vgll4l
cyp4v7
trmt112
zgc:194659
grhprb
ttna
mcm6l
dync1i2b
si:ch1073-174d20.1
si:dkey-8k3.2
fam129aa
tmem238
mthfr
ddit3
pcdh2ab7
si:dkey-121j17.5
myo1ha
si:ch211-195o19.4
ociad2
si:dkey-261m9.10
si:ch211-226h8.11
tspo
cldna
stab2
mpv17l2
si:dkey-172m14.2
zgc:152753
meox2b
rhoub
ckmb
chpt1
lin28a
zgc:112265
apobl
si:dkey-266m15.6
si:ch73-96b22.2
opn1lw1
slc26a3
arhgap20b
zgc:172218
sobpb
si:ch211-175l6.2
si:dkeyp-1h4.9
zgc:152791
mitfa
gnmt
si:ch211-226h8.4
si:ch211-137a8.4
slc2a12
sepp1b
sema4ba
alas1
dio2
nek2
ccdc28a
slc2a1b
casq2
rpl5b
zgc:92518
opa1
gnsb
tyms
slc25a18
hhipl1
rabep2
tsku
nphs1
zgc:172246
si:dkey-46g23.2
hoxc13a
vtg2
st6galnac4
fam162a
gfpt2
f7i
alox5b.3
zgc:92184
foxa3
sdr16c5b
iqch
sh3gl3b
pkmb
si:dkey-14d8.6
emilin2a
vtg5
ft2
slc6a5
ivns1abpb
si:ch211-226h8.13
zgc:158299
c1orf109
hoxa3a
grin1a
bgna
cbr1l
cacnb3a
nutf2
si:dkey-42i9.8
si:ch211-207i1.1
tm4sf4
si:dkey-126g1.6
trib3
zgc:91999
btbd3a
ighv2-1
zgc:101744
ctslb
pth1ra
slc13a2
ocstamp
dnttip2
chdh
ddx46
zgc:174153
zgc:85843
si:dkey-246j23.5
gpc4
chd
zgc:154125
pygb
elovl7a
zp2.1
hsd11b2
si:dkey-57h18.1
si:ch211-121d13.5
zgc:136858
panx1b
st3gal2l
zgc:153409
lhcgr
anxa6
cln6b
zgc:136472
si:dkeyp-46h3.5
prmt1
elavl3
batf
tbc1d1
tars
zgc:112484
grn1
nmnat2
wnt4b
cel.1
ckma
lss
zgc:111986
osmr
ighv9-2
trdn
tmem144b
slc25a4
ncam2
si:dkey-86k10.1
crsp7
aqp12
cldn19
zgc:153440
plin1
si:ch211-153j24.3
gdi1
mef2d
dab2
b3gnt5b
rapsn
rtn1a
dbpa
zgc:136930
si:dkeyp-73d8.6
pank2
cenpw
ccnyl1
tdrd6
rrp7a
has2
si:ch73-60p2.1
si:ch211-5k11.2
si:dkey-228b2.5
crp1
si:ch73-387e10.3
zgc:153642
plac8.1
matn3a
tmem136a
ammecr1
aqp4
cyp2j20
si:ch211-59h6.1
plgrkt
map1lc3c
creb3l2
si:dkey-21o22.2
cyp2p9
kpna7
vgll2b
igfn1.1
golgb1
fip1l1a
mbpb
kcnj8
zgc:65851
cyp2x9
si:dkey-72l14.4
hnf4a
zgc:171500
si:dkey-14o18.6
sync
bnc2
ftr56
ctnna2
zgc:66313
zgc:153129
rrbp1b
si:dkeyp-46h3.2
rdh10b
sox5
ipo8
si:ch211-202a12.4
c3b
ptpro
skia
lsm12b
lamc3
cabp5a
zgc:114123
tmem184a
zgc:103482
si:ch211-14a17.7
si:dkey-265a7.2
si:dkey-241l7.5
arid5b
tp63
fdps
ephb2b
rnf213a
esrp1
xrcc5
npy
hal
otx5
zgc:100997
nuf2
si:ch211-11k18.4
si:ch211-12h2.6
gpm6bb
gfap
nanog
kdr
cyp1b1
smc4
ampd1
si:ch211-237l4.6
zgc:123297
pax1a
anpepa
sqlea
zgc:113912
zgc:92041
cdx1b
aqp8a.2
dhx58
bin3
zgc:153921
runx2a
si:ch211-197g15.7
tmem161a
mad2l1
si:dkey-269d20.3
si:dkey-90m5.4
mpx
opn1sw1
akr1b1
adamts8a
tm4sf5
scarb2
flj13639
kdelr2a
paip2b
alg13
slc26a4
omd
atp2b1a
sh3bp5b
cpa1
dmd
pfkfb3
sc5d
umps
zgc:103601
zgc:162738
furina
si:ch211-288g17.4
si:dkey-147f3.4
zgc:153650
trpa1b
cct5
dmrta2
trim35-29
si:dkey-65b12.6
cfh
si:dkey-239i20.2
si:dkey-58f10.10
casp7
nolc1
si:dkey-7c18.24
mat2ab
atp8b3
itih5
tekt2
si:dkey-208k4.2
ppp1r14ab
nasp
orc1
irf7
slc25a25a
cbsa
mthfd1l
supt3h
elovl7b
pm20d1.1
si:ch211-272h9.5
si:dkey-201l21.4
prc1a
fli1b
fkbp5
shmt1
si:dkey-47k20.1
fam212aa
rps6kal
acmsd
rfx2
mafgb
mtrf1l
ccnb2
si:ch211-14a11.5
dpp7
nt5c1bb
si:rp71-61h23.4
hoxa10b
gpa33
xbp1
atp1a1a.4
ptk2.1
ing3
tuba4l
si:dkey-22f5.10
zgc:66449
zgc:92061
slc12a10.2
zgc:193751
zgc:174698
blcap
c8a
si:dkey-88l16.2
rnaseka
si:dkey-56d12.4
sesn2
zgc:163121
si:dkey-270e21.7
zgc:113307
cyp2k6
col16a1
tbpl2
copb2
hsd17b12b
dhdhl
plac8.2
her4.2
si:ch211-266k13.3
c9
bin2a
dnah7
si:dkey-73n10.1
sema3h
zgc:113293
prodha
mpp7
cacna1r
zgc:162187
acot13
slc18a3a
ccdc103
zgc:56231
dlgap1a
snapc1a
her3
alpk3a
zgc:113070
eif1b
dhcr24
gtpbp1
cpeb1b
micall2b
tbx20
im:7137555
zgc:123284
crfb4
si:dkey-97m3.1
sc:d0202
fam213b
vil1
ncaph
zgc:101116
si:ch211-226h8.8
zgc:110410
hoxb5b
cbr1
si:ch211-117c19.1
arl11
slc5a1
dpep1
tmem86b
pglyrp6
si:ch211-217k17.9
clcn1a
slc6a13l
atad5b
si:ch211-107o23.1
zgc:198241
zgc:194285
mxb
rpl19
ttyh2
nap1l4a
myom1a
cfhl2
si:ch1073-309n14.1
rnf41
s100s
ptbp3
zgc:174855
ptgdsb
elfn1b
si:dkey-16i5.10
cyp4v8
mxe
hhatla
ms4a17a.11
zp3a.2
nefmb
dazl
tgm1l2
has3
dok7
mych
hoxa5a
elovl6l
tm4sf18
zgc:171445
utp15
ugt5a2
hpda
zgc:153629
cntn2
sap130b
si:dkeyp-1h4.8
atf3
si:dkey-188i13.10
si:ch211-137i24.10
kcnk1b
tdrd7
zgc:113531
hrsp12
tmed1a
hk2
marco
si:dkey-98f17.3
si:dkeyp-44a8.4
ubtd1a
mov10b.1
zgc:56235
tram1
dvr1
poll
zgc:113424
igfbp5b
si:dkeyp-113d7.4
dnmt3
phldb1a
tinagl1
sult4a1
zgc:163136
ca15b
fstl4
tpma
blnk
acsl1a
lipg
gdnfa
pfkmb
zar1l
zgc:136652
asap2a
si:dkey-78l4.7
si:ch73-194h10.4
slc7a7
ifi35
st3gal5l
flncb
pafah1b1b
ipo7
coq7
itih2
zgc:55461
phyh
mtp
msrb2
fundc2
rpl6
mrps10
pnp4b
gnaia
si:dkey-27a13.3
si:ch1073-291c23.2
stk16
klhl31
fgf8b
opn1mw4
traip
zgc:123282
pls1
capn3b
pygma
pir
slc35f6
slc30a2
ttnb
fbxw4
fkbp6
urah
mfge8a
mef2ca
irf2bp2a
asb2a.1
zgc:136872
si:ch211-207i1.2
meox1
orc3
cax1
fitm1
btbd11b
si:ch211-226h8.14
si:ch211-5k11.6
tdrd5
gcc1
tcea1
slc16a12b
zgc:174863
bcmo1l
maptb
zgc:153345
zp2.3
mxra8a
acp5a
tp73
zgc:86764
srsf6a
unc93a
si:ch211-132b12.8
cirh1a
anks4b
prss16
si:ch211-165f21.7
zgc:171750
tgfbr1b
tmem119a
rnf146
apod
pmp22a
pkp3a
si:ch211-86k6.2
cdc20
si:ch211-199g17.3
zgc:172090
osbpl2b
tfa
rps2
vcana
senp7
slc25a42
ccdc47
si:dkey-18b8.8
synpr
zgc:112160
trim35-30
msmo1
enpp6
tacr1a
mfsd10
zgc:162592
prmt2
zgc:56676
dgcr6
pla2g12b
si:dkey-58f10.11
prrx1b
zgc:154064
si:dkey-106c17.2
ccnb1
grm3
rock2b
ppm1aa
sccpdha
plcd3a
nr1h4
mibp
obsl1a
serpina1
lamp2
ank1
si:dkey-188i13.9
gnrhr4
stm
gria2a
tmpoa
si:dkey-121a11.3
dcn
wnt8a
scn4aa
si:dkey-21e7.2
serpina7
ccna2
hoxb3a
saa
ube2d3
polr3d
acrc
si:ch211-242b18.1
pkd2
lama5
si:dkey-238c7.13
lepr
psme2
lppr2a
snx10a
slc5a11
apoc1l
si:dkey-269i1.3
si:ch211-196f5.2
lgmn
cldn15a
csdc2b
tbx6l
acad11
mhc1uba
soul5
zgc:103710
s100v2
si:ch211-284a13.1
zgc:114181
ogfrl2
iars
si:dkey-40c23.2
upk3b
ace2
zgc:153893
lrpap1
cldn15la
aqp3a
si:ch211-284e20.8
si:ch211-233m11.1
orc6
pop1
igl2v7
mep1a.2
zgc:153154
si:dkeyp-114g9.1
si:dkey-13a21.4
prp19
hpdb
ucp1
faah2b
pdlim5a
lyn
tnfrsf18
rbbp5
si:dkeyp-73d8.8
pus7l
b4galnt3a
sult3st1
si:ch73-74h11.1
xkr6
gnpda1
zgc:195170
zgc:175128
si:ch73-299h12.9
sirt3
ccdc106b
rrm2
slc7a10a
zgc:162612
sccpdhb
dhrs1
