Ar
Bmp2
Bmp5
Tnfsf8
Cdk4
Chrm2
Des
Ebf1
Gabrg3
Gad1-ps
Gpr83
Glns-ps1
Glra4
Hba-x
Hoxa6
Hoxb3
Hoxc9
Hoxd10
Hoxd11
Hyal1
Igha
Ighg2b
Ighg1
Ighm
l7Rn6
Mafg
Pax9
Pcna-ps1
Pcna-ps2
Pdgfa
Pgk1-rs7
Pgr
Pim1
Ptger1
Qk
Prrx2
Sox15
Tlx1
Cdh13
Pde4d
Epha3
Mybl1
Hnrnpd
mt-Ty
mt-Tw
mt-Tv
mt-Tt
mt-Ts2
mt-Ts1
mt-Tr
mt-Tq
mt-Tp
mt-Tn
mt-Tm
mt-Tl2
mt-Tl1
mt-Tk
mt-Ti
mt-Th
mt-Tg
mt-Tf
mt-Te
mt-Td
mt-Tc
mt-Ta
mt-Rnr2
mt-Rnr1
mt-Nd6
mt-Nd3
Pou4f3
Star
Lmo3
Pdx1
Il15
Pura
Sod3
Kpna1
Amy2-ps1
Amy2b
Got2-ps1
Erbb4
Nkx1-2
Plaa
Npn2
Ksr1
Dgkg
H2-Pa
Spock1
Tra2b
Ptafr
Gpx2-ps1
Gtf2h5
Nxph1
Fxyd3
St6galnac2
Nab1
Ifngr2
Kif3a
Dub3
Akr7a5
Tpt1-ps1
Uqcrq
Pip5k1a
Dvl3
Kcnj12
Il11ra2
Kif22-ps
Shfm1
Spin1
Cct3-ps1
Fadd
Slc4a3
Nck1
Plscr1
Hcn1
Psmc3ip
Anapc4
Aak1
Ptpn4
Ccnd3-ps
Psmb5-ps
Znrf2
Limk2
Shox2
Sorl1
Eif4ebp3
Pfdn2
Ddx56
D2Ertd750e
D17H6S56E-5
Pcdh9
Amd-ps1
Dnase1l3
Tnfrsf1b
Fxc1
Olfr153
Igkj1
Igkj2
Igkj3
Igkj4
Slit2
Ggh
Igkv3-10
Igkv6-13
Igkv6-14
Igkv6-15
Igkv6-17
Igkv6-20
Igkv8-16
Igkv8-19
Igkv8-18
Klf12
Mrpl41
Mrpl30
Mrps26
Cog1
Pstpip2
Pikfyve
Ap4e1
Sec22b
Pex11a
St14
Il18rap
Acvr1b
Muc2
Csf2
Ftcd
Gja10
Epm2a
Spic
St6galnac3
Arpc1b
Dctn6
Dlg2
Lypla1
Srp54a
Sgcg
Psmb9
Map3k4
Map4k2
Homer1
Cops5
St6galnac5
Vmn2r-ps57
G3bp1
Mrpl17
Tbl2
Nr4a3
Slc25a4
Mrps7
Fbxo8
Sap30l
Orc3
Magi2
Hs6st3
Tuba8
Atf7ip
Nphs1
Ramp2
Prpf40a
Pdlim1
Mtag2
Trim17
Tob2
Crebl2
Luzp2
Fam13a
Zfp319
Styx
Prkag3
Bbox1
Galnt6
Kcnmb4
Dnase2b
Tctex1d2
Gtpbp8
0610031J06Rik
Rmnd1
Tomm6
Nop10
Eif1ax
Haus2
Ppp1r7
Mgst3
2610528E23Rik
Ubxn6
Snx9
Thg1l
Dnase1l2
Erlec1
4930443B20Rik
1200014J11Rik
Cir1
2410002O22Rik
Mettl6
Fancl
Rpp14
Abhd2
Nkain1
Rnf141
Zmynd19
Utp11l
Wdr85
2900089D17Rik
Srek1ip1
Gpx7
1700084E18Rik
Fam115a
4933402N03Rik
Pnpla8
Zfand4
2900097C17Rik
4933424M12Rik
Gpr89
H2afy3
4930442L01Rik
4930465K10Rik
2310003F16Rik
Gadd45gip1
Mrpl24
4930577N17Rik
Tiprl
Wfdc1
9430016H08Rik
Apool
Fam133b
Ndufb4
Ndufa5
Rnaseh2c
4930524O07Rik
C630043F03Rik
Smu1
Moap1
0610025J13Rik
Ccdc17
Nufip2
Tmem214
1810012K08Rik
1700001L05Rik
1700006P19Rik
1700025N21Rik
1700025D23Rik
2310014F06Rik
Iqcg
Usp46
Aldh16a1
Anxa13
1810059C17Rik
1810059H22Rik
2010305A19Rik
Scrn1
2210013O21Rik
2210411M09Rik
Ndufab1
Lyrm2
Cd3eap
2610303G11Rik
Rprd1b
Snx21
5730437C11Rik
Gfod2
6330403L08Rik
4632415L05Rik
4921509A06Rik
4931406G06Rik
4933407I08Rik
Megf9
Ston2
4933407E24Rik
4933440M02Rik
4933427J07Rik
Wdr66
4933433P16Rik
5133400J02Rik
4933435F18Rik
Krtap16-3
8430432A02Rik
Mcm9
9030622O22Rik
9130409J20Rik
Isx
9130020K20Rik
Rnf180
Mad2l2
Serpina9
Btbd17
Pygo1
1700007M16Rik
2210016L21Rik
2610204G07Rik
2610307P16Rik
Spats2
Cul4b
2810032G03Rik
2810047C21Rik1
2810442I21Rik
Tmem48
Agxt2l2
Ccnt2
2900056M20Rik
3110021N24Rik
3110067C02Rik
1700028N14Rik
1700036A12Rik
1700041G16Rik
1700049J03Rik
1700049E17Rik1
Als2cr11
1700095J07Rik
1700092E19Rik
Thap1
4930403O15Rik
4930405H06Rik
Ankrd45
4930431P03Rik
4930423O20Rik
Acot6
4632419I22Rik
Ftsjd2
1810010K12Rik
1700064E03Rik
Cltb
Polr3c
4932442E05Rik
Mamstr
8430419K02Rik
4930448K12Rik
4930453H23Rik
4930451G09Rik
4930444E06Rik
4930445B16Rik
4930461C15Rik
4930452L02Rik
4930453O03Rik
4930457A20Rik
4930455C21Rik
4930442H23Rik
4930503H13Rik
4930507D10Rik
4930518C09Rik
4930522N08Rik
4930511O05Rik
4930597A21Rik
0610040B09Rik
1700001G01Rik
1700010K24Rik
Phpt1
2810008M24Rik
Fastkd2
Ccdc64
Vwa5b1
4930402H24Rik
4930466I24Rik
4930579M01Rik
4930579D09Rik
5033411D12Rik
5830417I10Rik
Ganc
Zfp444
6230409E13Rik
6330562C20Rik
Nkain2
Zdhhc2
6430710C18Rik
Dnttip1
6430628N08Rik
2310006M14Rik
Slc30a9
2010001A14Rik
2210406O10Rik
Tmem234
4930469K13Rik
4930516K23Rik
Ints7
5330439A09Rik
2810433D01Rik
Krtap5-3
9430041J12Rik
C030013C21Rik
C030037F17Rik
Dnhd1
9330198N18Rik
6030408B16Rik
9230111E07Rik
Krtap10-4
Elp4
A930028C08Rik
Msl2
E130111B04Rik
9230117E06Rik
4930471C06Rik
4930555B12Rik
4930445N08Rik
4921522H14Rik
Klhdc8b
2410019O14Rik
1700057H15Rik
A430104N18Rik
Btbd19
9530034E10Rik
Bola3
C330013J21Rik
Galntl2
Mctp1
Zcchc4
5830428H23Rik
Zdhhc3
4930546C10Rik
Mapk8ip2
Sap30bp
Tdo2
Pfdn5
Usp14
Pdcd1lg2
March7
Slc35b4
Pycard
Uck2
Bambi-ps1
Tusc3
Grin3a
Cenpq
Dync1li1
Gpr45
Pias4
Fam129a
Trim7
Slc5a12
Gpr107
Fastkd5
C79798
Ldlrap1
Acnat1
AU022252
AW011738
Ccdc60
Cog8
Upb1
BC016423
Tigd5
AU015336
AI413582
6720401G13Rik
Tnxa
Smt3h2-ps4
4930555J06Rik
Cyyr1
2310034C09Rik
Kcnn2
Sp7
Atp5l-ps1
Ehd2
Gpr6
D17Wsu104e
Phf5a
Mbd3l2
Zfp287
Pfn3
Myoz3
Tox
Nav1
Alkbh1
Mthfr-ps1
Slc26a7
Prmt7
Tceal1
Ccdc106
Csmd2
St7l
Prr15l
Stoml3
Wwc1
B3gat2
4930579C12Rik
9430097D07Rik
Gpr26
A130006I12Rik
Gpr21
C230034O21Rik
Rcor3
C730034F03Rik
C920011F04Rik
A430078G23Rik
Trub2
Pdpr
A330041J22Rik
9330133O14Rik
A730018C14Rik
Pet112l
A430010J10Rik
D830026I12Rik
5031425F14Rik
5930422O12Rik
Creb3l2
Pcdh11x
E030011O05Rik
E130114P18Rik
D630014O11Rik
6030445D17Rik
Zfp612
Atf7
A830082K12Rik
Themis
D830046C22Rik
Pou6f2
B930095G15Rik
A530076I17Rik
6720489N17Rik
Srcap
B330016D10Rik
D230022J07Rik
Sox2ot
A730060N03Rik
Fsd2
A730032A03Rik
A930104D05Rik
D830044D21Rik
9530056K15Rik
Nhlrc3
Dnahc14
Mdga2
Fem1c
Ubtd2
B930041F14Rik
A230056P14Rik
A530058N18Rik
A430110C17Rik
A930035D04Rik
D830039M14Rik
A730013G03Rik
Adh6b
Eif2c2
Rtp3
BC026585
Vgll4
BC035947
Wnk3-ps
Opalin
Gucy1a2
Mkrn1-ps1
Dsg1c
Tmc3
Arsi
BC022960
Mir149
Dnmt3l-ps1
Mirlet7f-2
Mirlet7g
Mir126
Mir127
Mir128-1
Mir132
Mir133a-1
Mir136
Mir137
Mir139
Mir140
Mir145
Mir151
Mir152
Mir153
Mir154
Mir15b
Mir186
Mir188
Mir190
Mir204
Mir208a
Mir211
Mir23b
Mir26a-1
Mir26b
Mir27b
Mir30c-1
BC043934
Tnpo1
BC055111
BC007180
Nlrp1a
Fhdc1
Igkv4-57
Igkv4-79
Akd1
Gm498
Prss47
A930017M01Rik
Gm371
Hdx
Gm381
E230028L10Rik
Usp49
Skint10
Plcxd1
Uprt
Abhd12b
D830013O20Rik
Trim71
Trav6d-6
Gm1401
Igkv4-92
Igkv5-39
Igkv5-37
Igkv4-57-1
Igkv4-68
Igkv4-53
Gm1587
Opa3
Rdh18-ps
D030018L15Rik
Olfr595-ps1
Olfr636-ps1
Olfr637-ps1
Olfr709-ps1
Olfr964-ps1
Olfr1185-ps1
Olfr1369-ps1
Hdac4
4933427G23Rik
Gm1862
Gm1866
BC039966
BC030870
Vtcn1
BC061194
E130317F20Rik
4732465J04Rik
4930417H01Rik
D630024D03Rik
G630018N14Rik
Scube3
C230030N03Rik
4932415D10Rik
Vhl-ps1
Unc13a
Zfp647
Calm5
Xkr4
Sp9
BC023719
Gsdmc3
Usp-ps
Mfsd2b
Trav9n-4
Trav14n-3
Gm1965
Bex6
B230314M03Rik
B930094E09Rik
Slc10a4
Slc22a15
Itpa-ps1
Itpa-ps3
Trav14n-1
Gm10083
Gm8696
Gm6407
Gm7518
Gm7353
Gm7352
Gm9378
Gm9386
Rpl31-ps25
Gm4995
B230307C23Rik
Gm7275
Gm9000
Gm5152
Gm5405
Gm5422
Rpl7a-ps3
Gm5265
Gm8595
Gm6020
Gm8210
Gm7732
Gm16479
Gm9430
Gm8225
Gm8226
Rpl7a-ps11
Gm5501
Gm6570
Gm5828
Gm10257
Gm6004
Gm8730
Gm8731
Gm8724
Gm6483
Gm6482
Gm4918
Gm6420
Igkv12-47
Igkv10-95
Gm6142
Gm6620
Gm6630
Gm7153
Gm8475
Rpl26-ps4
Gm5403
Gm6877
Gm8161
Gm6311
Gm6202
Gm6565
Gm7162
Gm4938
Gm5764
Gm6506
Gm6030
Gm5406
Gm5419
Lipt1
Gm7846
Krtap10-10
Gm6969
Gm6970
Gm8121
Gm7221
Fam119b
Gm9103
Gm9104
Gm6274
Gm6275
Gm6257
Gm5967
Gm6065
Gm6067
Gm6433
Gm6733
Gm8429
Gm5806
Flg2
Gm6081
Gm6168
Gm5062
Gm4887
Gm5641
Gm6927
Gm5218
Gm8424
Gm6327
Gm4779
Gm8378
Gm8379
Gm16477
Vmn1r-ps32
Gm5426
Vmn1r-ps76
Gm9364
Gm7076
Gm16378
Gm7235
Igkv17-127
Igkv9-124
Gm6136
Gm6563
Gm5060
Gm5455
Gm6441
Gm4982
Gm9017
Gm5670
Rpl7a-ps10
Gm6285
Ighv1-54
Ighv6-5
Gm5391
Gm9043
Gm6682
Gm16440
Gm9308
Vmn1r-ps77
Gm16411
Gm5258
Fam136b-ps
Gm6505
Gm5039
Vmn1r-ps71
Gm5166
Gm16372
Gm6826
Gm6823
Gm5963
Gm6434
Gm13776
Gm13772
Gm13504
Gm14260
Gm13505
Gm11647
Gm14454
Gm12104
Gm13423
Gm13422
Gm11309
Gm13923
Gm11922
Gm12535
Gm14000
Gm14001
Gm13771
Gm12203
Gm12201
Gm12202
Gm11377
Gm13447
Gm14285
Gm14287
Gm14286
Gm14480
Gm14077
Gm13548
Gm12105
Gm13200
Gm13326
Gm11206
Gm13108
Gm12302
Gm13165
Gm12732
Gm13168
Gm12734
Gm12733
Gm14046
Gm11455
Gm13061
Gm11531
Gm12205
Gm12204
Gm13664
Gm14175
Gm11635
Gm12283
Gm12308
Gm13337
Gm12309
Gm11204
Gm11205
Gm12915
Gm13714
Gm13715
Scgb1b23-ps
Gm13673
Gm11438
Gm12774
Gm11869
Gm11870
Gm12085
Gm12086
Gm12088
Gm12087
Gm11549
Gm12089
Gm12255
Gm12351
Gm14126
Gm12629
Gm12332
Gm14074
Gm11408
Gm11406
Gm12908
Gm12910
Gm12909
Gm11492
Gm11490
Gm11491
Gm13597
Gm13596
Gm13830
Gm11826
Gm13910
Gm11610
Gm11443
Gm11444
Gm11839
Gm11445
Gm11841
Gm11842
Gm11843
Gm12999
Gm13361
Gm12506
Gm13198
Gm13669
Gm12109
Gm12107
Gm11743
Gm14377
Gm13010
Gm11250
Gm14469
Gm14467
Gm13328
Gm11825
Gm12018
Gm12025
Gm12027
Gm12026
Gm12028
Gm12029
Gm12101
Gm12356
Gm12492
Gm13905
Gm13163
Gm13903
Gm13904
Gm14255
Gm11651
Gm11652
Gm11896
Gm11897
Gm11898
Gm13865
Gm11449
Gm11448
Gm12325
Gm12326
Gm11452
Gm12324
Gm12516
Gm13006
Gm13633
Gm13632
Gm12827
Gm12508
Gm14004
Gm13132
Gm13829
Gm12224
Gm14199
Gm12013
Gm13720
Gm12015
Gm14200
Gm13941
Gm12016
Gm12017
Gm14303
Gm12102
Gm12103
Gm12984
Gm13113
Gm12106
Gm13456
Gm14463
Gm14464
Gm14465
Gm11585
Gm11300
Tmem233
Gm12134
Gm11775
Gm13827
Gm12529
Rpsa-ps4
Gm12239
Gm12236
Gm14149
Gm12237
Gm14146
Gm12234
Gm14148
Gm13409
Gm12378
Trav13-2
Gm13916
Gm13915
Gm13921
Gm13919
Gm13453
Gm13454
Gm13451
Gm13452
Gm13532
Gm12657
Gm13110
Gm11434
Gm12175
Gm13770
Gm13072
Gm13073
Gm13614
Rpl9-ps2
Gm13702
Gm13701
Gm14219
Rpl23a-ps4
Gm14097
Gm14099
Gm14050
Gm14100
Gm13612
Gm13064
Gm13065
Gm14222
Gm13149
Gm13150
Gm13147
Gm13148
Spocd1
Gm13638
Gm11810
Gm11474
Gm12570
Gm11475
Gm11615
Gm14212
Gm12119
Gm13679
Gm13680
Gm13681
Gm13682
Gm12115
Gm12116
Gm12140
Gm12361
Gm12362
Gm12363
Gm12142
Gm11348
Gm12143
Gm11349
Gm11350
Gm11959
Gm11960
Gm11958
Gm12299
Gm12052
Krtap4-8
Gm12054
Gm12056
Gm13019
Gm11686
Gm12058
Gm11597
Gm13398
Gm13474
Gm14445
Gm12375
Gm12374
Rpl23a-ps6
Gm14441
Gm14442
Gm14443
Gm14444
Gm13902
Gm11691
Gm11690
Gm11692
Gm13437
Gm13900
Gm11374
Gm11881
Gm13473
F630206G17Rik
A230083N12Rik
A830092H15Rik
Gm11626
Gm12353
9430073C21Rik
B930036N10Rik
Gm12494
Lce1j
Gm12744
Gm12940
Gm13001
Gm6685
Ighv6-4
Ighv1-5
Ighv1-7
Ighv1-42
Ighv1-43
Ighv1-62-1
Gm10302
Gm10702
Gm10042
Gm9988
Gm15015
Amy2a2
Amy2a4
Gm10395
Igkv6-23
Gm14917
Gm13364
Amy2a3
Gm15043
Gm14857
Gm10916
Gm10931
Gm10936
Gm10944
Gm10945
Gm10959
Gm10961
Gm10964
Gm10972
Gm10974
Gm10985
Gm10999
Gm11007
Gm11009
Gm11011
Gm11020
Gm11027
Gm11032
Gm11034
Gm11037
Gm11042
Gm11060
Gm9727
Gm5559
Gm7138
Scgb1b11
Gm9507
Gm2606
Gm2619
Gm2639
Gm2709
Gm2735
Gm2759
Gm3233
Gm3235
Gm3244
Gm3250
Gm3259
Gm3892
Gm3893
Gm3896
Gm3912
Trav4n-3
Gm4705
Gm4707
Gm4723
Gm15946
Gm16124
Gm15965
Gm15964
Gm15966
Gm16068
Gm16067
Gm16091
Gm2423
Gm15386
Gm16353
Gm16341
Gm16363
Gm16347
Gm16365
Gm16330
Gm16338
Gm16334
Gm16333
Gm16362
Gm16351
Gm16346
Gm16332
Gm16309
Gm15017
Gm14875
Gm16092
Gm16187
Gm16270
Pisd-ps1
Tmsb15b2
Snord14d
Snord14e
Snord14a
Vmn1r-ps29
Vmn1r-ps31
Vmn1r-ps40
Vmn1r-ps45
Vmn1r-ps54
Vmn1r-ps55
Vmn1r-ps56
Vmn1r-ps57
Vmn1r-ps58
Vmn1r-ps59
Vmn1r-ps60
Vmn1r-ps61
Vmn1r-ps62
Vmn1r-ps64
Vmn1r-ps66
Vmn1r-ps67
Vmn1r-ps68
Mir669a-8
Mir5132
Rps19-ps6
Gm20091
PPIAP22
MCF2L-AS1
SNX21
TUBA3C
N6AMT1
RWDD2B
CSF2RBP1
OTUD5
PPIB
KRTAP20-2
CDC37L1
SGCG
HDAC8
SPATA5
TFE3
GDF10
TCP10L
EMX2OS
PIK3R6
SNRNP25
MUC5AC
TYRL
RANP6
WDR45
PAXBP1
FBXL20
HBZ
HIST2H2BE
FAM110C
HIST2H2AB
GLIPR1
RENBP
TLK2
TTC5
STXBP5
TMEM184A
MTFMT
ATP8A2
SPTSSB
ACADSB
TMBIM4
MED28
MAL2
HIST3H2BA
FAM184B
IFNGR2
HCG4
HLA-H
TMEM50B
SRSF3
MPL
CXCL17
TMEM242
FTH1P20
MBOAT1
GUCY1A2
TCTE1
MREG
PLEKHA6
SMAD1
FAS
CLPX
TNFAIP1
MAP2K6
RDH16
SYP
IRS1
ERGIC2
ME2
CDX2
WNT4
MECP2
VCL
PGAP1
MOB2
MROH3P
TGFB1
RPS18
RSL24D1
GULOP
RAB27A
GPR26
C1QB
SCAMP1
P2RX7
ANKRD33B
MMP12
PYGO1
RDH13
GTF2H5
TAF9
ADM
KCNJ2
NOL7
ARL5A
TDO2
KPNA2
STARD3
RAF1
BNIP3
FAM126B
THEM6
PPP1R3F
C1orf51
STYXL1
GEMIN8
TRIL
MOSPD2
MCTP1
ZDHHC2
CAND1
MCUR1
SSPO
ZNF652
ZBTB38
MDH2
ZKSCAN1
PBDC1
NKX1-2
SLC25A1
RPRD2
KCNE1
GAS2L1
ARSG
SLC37A4
TRABD2B
AGK
APC
CCNB3
GRPR
CD79A
NDUFA7
PNP
FAM72A
TRA2B
C1orf186
MAGT1
KIAA1147
CCDC109B
HIRA
TAPBP
TMED8
VPS11
EIF2D
SLC13A2
POPDC3
WEE2
NEUROG3
PIGP
DYRK3
MAPKAPK2
C22orf39
OTOP3
MAP2K1
TMEM11
ZBTB22
PGK1
PCM1
TUSC2
MLLT3
URM1
MFSD9
THG1L
AQP6
TMEM107
SIK2
HOXD11
TMX4
HOXD10
AKAP5
MRPL45
HOXD9
RFXANK
KLHL9
PHF1
CASP8
ALG9
KCNJ12
TOMM6
SYT12
AP5Z1
UQCRQ
C11orf1
MYLIP
CKAP2L
AAK1
SAPCD1
SLC25A26
VWA7
DIXDC1
IL12B
ADRA1B
KIAA1024L
METAP1D
NCAPH
CDK5
CABP5
IL1A
LSAMP
RSPH9
C14orf169
KLHL24
AICDA
RRAS2
ZNF865
EHD3
CCDC106
SRD5A2
SLC12A6
KSR1
ABHD5
KITLG
RNLS
TSSK6
GRAP
ATP6AP1
CRYGS
IKZF3
EPHB6
LRRC8A
DNAJA1
RBMS2
KIAA0391
KCTD16
COA7
SNTB2
CDKL2
POLE4
LGALS9
COG8
HOXB1
CALCA
SKOR1
HSPA12A
HOXB3
ZNF511
SYF2
WNT3
TTC33
ANKRD1
HSPA1L
HIST1H2BC
TRPV6
HTR1B
FAM20C
C6orf48
EFR3B
GABPB2
GGNBP2
PTPRCAP
GUCA1B
C5orf30
TSC22D1
SNRNP27
SLC38A3
SH2D1A
SPATS2L
NTMT1
DNAJC10
CCBE1
TMEM39A
GTF2H2
DHRS11
FER
GPR107
IQSEC3
PDK1
YIPF4
NCS1
CD28
RHOQ
MYO10
DBP
TIMMDC1
ILK
ICOS
DEGS2
PTPN14
MAPK15
VIL1
LDLRAP1
YY1
CENPU
MAP3K14
ZDHHC3
BMP5
APOOL
MAN1C1
IQSEC2
BDP1
GPATCH2
NKX2-8
UBD
SPATA17
CXorf38
BCL7A
RPL7L1
SLC25A4
DUSP22
COX17
RQCD1
CLDN11
C8B
APOL6
CCL5
UFSP2
JAKMIP2
USP14
DCP1A
SLC7A14
TCF23
FOSL2
DKC1
RRP1
MAOA
FAM45A
MARC2
FIG4
PDLIM3
SF3B3
GTF3C4
TXN2
EPPK1
DSEL
SH3BGRL3
METTL6
ARL3
NCF4
MOG
AIM1L
RBM10
CHRND
CHST2
SURF6
AIRE
F8A1
HYPK
FRMD5
VTI1B
FSTL1
A1CF
SYT10
EMILIN2
BRCC3
LPIN2
MRPS23
VBP1
PAX5
CFP
SLC2A6
KCNS2
LRCH4
TAT
ZCCHC8
CSRP3
FADD
C22orf23
GRID2IP
EBP
TBC1D25
WIPF2
IAH1
MEFV
TMEM202
GATC
ARHGEF10
RARA
WDR13
MEGF6
GPATCH11
RTP3
TMEFF2
HNRNPD
GPSM1
GALR1
SATB1
HLA-A
FASTKD2
SLC6A5
SUV39H1
NAA38
TIMM8A
GLOD5
BTK
LDLR
CREB1
STK19
GALNT6
ADCK5
UBE4A
ZMYND11
HS6ST3
FGF10
SMARCE1
OBFC1
WISP3
HCN1
TTC36
PTAR1
TMEM25
APEX2
ITFG1
SLC39A4
PLEKHM3
LAMA4
GRAP2
HNRNPH2
ARMCX6
TBR1
ST6GALNAC3
ST6GALNAC5
GGACT
C2orf68
GMEB1
SFXN1
MYLK2
KRT12
SPIN4
DDX6
EIF3M
LONP2
DOCK5
CCDC84
DDX5
SNRPF
CHST6
MRPL30
HAX1
NF1
DUS1L
MRPL41
FAM26E
EFCAB11
C11orf91
ARL10
TTLL7
KRTAP17-1
KRT33B
FGF7P2
SRI
ELANE
PRR11
ISPD
PLEKHG5
C10orf107
TNXB
SCAMP2
CMC2
ECSCR
FIGN
MAP3K9
CXXC5
GAN
SEC22A
SNRNP35
SNTA1
MINA
TNFRSF9
FAM109B
CACNA1C
MLPH
CIITA
ZNF346
BRS3
PTPLB
FTO
PPT2
PDCL3
SLC2A5
PURA
GPX8
COMMD9
RPH3AL
SHC3
B3GAT2
CMC1
SNX33
HAP1
AKAP9
CD8A
GRIK4
C6orf136
PDZD11
SC5D
FAM101B
MCAT
OGFOD1
TLDC1
ANKDD1B
STT3B
FAM173B
PSTPIP1
USP46
NEU3
GPD1L
CSPG5
ZBTB8A
PBX2
ARRB1
RBBP4
ARHGAP29
C19orf53
ZNF169
APOPT1
ONECUT3
SLC25A16
FBXO31
VWC2L
ACSBG1
TMC6
CCR4
AK2
SAP30L
KLHL10
BTNL2
KLHL11
MB21D1
UVRAG
CRTAP
AP1S3
MID2
FBLN5
FAXC
HARBI1
NOSTRIN
DBT
IER3
RSPRY1
SMIM12
TMEM218
XPOT
CXorf40A
MRPL50
TMEM246
KIAA1211
BRCA1
WDR41
MFN2
PSMB9
ZNF287
MAMLD1
C12orf5
AGO1
DLGAP4
GNA11
NOA1
BRF2
KATNB1
CD99L2
STARD5
C1orf158
RAB30
KAT2A
TNFRSF13B
HMGB3
CYCS
CCDC90B
EIF4E
STAR
SAMHD1
OSCAR
TEPP
NDUFA3
TMEM65
CNOT3
IL2RA
KNOP1
CREBZF
LAMTOR2
TSEN34
FAM185A
HOMER1
ALX3
GNRHR
AGMAT
COL27A1
PIAS4
ENTPD5
CPA5
CEP97
TNFSF8
HTR2C
ANO4
MIOX
PON1
MYCBP
CEP41
HESX1
CDH8
PLS3
TTYH1
TMEM38A
SLC5A8
KIF2A
CTSC
ATP2B3
TCF19
TSGA13
LRG1
RTN4RL2
BMP8A
ISG20
PRKAR2A
MTA1
DUSP9
ACAD8
CRHR2
RBM18
SLC24A4
SHFM1
OSER1
CRIP2
IMPA1
TBC1D16
SREK1IP1
BCAP31
TAF1D
PLXNB3
NSUN5
DALRD3
FZD9
SRPK3
BAZ1B
TACR3
IDH3G
RBPJL
MRE11A
NDUFAF3
TBL2
ENDOD1
PDZD4
CASQ2
AKR7A2
VPS37D
WBSCR22
AVPR2
PLA2G2E
ARHGAP4
UBXN10
SSPN
MLLT1
ACER1
HMGCS2
CLDN3
ASPA
WBSCR28
TM7SF3
ARNTL2
ITGA10
C17orf105
ANKRD35
NUDT17
POLR3C
PDZK1
PTPRG
C17orf85
USP5
CHD1L
CLIP2
GJA8
GPR89B
ITGA8
FCGR3A
MGST3
UCK2
ILDR2
CD247
PCYT1A
F5
FASLG
ANKRD45
STAM
MRC1
PAPOLG
FAM187A
TRPV4
COMMD3
Vamp7
Rhox5
9330159N05Rik
Gm2617
Scgb2a2
Mia3
AF067063
Actg-ps1
Insr
C4bp
Adh7
Calb1
Car8
Chrm3
Bckdhb
Col1a1
Cr2
Crry-ps
Dcc
Defa2
Dlx1
Dlx4
Egr1
Eln
Emx1
En1
En2
Erbb3
Fabp3
Fabp2
Fgf3
Fh1
Flg
Ftl2
Gabrb1
Gabrb2
Galt
Gbx1
Gbx2
Ggct
Glra1
Glra3
Gna12
Gnat2
Gnaz
Gpi1
Grid1
Grid2
Grik1
H19
H2-Ea-ps
H2-Eb1
H2-Eb2
H2-K2
H2-M6-ps
H2-DMa
H2-DMb2
H2-Pb
H2-Q3
H28
Hal
Hba-a1
Hba-ps4
Hbb-b1
Hbb-bh0
Hbb-bh2
Hbb-bh3
Hhex
Hmgn1
Hoxa13
Hoxa2
Hoxa7
Hoxa9
Hoxb4
Hoxb5
Hoxc11
Hsp25-ps1
Hspa9-ps1
Ranbp1
Id3
Igf1r
Igfbp4
Igj
Igkc
Igkv15-103
Igkv13-84
Rbpsuh-ps1
Rbpsuh-rs3
Iglv1
Il3
Il5ra
Il9r
Ina
Cd47
Jup
Kcna2
Kcna5
Kcnb1
Kcnd1
Krt7
Ldha-ps
Ldha-ps2
Lef1
Lhb
M6pr-ps
Maf
Smcp
Rab8a
Msx2
Mtap4
Ncam1
Nek1
Neu1
Nfix
Nefl
Nkx2-4
Nme1
Ntrk3
Oat-rs1
Ocm
Pax7
Pcmt1
Pdyn
Pou1f1
Prkaca-ps1
Prkcb
Pnmt
Ppia
Prox1
Rap1a
Rad51
Snord14c
Rnu3a
Rnu3b1
Rnu3b2
Rnu3b3
Rnu3b4
Rpl12
Rpl18-ps1
Rpl32-ps
Rps6
Sfpi1
Shmt1
C4a
Sstr1
Snrpd2
Sox11
Sox4
Mucl1
Svs4
Tap2
Tcp1-ps1
Trbv5
Trbv4
Trbv16
Trbv15
Trbv14
Trbv31
Trbv20
Trbv3
Trbv30
Trbv21
Trbv1
Trbv23
Trbv26
Trbv2
Trbv12-2
Trbv12-1
Trbv19
Trbv29
Trbv13-3
Trbv13-2
Trbv13-1
Trbv17
Tcrg-C1
Trgc2
Tcrg-C3
Tcrg-C4
Tcrg-V1
Trgv2
Tcrg-V3
Tcrg-V4
Tcrg-V5
Tcrg-V6
Tcrg-V7
Tpi-rs8
Tpmt
Trp53-ps
Ubb
Ugt1a1
Uox
Vav1
Ybx1
Zfp14
Zfp26
Zfp30
Zfp52
Zfp53
Zfp59
Zfp60
Zfy1
Atp7a
Itpr2
Arl1
Clcn5
Prdx1
Mef2d
Tal2
Iglc2
Iglv2
Aldh2
Kcnb2
Epha5
Syt2
Adcy5
Ptk6
Rpl29-ps1
Tpm3-rs7
Tpm3-rs2
Lhx1
Gdi2
Hnrnpk
Tnfrsf8
mt-Atp8
mt-Atp6
Ighmbp2
Usf2
Cfl1
Lhx4
mt-Nd1
Thpo
Pou2f2
Klra4
Gpr3
Chml
Ap1g1
Krt13
Fabp3-ps1
Wnt11
mt-Nd5
mt-Nd4l
mt-Nd4
mt-Nd2
mt-Cytb
mt-Co3
mt-Co2
mt-Co1
Nmt1
Vav2
Six1
Rab20
Serpina3c
Snord21
Foxn1
Fau-ps2
Mdk-ps1
Fau-ps1
Wee1
Pou2f3-rs1
Cish
Adsl
Eif3s6-ps1
Eif3s6-ps2
Hoxb3os
Meox2
Cox7c
Plk-ps1
Bmp7
Cebpd
Pms2
Phxr4
Phxr2
Rps6ka3
Gnb4
Fth-ps2
T2
Rora
Man1a
Col4a4
Lim2
Fgf9
Ppara
Peg3
Hmgb1-rs18
Snrpb2
Ptcra
Lbx1
Ppp1cb
Psmb6
Psma3
Tpt1
Rest
Bc1
Pon2
Sf3a2
Ang-ps2
Gclm
Serpina3g
Rab10
Rab7
Rab22a
Cnn2
Rprl3
Rprl2
Rprl1
Mageb3
Stt3a
Ppyr1
Cd63-ps
Six4
Hells
Capza2
Ermp1
Sco1
D4Bwg0951e
Msx3
Hivep3
Gpld1
Phox2a
Atp5k
Efna3
Adra1d
D11Bhm181e
Srpk1
Zic4
Lsg1
Gfm1
Ube2i
Tdgf1-ps2
Pctp
Zbtb17
Ube2e3
Hspa4l
Efna5
Dbx2
Myl12b
Kcnj11
Hist1h1d
Zfp93
Il11
Igkv19-93
Atp5g1
Ifnar1
Ifna6
Ifna2
Ifna-ps1
Scp2-ps2
Abcg1
Dnahc12
Hoxb13
Tpd52-ps
Zfp317
Zfp84
Zfp78
Mlana
Cct6a
Slc8a1
Kif3c
Ptprv
Glrp1
Smad2
Rit1
Wnt10a
Sptlc2
Erh
Prkg1
Aldh7a1
Sephs2
Fzd3
Akt2-ps
Meis2
Rasgrf2
Mnx1
Fgf11
Dab2
Olfr22-ps1
Ly6g
Frat1
Commd1
Prdx2
Snrp1c-ps2
Sftpb
Cort
Gpr182
Sp100
Taf1a
Clns1a
Ostf1
Sorbs1
H2-Bl
Gsc2
Slc26a2
Vcp-rs
Lilrb3
Ext1
Serpinb9d
Serpinb9b
Npm3-ps1
Col19a1
Exoc4
Tex261
P2rx3
Ogdh
Rgs5
Wasf2
Sepsecs
Commd2
Zscan12
Golgb1
Ccl25
Vps4b
Bub1
Kpna4
H3f3a-ps2
Bicd1
H3f3a-ps1
Serpini1
Eif4a-ps4
Dlx1as
Trav5-4
Trmt10c
Tubgcp4
D6Ertd474e
Agpat5
D16Ertd472e
Onecut1
Pde7a
Traf4
Angpt2
Prdx6-ps2
Muc3
Pik3c2g
Nkx6-1
Prl7a2
Etohi1
Rad51l3
Wwc2
D6Ertd527e
Dnaja1-ps
Cyp2j5
Trdmt1
Ucn
Pde8a
Cdk6
Vax1
Obp1b
Zfand5
Mettl2
Txndc17
Ccdc59
Mrpl48
Naip3
Gzmk
Plp2
Drr1
Matr3-ps2
Prkx
Gpr37
Sh3d2c-ps1
Ssty1
Cdca3
Grcc10
Cacng2
Vmn2r122
Ifrd1
Gspt1
Stc2
Igkj5
Lgals7
Klra14
Klra11
Ppp2ca
Rnu73b
Snord73a
Rpl30-ps1
Rpl30-ps2
Rpl30-ps3
Cdk9
Slfn5
Gabre
Krtap6-3
Krtap6-2
Sprr2g
Igkv3-12
Igkv8-21
Igkv3-3
Igkv3-2
Igkv3-1
Igkv3-7
Igkv3-5
Igkv3-4
Igkv3-9
Strn
Cbfa2t2-ps1
Olfr46
Magea7-ps
Pde3b
Gpr50
Ppp2r3d
Lss
Gng2-ps1
Tbl1x
Zfp125
Angpt4
Mocs2
Cbfa2t3
Gdf11
Itgb8
Rnd2
Cyfip1
Pak2
Mettl1
Lrp8
Alyref
Psme2b-ps
Six6
Hhip
Stk11
St6galnac4
Ccr9
Uhmk1
B4galnt2
Slc35b1
Ikzf4
Timm17b
Calcoco2
Samd9l
Drg1
Grem1
Synj2bp
Tnfsf13b
Sra1
Zfp68
Spr-ps1
Spry3
Zfp119a
Psmd13
Sufu
Gdf15
Krtap14
Rpp40
Rgs7
Whsc2
Taf10
Psmb8
Cetn1
Slc27a2
Krtap15
Adamts2
Foxl1
Ror1
Pla2g10
Ccl21b
Eif2s3y
Brd7
Magea9-ps
Snord35a
Snord35b
Snord33
Snord32a
Snord34
Tcl1b3
Mkln1
Fam50b
Ptdss2
Nr2f1
Eif2ak1
Slc25a10
Foxe1
Cbx8
Hnf4g
Slc46a2
Abt1
Rps12-ps1
Ercc4
Hspa14
Fbxl17
Rgs6
Krtap5-1
Park2
Nckap1
Cdc34-ps
Copg2
Akap7
Pabpn1
Cacng3
Cacng4
Cacng6
Smarcal1
Psmb6-ps
Smt3h2-ps
Psmb7-ps2
Magix
Mtx2
Prdx2-rs3
Prdx5
Panx1
Ammecr1
Tcea1-ps1
Nom1
Rps27
St3gal6
Bhmt-ps1
Ntn4
Usp29
Angptl4
Fxyd4
Gipc2
Ear-ps2
Slc5a4b
Mcoln3
Gabarapl2
Zfp81
Zfp82
Zfp108
Snurf
Psg20
Ccl21c
Ccl19-ps1
Ccl19-ps3
Csprs
Ripk2
Hnrnpr
Mtmr7
Stk25
Pxmp4
Cope
Pigb
Becn1
Nupr1
Crbn
Acn9
0610012G03Rik
Sdhc
0610010O12Rik
Tmem167
Eif3f
Ska2
Bola2
Ccdc107
Vta1
Trappc2
Osgep
Taf13
Aig1
1810012P15Rik
1810013D10Rik
Tpd52l2
Galntl6
1700018B24Rik
Akirin1
Ndufc1
Rnf113a2
Ccdc82
2410004B18Rik
1810043H04Rik
2010003O02Rik
Nmnat1
2810002D19Rik
Pigy
Ptpmt1
Taf12
Rps23
Rpl35
Mrpl51
Ndufb3
Asrgl1
2610001J05Rik
Timm50
2210020M01Rik
2310042E22Rik
Cmpk1
Sip1
5730446D14Rik
Ndnl2
Tmed7
Trappc5
4921534H16Rik
Asb17
Speer4c
Efcab1
Prkrip1
9030624G23Rik
Hint3
Fuca2
Zfp869
Appbp2
Fip1l1
Tmem206
Neat1
Ssbp2
Rnf187
Tmem134
Rrp8
Acad9
Rpl11
Oxct1
Yaf2
1700019D03Rik
Zbtb8os
Ccdc47
Lipt2
Glod4
Med29
Tbc1d20
2810453I06Rik
Rpl39
Ndufa10
2900092E17Rik
3110039M20Rik
Socs4
Cstf1
Larp1b
Qprt
Fundc2
Erp29
Rps20
Ccdc127
Map1lc3b
Plxdc2
Frmd8
Entpd4
Mettl16
Agpat2
Loxl4
4930520K10Rik
4930453N24Rik
Olfml3
Anp32b
4930523C07Rik
4930542C12Rik
Rpp21
Mrpl18
1700011J10Rik
1700009J07Rik
1700020N01Rik
Kirrel3
Zfp639
1110002E22Rik
Nmral1
Slco6b1
Ppp6c
Mri1
Uxs1
Ufm1
Ppm1m
Hcfc2
Atp5g2
Ooep
Nudt12
Rpl22l1
Cox19
Fam122a
Ubxn2b
1520402A15Rik
9430008C03Rik
Mum1
B230217C12Rik
Wls
Stx19
A930005H10Rik
A930003A15Rik
4930591A17Rik
Chchd8
5330426P16Rik
5330430P22Rik
Rnaset2a
2900060B14Rik
Wdr86
Nudt21
Fcor
Gtsf1l
2410080I02Rik
4930441O14Rik
0610009B14Rik
0610038P03Rik
1110006G14Rik
Impad1
Tmem126b
1110018N20Rik
Dcdc2c
1110003E01Rik
1110025L11Rik
1110035H17Rik
1110028F11Rik
Mrps18c
1110057P08Rik
1190003J15Rik
1500002C15Rik
1500011H22Rik
Fam100a
1810009N23Rik
1810013D15Rik
Oscp1
1810008B01Rik
1810010H24Rik
Sult1c2
1810022K09Rik
2200002J24Rik
2010016I18Rik
Pxt1
1700007P06Rik
1700007K09Rik
1700010L04Rik
1700012C14Rik
Fam110b
1700019G06Rik
1700016G14Rik
1700023H06Rik
Actl9
Nup35
Ndufaf5
1700030C10Rik
Hemk1
Pcgf3
2310026L22Rik
Il1f8
2310050B05Rik
Col22a1
Smyd3
2410018L13Rik
1810019D21Rik
1600010F14Rik
Cox11
1810058N05Rik
2010001K21Rik
2010007H06Rik
1810063I02Rik
1810064F22Rik
2010320O07Rik
2610027K06Rik
2810021J22Rik
2810404F17Rik
1700025O08Rik
Ddi2
1700027A07Rik
2410024N13Rik
Znf41-ps
Ssty2
2210404O09Rik
Dnmbp
2210011C24Rik
Vps36
2210417K05Rik
2310044K18Rik
2310075C17Rik
3100002H09Rik
2510049J12Rik
Arl16
Iyd
St13
Speer5-ps1
Tmem185b
Slc35a3
2610024D14Rik
2610018G03Rik
Mier2
Rufy2
Dnajb14
Ube2v2
5730522E02Rik
5730507C01Rik
Vcpip1
3830408C21Rik
Hrct1
6330403K07Rik
Gpr173
Cwf19l2
Rpusd2
4921508M14Rik
Vwa3b
Akr1cl
Lnp
Ints10
4921518J05Rik
4921523L03Rik
4921513D11Rik
4922502B01Rik
4931415C17Rik
4931408A02Rik
Pgm2l1
4931413K12Rik
4933415D12Rik
Sntg1
4933421A08Rik
Mterfd2
4933408N05Rik
Zfp689
4933411O13Rik
Eri2
4933423P22Rik
4933416I08Rik
Zfp626
4933438A12Rik
Naif1
4933437F05Rik
Rassf8
5430427M07Rik
5530401N12Rik
5430425J12Rik
Fam83c
Flrt3
Mettl13
Zfp935
9030418K01Rik
Clmp
9130410C08Rik
Arl14
Krtap5-2
4930430E12Rik
4930447M23Rik
4930521C21Rik
0610012D04Rik
Smug1
Slc16a14
Cpa4
1700001J04Rik
Lancl2
1700024J04Rik
2310028H24Rik
Antxr2
2310043D23Rik
Lass5
Nanog
C1qtnf1
1810055G02Rik
2010315B03Rik
2010013B24Rik
Rfc5
Dhx36
Nsun4
Mms19
2610507I01Rik
1700010K10Rik
1700003M07Rik
1700021J08Rik
1600014C10Rik
1700018M17Rik
1700030C12Rik
2210404O07Rik
2200002D01Rik
Fryl
Asb6
Iars2
2010012P19Rik
Lsm12
2310081O03Rik
Dnajc25
2610206C17Rik
2700068H02Rik
Lypd1
Auts2
Usp13
2700069I18Rik
2700073G19Rik
Lins
Adipor1
Fance
2810455O05Rik
Ubash3b
Kctd17
2900053O20Rik
Fbxo47
Tmem138
Emc7
2900072N19Rik
3110007F17Rik
3110053B16Rik
3110052M02Rik
1700041M05Rik
1700037C18Rik
1700036O09Rik
Speer6-ps1
1700031F10Rik
Ube2d2b
1700047F07Rik
1700040F15Rik
Slc25a31
1700047K16Rik
Itpripl1
1700042B14Rik
1700042G15Rik
1700057H21Rik
1700058P15Rik
1700060J05Rik
1700056N10Rik
1700067G03Rik
1700064H15Rik
Pom121l12
1700061H18Rik
1700073E17Rik
1700071G01Rik
1700084J12Rik
1700080G11Rik
1700082M22Rik
1700091H14Rik
1700110K17Rik
1700095J12Rik
1700106N22Rik
1700091E21Rik
1700101I19Rik
1700112K13Rik
1700120G11Rik
1700120E14Rik
Zfp433
1700112D23Rik
Rhox13
1700128E19Rik
Pex11c
Acer2
Muc16
Ubac1
Gins2
4930421P07Rik
4930401G09Rik
4930415H17Rik
4930428N03Rik
4833418N17Rik
4930412F09Rik
4930408O17Rik
4930412O13Rik
4930412L05Rik
4930435H24Rik
4930438A08Rik
Jakmip3
4632404H12Rik
Serpina3a
Nebl
Rbm19
1200007C13Rik
1700014D04Rik
1700022K14Rik
Iqce
2310003L06Rik
Gpn1
1700037C06Rik
Aven
Chic2
1700086D15Rik
1700086L19Rik
1700092C17Rik
1700094C10Rik
1700108N11Rik
1700121F15Rik
Slc6a19
Lonrf3
Gle1
4933406P04Rik
4932702P03Rik
Zfp558
4932442L08Rik
Zxda
4933412A08Rik
4933413C19Rik
Exoc3l2
4933440N22Rik
4933431K23Rik
Ifitm7
Zfp871
Mrpl47
Ocstamp
4930432L08Rik
Zcwpw2
4930426D05Rik
Fam46c
S100pbp
4930448D08Rik
4930449A18Rik
4930505O20Rik
4930519P11Rik
4930512B01Rik
Rrp7a
4930418C01Rik
4930470G03Rik
4930469G21Rik
4930483C13Rik
4930480G23Rik
4930465A12Rik
4930503B20Rik
4930486I03Rik
4930505H01Rik
4930511F01Rik
4930517O19Rik
Usp50
4930515G13Rik
Mmd2
4930519F16Rik
4930512M02Rik
4930524J08Rik
4930535C22Rik
4930527J03Rik
4930533K18Rik
Hist3h2bb-ps
4930526F13Rik
4930527A07Rik
Rnf121
4930535I16Rik
4930529I22Rik
4930546G22Rik
4930553M12Rik
4930551L18Rik
4930551O13Rik
4930556I23Rik
4930554G24Rik
4930548G14Rik
4930556L07Rik
4930556N13Rik
Slc35f4
4930563E22Rik
4930555O08Rik
4930557F10Rik
4930562D21Rik
4930556G01Rik
Slamf7
4930555K19Rik
4930552N02Rik
4930597O21Rik
2610021A01Rik
1700006D18Rik
Prps1l1
1700010H22Rik
Pou5f2
Lyrm7
1700021O21Rik
1700016P03Rik
Nhej1
Acyp2
2010204K13Rik
1700013N06Rik
Speer4a
Wdr54
1700030C14Rik
Tmem238
Ces1h
Rbm12
Rian
4930431F12Rik
4930444P10Rik
4930458D05Rik
4930463O16Rik
4930467E23Rik
4930528G23Rik
4930556N08Rik
4930566F21Rik
4930579G22Rik
Arl5b
4930579O11Rik
4930579K19Rik
4930586N03Rik
4930587A21Rik
4930579G18Rik
4930580A09Rik
4930566N20Rik
4930584F24Rik
4930594O21Rik
4930578G10Rik
Mir17hg
5033423K11Rik
Gm11346
5830454E08Rik
5830472F04Rik
Haus6
6530402F18Rik
6530403G13Rik
6530401F13Rik
1110034A24Rik
Rbm15b
2810410L24Rik
1700012C08Rik
Pbp2
1700021L23Rik
Rftn1
2310016D23Rik
Tmem182
Pcolce2
Wipi2
1700047A11Rik
1700069B07Rik
1700084C06Rik
1700109F18Rik
Wfdc3
Cby3
1700120O09Rik
1700123M08Rik
1810007I06Rik
Cpb1
Ppp1r2-ps7
2010005H15Rik
2410131K14Rik
2410152P15Rik
2600006L11Rik
Nubpl
2900052L18Rik
Spopl
Ralyl
1700021A07Rik
Rdh10
1700061E18Rik
1700061J23Rik
Hyal4
4632433K11Rik
Zfp934
9130221H12Rik
Trip11
4930407G08Rik
Tmem44
9430024E24Rik
9430021M05Rik
Raph1
B230206L02Rik
9430069I07Rik
9430093N23Rik
9430091E24Rik
C030013D06Rik
C030014I23Rik
C030017D09Rik
Rab35
Esrp2
Heg1
3010003L10Rik
C030048H21Rik
C030034I22Rik
Shisa4
Tram2
C030037D09Rik
C330006D17Rik
C030047K22Rik
Sphkap
4930594C11Rik
C430049B03Rik
9130230N09Rik
C330006A16Rik
Mrps5
6030455H03Rik
A930015D03Rik
A930031H19Rik
B230104C08Rik
B230112J18Rik
B430319H21Rik
D730045B01Rik
Six3os1
E130116L18Rik
9230113P08Rik
Cyp20a1
Scaf8
Hook1
4930473D10Rik
4930505K14Rik
4930522L14Rik
4930535L15Rik
4930555M17Rik
4930557C09Rik
4930570N18Rik
4930595D18Rik
6430503K07Rik
5330429C05Rik
4922501C03Rik
4833413E03Rik
4930425F17Rik
4930451E10Rik
4930439A04Rik
7330404K18Rik
4930404H24Rik
4930440I19Rik
Gsdmcl2
4930486F22Rik
4930527E20Rik
4930538E20Rik
4930577H14Rik
4930571N24Rik
4930570D08Rik
4930596I21Rik
6030471H07Rik
Lsmd1
Tsga10ip
3110004A20Rik
Gng13
2900041M22Rik
Pgm5
9530046B11Rik
1700087M22Rik
Skap1
1700119I11Rik
Efha2
E130304I02Rik
E130120K24Rik
Pde6h
1700116B05Rik
1700121C08Rik
2410075B13Rik
Eif3j
C030005K06Rik
D730003I15Rik
D530049N12Rik
Rassf10
4921518K17Rik
4933424L21Rik
9130017K11Rik
Slc25a12
9530072K05Rik
9630013K17Rik
2310079F23Rik
Chsy3
Cysltr1
Mrpl12
Smt3h1-ps
Smt3h2-ps2
Npvf
Fzr1
Kcnq4
Cyb5
Gmfg
Mrps14
Arl2
Baalc
Dnajb2
Sec1
Chst12
Zfp109
Zfp235
Rpl30-ps5
Cldn18
Ap3m1
Zbtb20
Ap3s1-ps1
Ivd
Cib2
Lrp10
Slc22a21
Zic5
Fam48a
Mllt11
Zfp191
Tssk3
Clcf1
Apom
Ern1
Apc-ps1
Tnfrsf23
Tnfrsf22
Lamr1-ps1
Bhlhe41
Stx1b
Fam181b
AB041806
Stx12
Snord82
Hist1h1e
Fgf16
Dnajb12
Btnl6
Papolb
Prrt1
Cacng7
Cyp4a28-ps
Letm1
Gimap3
Pgam1-ps1
Ctps2
Pole3
Gatsl2
Tcstv1
Mmp1b
Ntng1
Sval2
Palm2
Lias
Kars-ps1
Smarca5
Hspe1-ps2
Hspe1-ps3
Hspe1-ps4
Hspe1-ps5
Hes7
Pcdhb19
Pcdhb21
Lrfn1
Mdm4-ps
Mrpl13
Kifc5c-ps
Wbscr17
Sfxn4
Sh3bp4
Susd4
Mbd5
AI646519
AU015228
AV099323
Zscan29
BB218582
Rabepk
Ppm1l
Hist2h4
AI427809
Slc35d1
N28178
AA792892
Lrrc8c
AI480526
C230066G23Rik
Jazf1
Eogt
E330021D16Rik
Ino80e
E430018J23Rik
AI987944
AU018091
Slc35e1
AA672651
Tmem189
Cyp4v3
Edc3
AV064505
Plscr4
Zfp445
Zc3h10
AU041133
BB019430
Stradb
Wdr92
A530017D24Rik
Gm11545
Ighg3
Ahnak2
Slc25a48
C78339
Cphx
Kctd12
Fbxo4
Nol12
Nsun3
Leprel1
Tnfaip8
Glyat
AI606181
Ccdc85b
Lrch2
AU015836
Mageb6-ps
Mageb7-ps
Mageb8-ps
Mageb10-ps
Snora64
Snora65
Snora70
Snora62
Snora69
Snora68
Skiv2l-ps1
Stk19-ps1
4931413I07Rik
Vmn1r239-ps
Vmn1r-ps8
Vmn1r14
Vmn1r-ps25
Vmn1r-ps26
Vmn1r-ps27
Vmn1r-ps28
Vmn1r-ps34
Vmn1r-ps10
Aipl1
Rnu11
Snord61
Clic1
Ly6g6d
Obox5
Ncr3-ps
4930433N12Rik
4932431P20Rik
4930519F09Rik
Spred1
Rad51c
Ophn1
Fam57a
1110038F14Rik
Rims1
Rims2
Elmo1
Kcnn3
Olfr75-ps1
Rxfp2
AA543401
Stard4
Dppa1
Tmem37
Rln3
AY036118
Vmn1r7
Kcnh7
Vmn1r227
Vmn1r-ps103
Slc26a6
Olfr104-ps
Olfr105-ps
Olfr106-ps
Olfr112
Olfr113
Olfr115
Olfr129
Olfr141
Arhgdia
Defb13
Tnfsf15
Tmlhe
Klf17
Trpv3
Ccrl1
Nlk-ps1
Adam34
Usp7
Vmn1r190-ps
Myst2
Serpina3d-ps
Serpina3e-ps
Serpina3h
Serpina3l-ps
Med9
Cabp7
Zfp709
Mettl22
Il27
BC018242
BC023105
Metrnl
Lpcat1
Pqlc2
Tbl3
BC002059
Cdk5rap2
Cdc73
Tmem5
B4galt7
Paip1
Zfp959
Efcab7
Tmprss11d
Zfp958
Zfp825
Zfp119b
Gabbr2
St8sia6
C1ql3
Zfp353
Nags
Katnal1
Fam120c
Btnl7
Zfp334
Zfp931
4930403D09Rik
Vmn2r-ps11
BC005537
9130204K15Rik
A330044P14Rik
A730081D07Rik
A830012C17Rik
Serinc4
B430119L08Rik
Zfp951
D230002A01Rik
D430001F17Rik
D930020B18Rik
E030024N20Rik
Cdcp1
Nipa1
4732447D17Rik
C530025M09Rik
Muc15
Dnajc16
B230208B08Rik
Zfp446
Zfp182
5430407P10Rik
C230012O17Rik
Lingo2
Zbtb1
9330132A10Rik
C230062I16Rik
Abhd10
Tmem241
Btnl9
Pigv
Slitrk4
D430040D24Rik
Vash1
Lactb2
Naa25
Lass6
A830011K09Rik
Adamts18
A330035P11Rik
Mob1a
C130050O18Rik
6430704M03Rik
Mical3
A730090N16Rik
Glt1d1
Dhrs9
C920025E04Rik
9330154K18Rik
5031434C07Rik
Ddx58
Tmprss11bnl
Fam171a1
Rab11fip4
Amn1
Fam116a
Slc17a2
Bend7
A630001G21Rik
A930002H24Rik
Fstl4
9930038K12Rik
Dlx6as1
Pde12
Rnf222
Exph5
F830001A07Rik
Uap1l1
Gk5
A530053G22Rik
Parm1
B230369F24Rik
Itgbl1
A130050O07Rik
4930412C18Rik
Slc16a5
Senp5
Gpr149
Pirt
Ncrna00086
A230059L01Rik
A830073O21Rik
Spef2
E030013I19Rik
A330021E22Rik
1520401A03Rik
Bnc2
Stxbp5l
D830030K20Rik
Sdk2
Pcif1
D230037D09Rik
E130003G02Rik
Lipi
D630028G08Rik
Zfp799
B130011K05Rik
Nlrc3
Nron
B230312C02Rik
A430078I02Rik
A830018L16Rik
5930403N24Rik
Lmbrd2
D830050J10Rik
Glis3
D130040H23Rik
9330101J02Rik
Ptchd2
A630031M04Rik
Fitm2
A930033H14Rik
9830001H06Rik
Fam171b
Slc26a9
Nlgn3
D130058E05Rik
A230072C01Rik
Ranbp3l
A630052C17Rik
Lmln
Olfml2a
Zfp780b
9230112E08Rik
Ankrd16
Atad2b
L3mbtl4
Mbnl3
A230071N21Rik
A230004M16Rik
A730061H03Rik
Tmem245
B530045E10Rik
D330023K18Rik
A830039N20Rik
Cyp4f39
Serpinb1c
Serpinb1-ps1
March9
Ntm
Eif2c3
Ssxa1
Fam83a
Serac1
Hist1h2ad
Hist1h2ah
Hist1h2ak
Hist1h2ao
Hist2h2ac
Hist1h3b
Hist1h3c
Hist1h3d
Hist1h3e
Serpina4-ps1
Hist1h2bk
Hist2h2bb
Hist1h4a
Hist1h4b
Hist1h4c
Hist1h4d
Hist1h4f
Hist1h4j
Hist1h2ai
BC016548
Mmgt2
Gmps
Vps13d
Ces2b
Nyx
Nme7
Crygn
Sesn2
BC042782
BC030499
Slc45a1
Ercc6l
Asb16
Scgb2b23-ps
Rtl1
Wasf3
Mrpl21
Gmppb
Klre1
Il22ra1
Hcfc1r1
Plac9
Cngb1
Tpt1-ps2
Tpt1-ps3
Tpt1-ps5
Tpt1-ps6
Speer4e
Wfikkn1
BC051076
BC027582
Tspear
Klhdc1
BC034090
Defb38
Defb40
AB041803
Tmem60
Vaultrc5
Rims4
Zfp930
Defb14
Tcstv3
Muc19
Pyroxd1
Zfp563
Zfp640
Fn3krp
Pigl
BC060267
Rxfp1
Zfp811
BC046401
Ctf2
Gm12
Slfn14-ps
Gm22
Trav4d-4
Gm40
Gm41
Scml1
Gm53
Trav3-4
Gm128
Asap3
Tmf1
Mettl11b
Gpr161
Lrrc37a
Sycp2l
Gm318
Dusp5
Gm340
Spnb5
Gm355
Gm362
Gm378
Gm379
Itih5l-ps
Ptchd1
Gm410
Sdr16c6
Pm20d2
Trim56
Igkv4-86
Igkv4-81
A630050E04Rik
A130030D18Rik
A530010F05Rik
7530422B04Rik
Gm568
Gm650
Vmn1r-ps79
Mrgprx3-ps
Trav6d-4
Gm715
Nup62cl
Zscan30
Gm766
Zfp853
Clec3a
A330043C09Rik
Gm826
Gm829
Gm830
Gm831
Gm833
Gm839
Serpina11
Ighe
Gm933
Hjurp
5330438I03Rik
Gpr144
Dpy19l4
Gm1043
Igkv16-104
Igkv4-50
Igkv4-58
Slc6a16
Irgc1
A930018M24Rik
Gm1305
Gm1322
Gm1330
Gm1335
Trav6d-7
Igkv4-72
Igkv4-70
Igkv4-55
Frmd7
Gm1568
Gm1604b
Gm1614
A430048G15Rik
Samd13
Gm1667
Gm1698
Gm1758
Cybasc3
Ighg2c
4833423E24Rik
BC046331
Pld6
Il1rapl1
5330438D12Rik
C130046K22Rik
B230359F08Rik
A430060F13Rik
4732418A04Rik
Zfp422-rs1
Brwd3
Olfr192
Olfr197
Olfr260-ps1
Olfr268-ps1
Olfr269-ps1
Olfr271-ps1
Olfr286
Olfr296-ps1
Olfr300-ps1
Olfr306-ps1
Olfr329-ps
Olfr333-ps1
Olfr334-ps1
Olfr335-ps
Olfr336-ps1
Olfr337-ps1
Olfr343-ps1
Olfr349-ps1
Olfr359-ps1
Olfr363-ps
Olfr364-ps1
Olfr367-ps
Olfr377-ps1
Olfr379-ps1
Olfr383-ps1
Olfr387-ps1
Olfr388-ps1
Olfr391-ps
Olfr396-ps1
Olfr400-ps1
Olfr404-ps1
Olfr405-ps1
Olfr407-ps1
Olfr408-ps1
Olfr409-ps1
Olfr443-ps1
Olfr475-ps1
Olfr485
Olfr492
Olfr548-ps1
Olfr573-ps1
Olfr576
Olfr587-ps1
Olfr588-ps1
Olfr590-ps1
Olfr602-ps1
Olfr607
Olfr621-ps1
Olfr625-ps1
Olfr626-ps1
Olfr634-ps1
Olfr647-ps1
Olfr650-ps1
Olfr660-ps1
Olfr663
Olfr664
Olfr680-ps1
Olfr682-ps1
Olfr687
Olfr718-ps1
Olfr719-ps
Olfr721-ps1
Olfr741
Olfr753-ps1
Olfr754-ps1
Olfr755-ps1
Olfr756-ps1
Olfr757-ps1
Olfr758-ps1
Olfr759-ps1
Olfr760-ps1
Olfr762-ps1
Olfr831-ps1
Olfr833-ps1
Olfr837
Olfr844
Olfr889
Olfr892-ps1
Olfr908
Olfr990-ps1
Olfr997-ps1
Olfr999-ps1
Olfr1001-ps1
Olfr1003-ps1
Olfr1004-ps1
Olfr1010
Olfr1017-ps1
Olfr1021-ps1
Olfr1025-ps1
Olfr1027-ps1
Olfr1033
Olfr1035-ps1
Olfr1038-ps
Olfr1050-ps1
Olfr1063-ps1
Olfr1069-ps1
Olfr1073-ps1
Olfr1077-ps1
Olfr1078-ps1
Olfr1081-ps1
Olfr1083-ps
Olfr1096-ps1
Olfr1103-ps1
Olfr1116-ps
Olfr1117-ps1
Olfr1127-ps1
Olfr1144-ps1
Olfr1146-ps1
Olfr1147-ps1
Olfr1149-ps1
Olfr1150-ps1
Olfr1159-ps1
Olfr1165-ps
Olfr1169-ps1
Olfr1171-ps1
Olfr1172-ps1
Olfr1174-ps
Olfr1175-ps
Olfr1177-ps
Olfr1187-ps1
Olfr1191-ps1
Olfr1192-ps1
Olfr1224-ps1
Olfr1235-ps1
Olfr1267-ps1
Olfr1268-ps1
Olfr1273-ps
Olfr1274-ps
Olfr1291-ps1
Olfr1292-ps1
Olfr1293-ps
Olfr1296-ps1
Olfr1300-ps1
Olfr1315-ps1
Olfr1326-ps1
Olfr1327-ps1
Olfr1332-ps1
Olfr1343-ps1
Olfr1348
Olfr1372-ps1
Olfr1374-ps1
Olfr1375-ps1
Olfr1376-ps1
Olfr1379-ps1
Olfr1407-ps1
Olfr1410
Olfr1432
Olfr1452-ps1
Olfr1458
Olfr1503-ps1
Olfr161
Cd300c
Ugt1a5
Card6
Mrgpra6
Vmn1r62
Vmn1r55
Vmn1r59
V1rd19
AA387200
AA386476
AA474331
AA623943
AA645442
AA414768
AA413626
3000002C10Rik
Pde11a
Htra4
Spata5l1
Plcl1
9830147E19Rik
Duox2
Zfp850
Gm1815
Gm1818
Gm1821
Gm1826
Gm1840
Gm1848
Gm1947
Zfp114
BC048644
BC052486
Fads6
BC050972
BC046251
BC018473
Ticam2
Zfp873
BC064078
BC067074
BC037032
Tmem61
9830144P21Rik
9930104L06Rik
A930013B10Rik
C130026L21Rik
D930049A15Rik
E330010L02Rik
E530001K10Rik
BC028471
BC056474
9430029A11Rik
6330444E15Rik
9330154J02Rik
D130007C19Rik
Stard9
4930432E11Rik
4932416K20Rik
9430025C20Rik
Exd1
Synb
6030452D12Rik
Tmem69
E330017A01Rik
Dcdc5
9230106D20Rik
C230014O12Rik
9330182O14Rik
4732414G09Rik
A830035A12Rik
C330019F10Rik
Sned1
E030010N08Rik
Mrpl48-ps
Fbxl7
AF357428
Fcrl5
Hmgb1l
Nlrp4d
AF357341
Slfn10-ps
Clec2f-ps
AY702102
Anp32-ps
Zdhhc18
AK157302
Xlr4d-ps
Xlr3d-ps
Xlr5b
Xlr5d-ps
Xlr5e-ps
Xlr4e-ps
Xlr3e-ps
Ak3l2-ps
Ugt1a2
Ugt1a8
Ugt1a9
Ugt2b35
Ighv1-53
Igkv7-33
Ugt1a10
Tes3-ps
Khdc1c
Gm1966
Zfp866
A730017L22Rik
Fdxacb1
BC065397
BC094916
Gm1968
Zfp607
Stxbp3b
F830104G03Rik
4930432M17Rik
9930005F22Rik
Krt77
Ldlrad2
6030469F06Rik
G930045G22Rik
9230019H11Rik
C130040N14Rik
B430319F04Rik
4930525M21Rik
A630081J09Rik
1700071K01Rik
4930527B05Rik
2810430I11Rik
4930558J22Rik
B130055M24Rik
G630016G05Rik
A230005M16Rik
9930004E17Rik
4732471J01Rik
D630032N06Rik
4732440D04Rik
1700120B22Rik
B130024G19Rik
Mfsd12
D030055H07Rik
Ypel4
A930016O22Rik
Sowahc
F930015N05Rik
Btn2a2
4933402J07Rik
Zfp385c
Ksr2
B020018G12Rik
4930526A20Rik
Pisd-ps2
4930533I22Rik
Hbq1b
Ano3
4933427I04Rik
Dear1
Slc39a1-ps
BC021767
Atg4a-ps
Fer1l5
Kis2
Sec14l3
Mir16-2
Mir101b
Mir124a-3
Mir128-2
Mir148b
Mir196a-2
Mir218-1
Mir218-2
Mir219-1
Mir26a-2
Mir103-1
Mir103-2
Mir106b
Mir107
Mir224
Mir25
Mir28
Mir301
Mir30e
Mir32
Mir326
Mir33
Mir330
Mir335
Mir338
Mir339
Mir340
Mir342
Mir346
Mir350
Mir361
Mir362
Mir379
Mir383
Mir448
Mir449a
Mir483
Mir489
Mir540
Mir7-1
Mir93
Mir98
Mir452
Mir466
Sh2d1b2
Clec4a4
Mir500
Mir652
Klrb1-ps1
Mir488
Mir669b
Mir669a-3
Mir669a-1
Mir467a-1
Mir467b
Mir669c
Mir669a-2
Mir297b
Mir499
Mir455
Mir491
Mir697
Mir698
Mir692-2a
Mir700
Mir671
Mir701
Mir702
Mir592
Mir704
Mir706
Mir709
Mir711
Mir677
Mir423
Mir681
Mir495
Mir686
Mir719
Mir687
Mir615
Mir690
Mir693
Mir694
Mir501
Mir532
Mir717
Mir505
Mir676
4930500M09Rik
Dok6
Mir449c
Dnahc7c
C130021I20Rik
Gm10597
Gm10590
Gm10801
Gm10800
Gm10720
Gm10721
Gm10719
Gm10845
Gm10110
A930039A15Rik
Gm10858
Gm10105
Gm10044
Gm10595
Gm15238
Gm16506
Gm15031
Gm16487
Gm10237
Gm10764
Gm10357
Gm15470
Gm10748
Gm14639
D030062O11Rik
Gm15352
B430202K04Rik
Gm16494
Gm15403
Gm9824
Gm11191
Gm14562
3110082J24Rik
Gm10491
Gm10722
G530012D18Rik
Gm10718
Gm10717
Gm9921
M5C1000I18Rik
Gm10784
Gm10045
Gm10217
5830462I19Rik
Gm10047
Trav11
Gm15623
Rpl19-ps11
Gm9836
Gm10234
Gm15173
Gm15115
Gm10312
Gm15361
Igkv8-28
Gm14529
Gm16505
Gm10157
Gm14710
Gm10097
Gm16510
Gm10320
Igkv11-125
Gm15427
Trav13n-2
Gm15440
Gm9989
Gm10092
Rpl30-ps11
Gm10203
Gm10715
Gm10269
Gm10169
D630002J18Rik
C630004M23Rik
4930570N19Rik
Gm9944
Gm15131
Gm10663
Gm10780
Gm15163
Gm10181
Gm9848
Gm10012
Gm10477
C130032M10Rik
A730071L15Rik
Gm10063
Trav12d-2
Gm15443
Gm10130
Gm10444
B930078G14Rik
Trav6-2
Gm10542
Gm10198
Dynlt1-ps1
Igkv2-109
Gm15428
Gm10417
Gm16493
Gm10224
Ighv9-3
Gm9765
Gm14947
A230065N10Rik
Zfp882
BC028777
Ighv1-63
Gm10662
Gm10660
D330020A13Rik
Gm10298
Gm15355
Tubb4b-ps1
Gm10271
Gm15760
A130057D12Rik
Gm14535
Gm10799
Gm10294
Gm15453
Gm9850
Gm10160
Gm14652
Gm14613
Gm5751
Gm5752
Gm5915
Gm7222
Gm6465
Gm5301
Gm5643
Gm8093
Gm8089
Gm16462
Zfp936
Gm5393
Gm5392
Ighv1-71
Rps15a-ps1
Rps12-ps6
Gm4852
Gm4991
Gm6736
Gm6446
Gm5526
Gm8894
Gm8812
Gm4763
Gm7781
Gm8186
Gm8185
Gm5819
Igkv14-126
Gm5852
Gm9285
Vmn1r-ps17
Mageb17-ps
Gm4911
Gm4912
Vma21-ps
Gm7590
Trav13d-2
Gm6189
Gm16431
Gm8091
Gm5423
Gm5537
Gm8603
Gm8072
Gm8074
Gm7958
Gm5646
Gm5645
Rpl23a-ps13
Gm16420
Gm6226
Gm9392
Ighv2-4
Gm9144
Gm9141
Gm9387
Gm6139
Gm5436
Gm5494
Ube2nl
Gm9266
Gm8910
Gm8908
Rps15a-ps2
Gm8181
Gm16425
Gm14570
Gm7332
Gm8199
Gm8200
Gm4883
Rpsa-ps2
Rpl21-ps10
Gm7805
Gm7808
Gm7809
Gm4925
Gm7932
Gm7931
Gm5528
Gm7247
Gm6871
Gm5581
Gm5582
Gm7638
Gm7494
Gm6574
Gm6365
Gm6740
Gm6741
Rpl30-ps8
Gm8806
Gm5459
Gm8508
Vmn1r-ps11
Gm5496
Rpl7a-ps5
Rpl21-ps6
Gm16380
Rps6-ps3
Gm6762
Gm4952
Gm6960
Gm6763
Eif5al3-ps
Gm7189
Igkv4-62
Gm8212
Gm8213
Gm6341
Gm7820
Rps27a-ps2
Gm6851
Gm6531
Gm5123
Pramel
Gm5356
Gm7150
Gm6517
Gm5753
Gm8682
Gm5096
Gm9174
Gm8054
Gm6872
Gm6918
Gm5278
Gm16464
Gm5073
Gm9157
Gm7651
Gm7648
Gm6726
Gm6177
Gm6038
Gm5381
Gm5380
Gm5451
Gm5449
Gm8297
Gm5227
Gm5499
Gm5619
Ighv9-2
Ighv16-1
Gm8220
Gm8224
Gm5989
Zfp419
Igkv9-123
Gm7582
Gm4989
Gm5353
Gm4778
Gm6272
Gm6461
Gm8895
Gm7091
Gm4916
Gm5900
Gm7058
Gm8046
Ighv3-3
Gm5834
Gm7628
Gm6180
Gm6155
Gm4822
Gm9008
Gm9006
Gm6485
Fam169b
Rps2-ps9
Gm7841
Gm7840
Gm7676
Gm5871
Gm7485
Gm6548
Gm7589
Gm7592
Gm14650
Rpl36-ps4
Gm16459
Gm8749
Gm5187
Gm8034
Gm8036
Gm8855
Rps10-ps1
Gm5445
Gm7289
Gm5793
Gm7244
Gm6335
A230006K03Rik
Gm5389
Rpl3-ps1
Gm8995
Gm8994
Gm8991
Gm5082
Ighv1-84
Ptma-ps1
Gm8644
Gm15454
Gm8648
Gm8145
Rpl22-ps1
Gm6783
Gm5286
Rpl7a-ps8
Gm6650
Gm7598
Gm6985
Gm4922
Gm16400
Gm7974
Trav12n-2
Gm5548
Gm8401
Gm8844
Gm7970
Rps24-ps3
Gm4767
Gm5614
Gm8260
Gm8258
Gm7535
Gm8980
Lipo2
Gm5903
Ighv1-59
Ighv8-9
Zfp937
Defb47
Hnrnpa1l2-ps
Trav3-1
Trav6-1
Gm8152
Gm16437
Gm6781
Rpl31-ps20
Gm5069
Gm5402
Gm4984
Gm7609
Gm6368
Gm16418
Gm7027
Gm7308
Ighv1-20
Gm5407
Gm4831
Gm7713
Gm7866
Gm7869
Gm5805
Oaz2-ps
Gm8247
Gm5883
Gm5884
Gm6542
Rpl31-ps21
Gm4853
Gm8327
Gm5757
Gm8623
Gm6604
Gm6491
Pabpc1l2b-ps
Gm8737
Gm8738
Gm8741
Gm8754
Gm15229
Gm6493
Vmn1r-ps24
Vmn1r39
Ube2d4
Gm5540
Gm8868
Gm8864
Nat8b
Gm5576
Gm5215
Gm7857
Gm7336
Gm8325
Gm5446
Igkv1-115
Gm6912
Rps2-ps6
Trav7n-4
Gm7546
Gm5812
Gm6206
Gm7258
Igkv2-112
Mageb16-ps1
Gm6623
Gm8488
Gm4919
Gm5898
Gm5867
Ighv8-11
Gm6644
Gm6964
Gm5341
Gm6305
Ighv1-62-2
Rps12-ps5
Nsa2-ps2
Gm6100
Gm5946
Rpl31-ps1
Gm5786
Gm5578
Gm5564
Gm5535
Gm8522
Gm8521
Gm7901
Gm6900
Gm6767
Gm7879
Rps19-ps10
Gm5639
Gm5071
Gm9252
Ighv1-73
Cd9-ps
Gm5862
Gm7536
Gm9434
Gm9435
Gm6298
Gm9436
Gm4963
Rpl28-ps4
Gm9242
Gm4943
Gm5965
Ppp1r2-ps4
Gm8526
Ighv1-67
D030046N08Rik
Igkv4-63
Gm7209
Gm5844
Gm6207
Trav14n-2
Gm5912
Gm5321
Gm5319
Gm6507
Gm8813
Gm6467
Wdr49
Gm6395
Ighv3-8
Gm5745
Rpl3-ps2
Gm5401
Rpl27-ps1
Gm8430
Gm8809
Gm8005
Gm5514
Gm5513
Gm7108
Gm7785
Gm5590
Gm8289
Gm14587
Gm6658
Ighv8-5
Gm5145
Gm6587
Gm6746
Gm5167
Iglv3
Gm8464
Gm4735
Gm5607
Cyp21a2-ps
Gm8112
Ppp1r2-ps3
Gm8107
Gm6322
Igkv1-131
Gm6673
Gm9396
Gm9399
Gm6253
Gm6611
Gm5316
Gm6054
Gm8619
Gm8420
Trav13n-3
Rpl7l1-ps1
Rps2-ps10
Gm5665
Gm6893
Gm5519
Gm16433
Gm8017
Gm8019
Gm8018
Gm5803
Gm14794
Gm7910
G430049J08Rik
Gm5849
Gm7664
Gm5292
Calhm3
Gm4858
Gm8662
Gm8661
Gm8659
Pgam1-ps2
Gm8946
Gm15514
Gm5068
Ighv1-85
Gm6401
Gm8097
Gm8098
Gm8094
Gm6754
Gm8674
Gm4978
Rnf212
Igkv14-130
Gm7292
Gm4994
Pabpc1l2a-ps
Gm5773
Gm6429
Gm6153
Gm6023
Ighv8-6
Igkv4-73
Gm5395
Gm7984
Gm8882
Rpl31-ps12
Gm7199
Gm7204
Gm4910
Snord15a
Gm6166
Gm8425
Gm8818
Gm15236
Gm4886
Gm8087
Gm16421
Gm7347
Gm9372
Gm7823
Gm5942
Gm5944
Gm8323
Gm6425
Gm15464
Gm8783
Hist1h2al
Gm4782
Ighv8-4
Gm5801
Gm4746
Gm5583
Gm8888
Gm7929
Gm6917
Gm6316
Gm7803
Gm6263
Gm5678
Gm5754
Gm5642
Gm8082
Rpl21-ps7
Trav14d-2
Igkv10-94
Gm8701
Gm7964
Gm6286
Rpl12-ps1
Gm5394
Gm4894
Gm16373
Rpl27-ps3
Gm6361
Gm9385
Smek3-ps
Gm8902
Gm6798
Gm7711
Rpl30-ps10
Gm7327
Ighv1-12
Gm7816
Gm6115
Gm6169
Gm9109
Gm6843
Gm5146
Gm8503
Gm16465
Gm8606
Gm7312
Gm6640
Gm8068
Gm7936
Gm7935
Gm5530
Gm6288
Gm5529
Ighv9-4
Gm5644
Gm7099
Gm14942
Alms1-ps1
Gm7367
Gm4955
Gm5616
Gm6580
Gm6181
Gm6382
Gm7123
Agbl1
Gm7155
Gm6788
Gm8202
Gm8203
Gm7821
Gm14980
Gm4795
Gm7276
Gm9725
Gm8214
Gm7075
Gm8061
Gm4914
Gm5396
Gm5580
Rpl31-ps11
Gm7945
Gm14627
Gm6223
Rpl38-ps2
Gm4913
Gm7206
Gm7031
Gm6576
Gm5384
Gm5457
Gm4862
Gm9027
Rpl13-ps3
Gm5909
Gm5621
Gm16409
Gm6984
Gm8216
Gm14519
Gm7580
Gm9427
Gm6245
Ighv12-3
Gm4996
Gm8587
Igkv4-59
Rps19-ps5
Vmn1r-ps80
Gm8688
Rps6-ps2
Gm5532
Trim5
Gm8832
Gm8835
Gm8129
Gm8127
Gm7645
Gm5908
Gm5228
Gm6447
Gm8229
Rpl18-ps2
Gm7324
Gm7488
Gm6374
Gm6373
Gm6133
Gm5931
Gm4992
Gm6462
Gm8580
Gm4917
Vmn1r-ps19
Gm8040
Gm7736
Gm7742
Gm16368
Rpl5-ps1
Gm5612
Gm16379
Gm5611
Gm7284
Gm9001
Gm9002
Defa-ps12
Gm5045
Gm5155
Gm6776
Gm15057
Gm4993
Gm4889
Rps15-ps2
Gm7408
Gm6378
Gm5121
Gm6569
Gm8566
Gm8569
Gm5097
Gm5809
Gm8849
Gm9183
Gm7973
Gm14564
Gm4830
Gm6923
Vmn1r-ps53
Gm7729
Gm4775
Gm8261
Gm5830
Gm6863
Gm5303
Gm4750
Cfhr3
Gm5329
Gm7224
Gm8329
Rps8-ps1
Gm7980
Gm7083
Gm8459
Gm16451
Gm8138
Gm7579
Gm5708
Gm4969
Gm6901
Gm7399
Rpl18a-ps1
Gm6756
Gm4945
Gm4968
Gm6568
Gm8615
Rpl7a-ps12
Gm8752
Gm8618
Gm8750
Gm4986
Gm5549
Gm4760
Gm15688
Gm5185
Gm6419
Gm6418
Gm6977
Gm7882
Gm16439
Gm8250
Gm8251
Gm9064
Gm9062
Gm6088
Gm8978
Gm5776
Gm5270
Gm6195
Gm6625
Gm5250
Igkv17-121
Gm5682
Gm6647
Gm7426
Rpl31-ps8
Gm7613
Gm7616
Rpl10-ps4
Gm7271
Gm7415
Gm4987
Gm8722
Trav8d-2
Gm6480
Gm6478
Gm4825
Gm6498
Gm9312
Igkv9-120
Igkv2-116
Gm5620
Gm7873
Gm5721
Gm6541
Gm4736
Gm5466
Gm8051
Gm5084
Gm5762
Gm5763
Gm15041
Gm5761
Ppp1r2-ps2
Vmn1r1
Gm16415
Gm8482
Gm5648
Gm6645
Gm7420
Smok3c
Gm7158
Gm6564
Gm6304
Gm15007
Trav10n
Vmn1r-ps83
Clec2j
Gm8394
Gm8399
Gm5958
Gm5560
Gm8802
Gm8024
Gm8020
Gm7862
Gm7861
Gm8857
Gm8858
Gm8271
Gm5656
Gm5874
Gm7658
Gm6910
Ighv3-5
Gm6723
Gm6039
Gm14537
Gm16397
Gm4875
Gm4879
Gm6654
Gm5637
Gm8165
Gm9726
Rpl30-ps9
Gm8396
Gm8398
Gm7233
Gm9115
Gm5815
Gm9116
Gm5947
Gm5699
Rpl31-ps17
Gm8358
Gm5544
Rpl21-ps12
Gm6956
Gm6444
Gm7856
Gm7855
Gm7854
Gm7887
Gm16381
Gm6768
Gm6899
Gm4835
Gm7110
Gm7211
Gm5454
Gm4904
Gm5913
Gm6744
Gm6451
Rpl9-ps5
Gm5473
Gm5472
Gm5471
Gm7061
Gm8174
Gm9246
Gm9244
Gm4764
Rpl21-ps8
Gm6816
Gm7393
Gm14513
Gm9432
Gm16480
Tmem28
Igkv1-133
Gm16410
Gm16401
Gm6097
Gm15204
Gm5566
Gm7847
Gm5510
Zfp791
Gm6907
Gm14928
Gm9359
Gm6457
Gm6919
Gm7746
Gm5453
Gm4832
Gm6415
Gm5160
Gm5161
Gm8975
Gm8973
Ighv1-62-3
Gm9234
Gm9166
Gm4985
Gm7180
Gm8122
Gm5863
Gm4895
Gm8232
Gm6104
Gm6829
Rplp0-ps1
Gm6743
Gm6055
Gm6061
Rpl29-ps2
Gm5417
Gm5808
Gm8814
Trav12-3
Gm8815
Rps12-ps7
Gm8817
Gm8822
Gm8428
Gm8534
Igkv4-69
Rpl10-ps2
Gm7790
Gm5594
Gm5593
Hmg1l1
Gm7551
Gm6221
Gm6222
Gm4909
Gm6044
Gm6586
Gm6134
Gm5742
Gm8346
Gm8666
Gm8668
Gm5918
Gm7951
Gm7954
Gm4845
Rpl26-ps2
Ighv10-3
Gm5239
Gm8113
Gm8116
Igkv1-132
Gm6811
Gm8385
Kat2b-ps
Gm4784
Gm9105
Gm5822
Gm6500
Gm5937
Gm12729
Gm5939
Gm4799
Gm4761
Gm8545
Rpl13a-ps1
Gm6695
Gm9294
Gm8877
Gm8878
Gm6238
Gm6659
Gm9059
Rpl31-ps5
Vmn1r-ps85
Ighv1-83
Gm5468
Gm5921
Gm5555
Gm9257
Ighv8-14
Gm6404
Gm5891
Gm4950
Gm5698
Gm5697
Rps24-ps2
Gm7171
Apoo-ps
Gm5046
Gm6096
Gm6427
Gm6887
Gm8344
Gm7696
Gm6807
Gm6806
Vmn1r-ps144
Gm7571
Gm7568
Gm6265
Gm5116
Gm7735
Trav15n-2
Gm12186
Gm12396
Gm12397
Gm13925
Trav14-2
Gm12796
Gm13740
Rpl9-ps1
Gm11934
Gm13928
Gm11714
Gm11716
Gm11659
Gm11470
Gm12606
Gm11274
Gm13972
Gm13973
Gm13974
Gm12285
Gm13975
Gm13199
Gm12287
Gm13778
Gm14161
Gm12455
Gm12839
Gm14162
Gm11640
Gm13344
Gm13345
Gm11657
Gm14224
Gm13231
Gm14226
Rpsa-ps11
Gm13116
Gm11334
Gm13114
Gm13232
Gm13233
Gm13348
Gm11933
Gm11187
Gm13726
Gm13280
Gm13332
Gm13333
Gm12441
Gm12440
Gm14014
Gm14010
Gm14011
Gm14012
Gm14025
Gm11195
Gm13853
Gm13983
Gm13598
Gm13600
Gm13599
Gm13291
Gm13602
Gm13601
Gm12192
Gm12696
Gm13136
Gm12157
Gm12155
Gm12153
Gm12154
Gm12152
Gm13140
Gm12249
Gm12250
Gm14135
Gm13577
Gm13576
Gm13578
Gm13033
Gm12465
Gm12501
Gm11856
Gm11857
Gm12291
Gm11855
Gm14265
Gm13817
Gm12314
Gm13816
Gm13815
Gm13814
Gm12912
Gm12312
Gm13818
Gm11965
Gm14192
Gm12240
Gm14448
Gm14108
Gm14110
Gm14109
Gm12221
Gm12220
Gm11871
Gm11872
Gm11873
Gm11874
Gm12218
Gm12217
Gm12219
Gm13685
Gm13684
Gm12111
Gm12110
Gm12114
Gm12968
Gm13878
Gm13875
Gm13876
Gm11529
Gm12573
Gm14154
Gm14217
Gm11808
Gm13653
Gm13886
Gm14215
Gm13887
Gm12288
Gm13782
Gm11512
Gm11345
Gm11465
Gm14396
Gm14397
Gm12059
Gm11598
Gm13838
Gm13403
Trdv1
Trav18
Trav19
Gm14067
Gm13469
Gm13470
Gm13468
Gm13471
Gm13472
Gm12405
Gm14263
Gm14264
Gm13930
Gm13929
Gm12791
Gm12790
Gm12789
Gm12792
Gm14252
Gm13491
Gm11709
Gm13441
Gm11401
Gm12870
Gm12869
Gm11496
Gm11273
Gm13511
Gm12292
Gm13811
Trav6d-5
Trav12d-1
Gm12289
Trav7d-5
Trav11d
Gm12834
Gm13506
Gm13507
Gm14013
Gm13567
Gm14227
Gm11333
Gm12472
Gm13809
Gm13186
Gm13297
Gm13274
Gm13115
Gm13542
Gm13543
Gm12318
Gm14319
Gm13964
Gm13330
Gm12434
Gm13331
Gm14320
Gm14018
Gm11784
Gm11785
Gm13096
Gm12866
Gm11196
Gm13860
Gm13861
Gm12286
Gm13293
Gm13292
Gm13295
Gm13294
Gm13296
Gm13063
Gm11708
Gm13062
Gm12064
Gm13840
Gm11264
Gm12162
Gm12161
Gm12160
Gm12728
Gm12158
Gm12247
Gm11853
Gm11852
Gm13719
Gm12244
Gm12245
Gm13569
Gm14138
Gm12953
Gm13041
Gm13044
Gm13045
Gm13046
Gm12950
Gm12952
Gm14058
Gm14059
Gm14056
Gm14429
Gm13813
Gm12320
Gm14428
Gm13405
Gm12171
Gm11420
Gm11876
Gm11875
Gm12225
Gm13649
Gm11636
Gm12222
Gm13651
Gm13650
Gm12294
Gm12947
Gm11745
Gm13675
Gm13676
Gm12354
Gm12517
Gm13881
Gm14275
Gm13879
Gm13880
Gm14142
Gm14141
Gm11813
Gm11805
Gm14143
Pin1-ps1
Gm13784
Gm14206
Gm13783
Gm13358
Gm11677
Gm12367
Gm12368
Trav7-3
Gm12366
Gm13400
Gm12365
Gm11358
Gm11513
Gm11356
Gm11953
Gm11954
Gm12783
Gm11955
Gm12781
Gm14390
Gm12063
Gm14392
Gm13623
Gm13624
Rpl38-ps1
Gm14036
Gm14261
Gm12475
Gm11383
Gm13187
Gm12543
Gm12223
Gm13467
Gm12525
Gm13466
Gm13465
Gm14273
Gm12404
Gm12523
Gm14274
Gm12256
Trav4-2
Trav7-2
Trav8-1
Trav6-5
Trav6-3
Trav7-4
Gm11646
Gm13408
Gm13445
Gm13443
Gm13444
Gm13518
Gm13517
Gm11899
Gm12821
Gm12816
Gm12279
Gm12818
Gm12771
Scgb1b22-ps
Gm13021
Gm13508
Gm13510
Gm13509
Scgb2b22-ps
Gm12768
Gm12770
Gm11885
Gm13380
Gm13424
Gm12892
Gm13381
Gm13565
Gm13564
Gm13091
Gm13566
Gm13245
Gm13246
Gm13249
Gm13184
Gm13092
Gm13884
Gm13885
Gm13545
Gm12433
Gm12432
Gm14337
Gm12431
Gm13321
Gm12571
Gm12297
Gm12802
Gm11197
Gm12144
Gm12145
Gm12146
Gm13607
Gm13606
Gm13343
Gm12454
Rps8-ps2
Gm13346
Rpl36-ps7
Gm12276
Gm13347
Gm14290
Gm13077
Gm14024
Gm11266
Gm12757
Gm12755
Gm12756
Gm13529
Scgb1b26-ps
Gm14026
Gm13217
Gm13634
Gm11860
Gm12243
Gm12242
Gm12241
Gm14140
Gm13570
Gm13007
Gm14486
Gm14487
Gm14194
Gm14066
Gm13729
Gm11623
Gm13730
Gm14060
Gm14062
Gm14061
Gm14064
Gm14063
Gm14065
Gm12227
Gm12226
Gm12229
Gm13808
Gm12230
Gm12319
Gm12725
Gm12987
Gm12156
Gm11494
Gm12724
Gm12949
Gm13406
Gm11516
Gm13661
Gm13659
Gm13660
Gm13658
Gm13678
Gm13677
Gm11515
Gm13428
Gm13781
Gm12355
Gm11511
Gm11430
Gm11429
Gm11460
Gm11459
Gm11821
Gm11822
Gm14209
Gm14208
Gm13785
Gm13786
Gm13393
Gm14225
Gm12364
Gm13401
Gm13402
Gm11528
Gm11514
Gm12394
Gm11551
Gm11353
Gm14259
Gm11439
Gm11527
Gm11957
Gm11828
Gm11440
Gm11829
Rpl13-ps1
Gm11956
Gm11703
Gm14407
Gm12346
Gm14409
Gm14402
Gm14403
Gm14404
Gm14405
Gm12343
Gm12066
Gm12065
Gm12067
Gm14411
Gm12344
Gm12068
Gm14003
Gm11830
Gm12259
Gm14406
Gm11695
Gm12521
Gm13462
Gm13463
Gm13464
Gm11702
Gm11267
Gm14268
Gm14270
Gm14266
Gm14267
Gm13692
Gm14271
Gm11269
Gm13739
Gm13954
Gm13738
Trav7d-3
Gm12345
Gm11924
Gm11925
Gm11921
Gm11669
Gm11670
Gm13446
Gm11722
Gm11255
Gm12069
Gm12621
Gm12622
Gm12619
Gm12620
Gm12617
Gm12615
Gm12616
Gm12613
Gm12614
Gm12284
Gm11914
Gm12281
Gm12282
Gm13501
Gm13502
Gm13503
Gm12780
Gm12779
Gm13392
Gm12778
Scgb2b25-ps
Gm13389
Gm13388
Gm12773
Gm13379
Gm12895
Gm13376
Gm13375
Gm13377
Gm13425
Gm11360
Gm13420
Gm12411
Gm13241
Gm12408
Gm13421
Gm13235
Gm13234
Gm12711
Gm12712
Gm12713
Gm11361
Gm14086
Gm14336
Gm11499
Gm13320
Gm13201
Gm11788
Gm12652
Gm12649
Gm12648
Gm11200
Gm11201
Gm12149
Gm12148
Gm12147
Gm12358
Gm11198
Gm11199
Gm12151
Gm14228
Gm11995
Gm14291
Gm12451
Gm14292
Gm14294
Gm13349
Gm13086
Gm13087
Gm12760
Gm12762
Gm14022
Gm12763
Gm12764
Gm11253
Gm13158
Gm11858
Gm11859
Gm11966
Rpl12-ps2
Gm13589
Gm12313
Gm13586
Gm14490
Gm13039
Gm13055
Gm11463
Gm13058
Gm12331
Gm11622
Gm14051
Gm14052
Gm13731
Gm13735
Gm12055
Gm13733
Gm13732
Gm14183
Gm14180
Gm14181
Gm14178
Gm11462
Gm14176
Gm14177
Gm14184
Gm12310
Gm11203
Gm13655
Gm12057
Gm13657
Gm11930
Gm13652
Gm14385
Gm13787
Gm13244
Gm12974
Gm13672
Gm12970
Gm12971
Gm12973
Gm12972
Gm13191
Gm11432
Gm11431
Gm11818
Gm11820
Gm11819
Gm13883
Gm13882
Gm11971
Gm11972
Gm11970
Gm11975
Gm11973
Gm14269
Gm12653
Gm11836
Gm11517
Gm11442
Gm11542
Gm11915
Gm11948
Gm11831
Gm11947
Gm11946
Gm11945
Gm11526
Gm11701
Gm14401
Gm14400
Gm13620
Gm11700
Gm14398
Gm12341
Rpl36-ps2
Gm14399
Gm13996
Gm12389
Gm13355
Gm12263
Gm11571
Gm12091
Gm12090
Gm12092
Gm12093
Gm12094
Gm13329
Gm11751
Trav6d-3
Gm11697
Rpl31-ps10
Gm13002
Gm13005
Gm13461
Gm13460
Gm14136
Gm14300
Gm14279
Gm14278
Gm12497
Gm11535
Gm12786
Gm12112
Gm11536
Gm13940
Gm13683
Gm11920
Gm11723
Trav8d-1
Gm11919
Gm11724
Gm11916
Gm13737
Gm11665
Gm11650
Gm13450
Gm12611
Gm12612
Gm13736
Gm14472
Gm11907
Gm13487
Gm11909
Gm11908
Gm11911
Gm11913
Gm11912
Gm12273
Gm14330
Gm13105
Gm13101
Gm13100
Gm12303
Gm13167
Gm13718
Gm14216
Gm13339
Gm12693
Gm13525
Gm13340
Gm13341
Gm13407
Gm13079
Gm13082
Gm13081
Gm13080
Gm13085
Gm11261
Gm11226
Gm14055
Gm11694
Gm14213
Gm13591
Gm13590
Rps18-ps1
Gm13036
Gm13035
Gm13060
Gm13059
Gm12445
Gm11472
Gm12372
Gm11969
Gm11469
Gm11471
Gm11816
Gm11817
Gm11473
Gm11967
Rps15a-ps6
Gm13618
Gm13617
Gm13378
Gm12500
Gm12502
Gm13819
Gm11952
Gm11832
Gm11833
Gm12896
Gm11950
Gm11949
Gm11951
Gm13866
Gm14387
Gm13013
Gm12340
Vmn1r-ps1
Gm13663
Gm12254
Gm12898
Gm14125
Gm11402
Gm14277
Gm13822
Gm11678
Gm11680
Trav9-1
Gm12785
Gm12784
Gm13943
Gm12782
Gm13942
Gm12410
Gm12182
Gm13434
Gm14471
Gm11905
Gm12590
Gm12589
Gm14382
Gm12414
Gm12444
Gm13777
Gm12275
Gm13418
Gm13500
Gm13499
Gm12278
Gm13373
Gm13922
Rpsa-ps9
Gm11314
Gm11376
Gm14002
Gm13135
Gm13554
Gm12198
Gm12197
Gm12196
Gm12854
Gm12747
Gm13555
Gm12200
Gm12199
Gm14280
Gm14281
Gm14283
Gm14284
Gm14298
Gm13325
Gm13324
Gm13323
Gm13322
Gm12301
Gm13820
Gm12300
Gm13716
Gm12688
Gm14301
Amd-ps4
Gm13342
Gm14299
Gm12690
Gm13090
Gm11799
Gm11800
Gm14028
Gm14029
Gm14045
Gm14044
Gm11865
Gm11864
Gm11863
Gm11862
Gm11861
Gm13579
Gm13581
Gm13583
Gm13180
Gm13181
Gm13182
Gm13183
Gm13765
Gm14089
Gm12208
Gm12209
Gm13662
Gm12206
Gm11629
Gm11630
Gm12598
Gm12914
Gm13121
Gm14091
Gm13712
Gm13713
Gm13616
Gm14088
Gm13615
Gm12349
Gm11789
Gm12943
Gm12944
Gm12976
Gm12941
Gm11415
Gm11592
Gm11578
Gm11867
Gm11868
Cnbd1
Gm14123
Gm11815
Gm11814
Gm13839
Gm11987
Gm14424
Gm14218
Gm11982
Gm11467
Gm11466
Gm13626
Gm14422
Gm11737
Gm12150
Gm13016
Gm13017
Gm11454
Gm12531
Gm12499
Gm12498
Gm11520
Gm14165
Rps15a-ps7
Gm13869
Gm11835
Gm12449
Gm13870
Gm11943
H3f3c
Gm14383
Gm12082
Rpsa-ps5
Gm12084
Gm11844
Gm12080
Gm12081
Gm13630
Gm12627
Gm12626
Gm12625
Gm12624
Gm12623
Gm12628
Gm13788
Gm11739
Gm11464
Gm11721
Gm13435
Gm14250
Gm11461
Gm12418
Gm11904
Gm12415
Gm14293
Gm11902
Gm12423
Gm12269
Gm13752
Gm12807
Gm13751
Gm12270
Gm11986
Gm13519
Gm11941
Gm11984
Gm13412
Gm13413
Gm11985
Gm12337
Gm12576
Gm12338
Gm12849
Gm13382
Gm12406
Gm13961
Gm12339
Trav4d-2
Trav9d-1
Gm11209
Gm11210
Gm12165
Gm12166
Gm12163
Gm12164
Gm12765
Gm11750
Gm13134
Gm13133
Gm12682
Gm12464
Gm12681
Gm11802
Gm11803
Gm13161
Gm14038
Gm14103
Gm14048
Gm13442
Gm13584
Gm13050
Gm13310
Gm12235
Gm12189
Gm13644
Gm12705
Gm11766
Gm11767
Rpl9-ps3
Gm11633
Gm12210
Gm13024
Mrpl23-ps1
Gm12311
Gm13410
Gm12913
Gm13629
Gm13038
Gm13588
Gm13613
Gm14087
Gm11977
Gm11976
Gm11834
Gm11979
Gm14221
Gm14223
Gm12977
Gm12290
Gm13967
Gm11488
Gm13780
Gm13832
Gm11809
Gm11509
Gm11510
Gm12538
Gm12336
Gm12293
Gm12335
Gm13874
Gm13872
Gm11561
Gm13873
Gm11453
Gm11544
Gm11733
Gm11731
Gm12569
Gm12122
Gm14323
Gm12481
Gm11399
Gm12079
Gm11522
Gm13790
Gm12073
Gm12072
Gm12071
Gm12077
Gm12075
Gm12074
Gm11768
Gm14342
Gm14344
Gm12715
Gm13631
Gm14348
Gm13763
Gm12637
Gm12033
Gm11673
Gm12717
Gm11534
Gm13431
Gm14049
Gm13239
Gm13439
Gm11381
Gm11379
Gm11378
Gm13438
Gm13386
Gm11553
Gm11900
Gm12271
Gm12811
Mup-ps3
Gm12272
Gm14179
Gm13744
Gm13743
Gm13742
Gm13521
Gm14054
Gm13372
Gm13371
Gm13427
Gm12391
Gm11935
Gm11936
Gm12574
Gm12735
Gm13551
Gm13552
Gm12848
Gm13492
Gm13493
Gm13383
Gm13384
Gm13966
Gm13965
Gm13263
Gm13962
Gm13261
Gm13963
Gm11207
Gm11249
Gm12305
Gm12168
Gm13260
Gm12661
Gm12170
Gm12660
Gm12752
Gm12427
Gm12428
Gm14304
Gm12457
Gm14037
Gm11794
Gm11795
Gm13188
Gm14035
Gm14031
Gm13189
Gm14032
Gm12666
Gm13093
Gm13094
Gm11688
Gm13174
Gm13173
Gm13172
Gm12317
Gm12702
Gm12701
Gm12988
Gm13668
Gm13667
Gm12266
Gm13026
Gm12907
Gm13025
Gm12906
Rps15a-ps3
Gm13049
Gm11478
Gm11498
Gm13841
Gm13842
Gm13711
Gm14083
Rpl26-ps5
Gm11998
Gm11996
Gm11997
Gm12962
Gm14033
Gm11999
Gm11412
Zfp616
Rps6-ps4
Gm11489
Rpl10-ps1
Gm13656
Gm14240
Gm13595
Gm12261
Gm13592
Gm13593
Gm12262
Gm13834
Gm13833
Gm13835
Gm13836
Gm14389
Gm14388
Gm11507
Gm11508
Gm11616
Gm14173
Gm14174
Gm14170
Rpl21-ps9
Gm14172
Gm11838
Gm13000
Gm11730
Gm11729
Gm11728
Gm13353
Gm13645
Gm12946
Gm12488
Gm13354
Gm12486
Gm11588
Gm12489
Gm14016
Gm13791
Gm13792
Gm14042
Gm11425
Gm14356
Gm12631
Gm11675
Gm11674
Gm13837
Gm12019
Gm12022
Gm12023
Gm12020
Gm12021
Gm12024
Gm13932
Gm12357
Rpl29-ps3
Gm11189
Gm13440
Gm14254
Gm13913
Gm13914
Gm14251
Gm13912
Gm14253
Rpl35a-ps4
Gm11654
Gm11655
Gm12813
Gm11656
Gm12867
Gm13436
Gm14150
Gm12392
Gm12393
Gm13369
Gm13370
Gm13411
Gm13212
Gm11318
Gm13211
Gm13210
Gm12737
Gm14145
Gm11433
Gm13549
Gm12398
Gm13550
Gm13430
Gm13496
Gm12014
Gm13495
Gm13494
Gm13385
Gm14341
Gm11217
Rpl17-ps4
Gm11216
Gm13938
Gm14339
Gm12751
Gm12843
Gm12754
Gm12844
Gm11903
Gm13803
Gm13257
Gm12429
Gm14241
Gm12430
Gm14242
Gm12676
Gm13350
Gm13351
Gm13352
Gm14314
Gm13192
Gm11796
Gm11763
Gm11764
Gm14043
Gm12806
Gm14041
Gm14040
Gm14039
Gm11932
Gm13831
Gm13009
Gm11184
Gm11891
Gm13171
Gm13313
Gm13314
Gm13311
Gm13312
Gm13170
Gm13315
Gm13316
Gm12699
Gm13029
Gm12194
Gm12195
Gm12698
Gm12714
Gm14079
Gm14078
Gm14081
Gm14080
Gm14082
Gm11886
Gm11887
Gm11888
Gm11889
Gm11890
Gm13047
Rps2-ps4
Gm12730
Gm11497
Gm13709
Gm13707
Gm11991
Gm11990
Gm11988
Gm12248
Gm11446
Gm11993
Gm14202
Gm12933
Gm11505
Gm12246
Gm13042
Gm11884
Gm13755
Gm12267
Gm13998
Gm13489
Gm13526
Gm13367
Gm13365
Gm11405
Gm13209
Krtap1-4
Gm12448
Gm13207
Rpsa-ps12
Gm12450
Gm13708
Gm13767
Gm13562
Gm13768
Gm13415
Gm13387
Gm11211
Gm12141
Gm13535
Gm13533
Gm13534
Gm12306
Gm14244
Gm14243
Gm14246
Gm14245
Gm14248
Gm14247
Gm14249
Gm13130
Gm13127
Gm13357
Gm13356
Gm13193
Gm13194
Trav7d-4
Gm13761
Gm13976
Gm12664
Gm13226
Gm13318
Gm13317
Gm13319
Gm13175
Gm12193
Trav15d-1-dv6d-1
Gm13176
Gm12190
Gm12694
Gm12191
Gm14106
Gm12095
Gm13610
Gm11892
Gm13609
Gm13611
Gm14107
Gm12979
Gm13844
Gm13703
Gm11773
Gm12009
Gm12010
Gm11824
Gm11823
Gm12004
Gm12005
Gm12006
Gm12007
Gm12008
Gm12327
Gm12328
Gm14210
Gm11493
Gm14116
Gm12260
Gm14117
Gm11901
Gm14201
Gm12524
Gm11421
Gm11422
Gm11423
Gm11424
Gm11608
Gm14155
Gm11605
Gm12233
Gm11607
Mup-ps22
Gm14153
Gm12231
Gm11450
Gm11854
Gm13627
Rpl35-ps1
Gm12030
Gm12031
Gm13363
Gm13674
Gm12034
Gm11682
Gm13185
Gm14008
Gm11894
Gm11893
Gm11672
Gm13486
Gm13485
Gm13484
Gm13488
Gm13523
Gm13524
Gm13522
Gm14450
Gm11228
Gm11918
Gm13336
Gm11232
Gm13206
Gm11234
Gm11235
Gm11939
Gm13204
Gm13203
Gm14020
Gm14021
Gm14019
Gm12743
Gm11770
Gm12745
Gm13449
Gm13433
Gm13432
Gm13448
Gm13745
Gm13537
Gm14168
Gm13256
Gm14234
Gm14236
Gm12599
Gm12600
Gm13992
Gm13123
Gm13122
Gm13126
Trav1
Gm11759
Gm14167
Gm13335
Gm12798
Gm11910
Gm12584
Gm13877
Gm12582
Gm11929
Gm12181
Gm12179
Gm12180
Gm12178
Gm12176
Gm12177
Gm13608
Gm14104
Gm14102
Gm11840
Gm13028
Gm11447
Gm12128
Gm12129
Gm12132
Gm12133
Gm12130
Gm12131
Gm13826
Gm12003
Gm12001
Gm12000
Gm13391
Gm12329
Gm12981
Gm14120
Gm11477
Gm12257
Gm14119
Gm12258
Gm12922
Gm12124
Gm13806
Gm11845
Gm12322
Gm12321
Gm13802
Rpl23a-ps2
Gm13804
Gm13805
Gm14371
Gm12963
Gm12503
Gm13665
Gm14129
Gm12252
Gm12011
Gm12012
Gm13666
Gm12099
Gm13670
Gm12098
Gm12097
Gm12096
Gm12986
Gm12100
Gm13924
Gm14461
Gm14460
Gm11295
Gm12040
Gm12036
Gm12035
Gm12039
Gm12038
Gm12037
Gm11685
Gm11684
Gm13397
Gm13481
Gm13482
Gm12483
Gm13746
Gm13528
Gm11223
Gm11222
Gm11221
Gm11928
Gm11926
Gm11927
Gm12804
Gm11224
Gm13531
Gm12655
Gm12062
Gm13429
Gm11290
Gm11292
Gm11291
Gm12061
Gm12307
Gm13722
Gm13557
Gm14068
Gm13419
Gm13559
Gm13560
Gm13561
Gm14466
Gm14238
Gm14237
Gm13219
Gm13218
Gm13118
Gm12670
Gm13988
Gm13991
Gm14317
Gm13221
Gm11220
Gm11755
Gm11754
Gm14239
Gm11753
Gm11752
Gm13575
Gm13270
Gm13216
Gm12577
Gm13141
Gm13142
Gm12136
Gm12720
Gm12138
Gm12139
Gm13851
Gm11193
Gm13828
Gm12602
Gm12274
Gm14329
Gm12316
Gm13106
Gm13327
Gm13030
Gm13990
Gm11479
Gm14121
Gm11917
Gm11521
Gm13989
Gm11427
Gm11504
Gm11417
Gm11418
Gm11419
Gm11880
Gm11879
Gm11878
Gm11883
Gm11882
Gm11847
Gm11638
Gm13868
Gm11639
Gm13801
Gm13800
Gm13169
Gm11846
Gm11741
Gm14373
Gm11742
Gm11980
Gm12304
Gm13225
Gm13635
Gm13636
Gm13637
Gm11524
Gm11523
Gm14189
Gm14190
Gm14191
Gm11614
Gm14185
Gm14187
Gm14188
Gm14193
Gm11613
Gm11612
Gm13687
Gm13686
Gm12490
Gm11373
Gm11372
Gm14159
Gm14034
Gm14272
Gm13994
Gm11707
Gm11706
Gm12046
Gm11599
Gm12044
Gm12045
Gm12043
Gm12041
Gm12042
Gm11683
Gm13394
Gm13396
Gm12380
Gm12379
Gm13338
Gm11337
Gm12692
Gm13459
Gm13458
Gm13457
Gm13642
Gm13641
Gm11895
Gm13479
Gm13643
Gm13480
Gm12485
Gm13527
Gm13936
Gm13937
Gm11246
Gm13111
Gm13935
Gm13756
Gm11642
Gm13530
Gm11263
Gm13999
Gm13220
Gm14408
Gm11539
Gm13027
Gm12265
Gm14262
Gm12400
Gm12399
Gm13196
Gm12833
Gm13536
Gm13541
Gm13556
Gm14229
Gm13227
Gm13228
Gm13229
Gm13230
Gm12668
Gm13986
Rap1a-ps2
Gm13985
Gm13359
Gm13982
Gm12852
Gm14053
Gm12187
Gm12188
Gm13268
Gm13269
Gm12480
Gm13700
Gm12750
Gm13076
Gm13075
Gm13074
Gm14098
Gm14095
Gm14094
Gm14093
Gm14092
Gm13368
Gm13068
Gm13067
Gm13069
Gm13070
Gm13071
Gm14163
Gm14101
Gm13366
Gm13888
Gm12386
Mup-ps18
Gm13155
Gm13156
Gm13478
Gm13151
Gm13153
Gm12121
Gm13053
Gm13052
Gm12120
Gm13849
Gm13850
Gm13847
Gm13846
Gm13848
Gm13823
Gm14122
Gm12920
Gm12919
Gm13821
Gm14127
Gm12918
Gm12958
Gm14211
Gm12911
Gm12280
Gm11849
Gm11850
Gm11851
Gm12117
Gm14425
Gm12929
Gm12928
Gm14423
Gm14426
Gm14427
Gm12118
Gm11416
Gm11877
Gm13647
Gm14158
Gm13648
Gm14156
Gm13797
Gm13798
Gm13799
Gm11456
Gm13796
Gm11749
Gm12967
Gm12966
Gm13640
Gm12766
Gm14198
Gm13563
Gm13889
Gm12135
Gm14196
Krtap29-1
Gm14197
Gm12137
Gm13689
Gm13688
Gm12334
Gm12333
Gm13690
Gm11560
Gm11923
Gm11365
Gm11364
Gm11368
Gm13455
Gm12051
Rpl15-ps1
Gm12050
Rpsa-ps3
Gm12047
Gm11687
Gm11734
Gm11732
Gm14437
Gm14439
Gm14438
Gm12369
Gm12370
Trav21-dv12
Gm11342
Gm11586
Gm13426
Gm11339
Gm11344
Gm11590
Gm13476
Gm13477
Gm11587
Gm13475
Gm12470
Gm12468
Gm12799
Gm12801
Gm11931
Gm11793
Gm11644
Gm11791
Gm12887
Gm11645
Gm12746
Gm13758
Gm11712
Gm11713
Gm12753
Gm14258
Gm12609
Gm12610
Gm14257
Gm13197
Gm13360
Gm12420
Gm13362
Gm12568
Gm13414
Gm12053
Gm14231
Gm14230
Gm13416
Gm12348
Gm13224
Gm13223
Gm13222
Gm12665
Gm13981
Gm12663
Gm13977
Trav13d-1
Gm12707
Gm12184
Gm12183
Gm11188
Gm11596
Gm12708
Gm13267
Gm13728
Gm13266
Gm13622
Gm13265
Gm13264
Gm14322
Gm14324
Rps15a-ps4
Gm14327
Gm13255
Gm13254
Gm14005
Gm14006
Gm14007
Gm14009
Gm12749
Gm13855
Gm13856
Gm13603
Gm13604
Gm13605
Gm12565
Gm12127
Gm12722
Gm12123
Gm12126
Gm12125
Gm14131
Gm12251
Gm14130
Gm14128
Gm13825
Gm13573
Gm13574
Gm13571
Gm13572
Gm13824
Gm14132
Gm11848
Gm14069
Gm14070
Gm14071
Rps19-ps7
Gm14073
Gm11482
Vamp7-ps
Gm11964
Gm13794
Gm13793
Gm12315
Gm12989
Gm13795
Gm11962
Gm11963
Gm14417
Gm14413
Gm14412
Gm14415
Gm14414
Gm14421
Gm14420
Gm11666
Gm14114
Gm14111
Gm14113
Gm14115
Gm12212
Gm12214
Gm12213
Gm11746
Gm13012
Gm12520
Rps18-ps2
Best4-ps
A830036E02Rik
D930007J09Rik
A530021J07Rik
Mir744
Mir551b
Mir761
Mir763
9330160F10Rik
Gm13538
Mfap1b
9330171B17Rik
Zfp781
A730035I17Rik
BC100530
B430219N15Rik
4930474H06Rik
C230038L03Rik
B430305J03Rik
D030025P21Rik
2510046G10Rik
D830025C05Rik
4732444A12Rik
Gm13205
Gm13162
Gm13145
Gm13117
Gm13112
Gm13097
Gm13066
Gm13520
Gm10180
Gm14343
Gm14321
Gm14302
Gm14276
Gm14232
Gm13179
Gm13289
Gm11715
Gm13706
Bloc1s2b
Gm13558
Gm13568
Gm13691
Gm13693
Gm13694
Gm13695
Gm13696
Gm13697
Gm13698
Gm11769
Gm11787
Gm13721
Gm13748
Gm13764
Trav17
Gm13896
Trav7-6
Trav9-4
Trav4-4-dv10
Trav6-7-dv9
Trav3-3
Trav15-2-dv6-2
Trav14-3
Trav13-4-dv7
Trav6-4
Gm14017
Trav20
Gm14144
Gm14152
Gm14220
Gm14453
Gm14205
Gm14235
Gm14256
Gm11837
Gm11940
Gm11236
Gm11238
Gm11989
Gm11239
Gm12207
Gm12264
Gm14416
Gm14418
Gm14419
Gm14434
Gm14435
Gm12268
Gm13008
BC106179
Gm13054
Gm14325
Gm13594
Gm13619
Gm13262
Gm9117
Gm5859
Gm16427
Gm7792
Trav9d-2
Trav5d-4
Trav12n-3
Trav10
Trdv5
Rpl31-ps14
Rpl31-ps9
Gm10031
Gm10171
Gm9821
Gm10762
Gm14494
Gm4617
Gm10592
A730015C16Rik
4921514A10Rik
Gm10564
Rpl17-ps5
Gm15202
Rpl35a-ps5
Rpl35a-ps6
B230377A18Rik
Gm16499
Gm15534
Gm9844
Gm10159
Gm15501
Mrps36-ps2
Gm10013
1700024N20Rik
E030037K01Rik
Gm10282
Gm10182
Gm10698
Gm10177
Gm9830
B230364G03Rik
Gm10428
Gm10039
Gm11748
Gm10479
D630036H23Rik
Gm10772
Rpl9-ps4
BC001981
Gm10736
B430218F22Rik
Gm10410
Gm10251
Gm10378
Gm14508
Trav12d-3
Trav9n-2
Trav4n-4
Trav5n-4
Trav6n-7
Trav7n-6
1810049J17Rik
9330020H09Rik
Gm10337
Gm10241
Gm9816
1700062I23Rik
Gm10349
Gm16490
Gm14866
Gm14845
Gm15395
Gm14617
Gm15354
Gm14643
Gm15336
Gm11641
Gm14798
Gm15489
Gm15356
Gm11547
Gm15318
Gm15339
Gm15406
Gm11906
Gm14233
Gm15243
Gm15232
Gm12575
Gm14978
Gm15082
Gm15343
Gm15241
Gm15218
Gm15479
Gm13166
Gm15230
Gm15178
Astx5
Astx6
Gm11476
Gm15200
Gm15234
Gm11457
Gm14540
Gm15199
Gm15482
Gm15290
Gm15478
Gm14717
Gm15270
Gm14573
Gm15325
Gm14705
Gm11583
Gm15469
Gm15051
Gm15287
Gm11375
Gm15340
Gm14817
Gm11537
Gm15283
Gm14963
Gm13236
Gm14703
Gm11574
Gm14929
Gm14950
Gm15063
Gm12352
Gm15346
Gm14549
Gm14582
Gm15345
Gm15050
Gm15247
Gm15423
Gm15024
Gm15404
Gm15226
Gm15342
Gm15239
Gm15457
Gm15083
Gm15265
Gm11335
Gm15288
Gm14936
Gm11632
Gm15104
Gm11280
Gm15261
Gm15396
Gm15286
Gm15326
Gm15271
Gm15201
Gm15322
Gm15477
Gm14546
Gm15324
Gm15411
Gm14965
Gm15169
Gm14543
Gm15353
Mup18
Gm14966
Gm15409
Gm15293
Gm15262
Gm14862
Gm14507
Gm15410
Gm15092
Gm14569
Gm14640
Gm15407
Gm15086
Gm15221
Gm14764
Gm14951
Gm15046
Gm15398
Gm15138
Gm15123
Gm14696
Gm15341
Gm14707
Gm15124
Gm15317
Gm15486
Astx1a
Gm14532
Gm15055
Gm15485
Astx4c
Gm15462
Astx3
Gm15461
Gm15418
Gm15298
Gm14618
Gm14616
Gm14697
Gm14720
Astx1b
Gm15334
Gm15323
Gm15295
Gm15389
Gm15475
Gm14547
Gm15458
Gm15208
Gm15156
Gm15219
Gm15327
Gm14637
Gm15222
Gm15397
Gm15351
Gm14641
Gm14642
Gm15420
Gm14742
Gm14565
Gm14664
Gm15414
Gm15416
Gm15135
Gm15347
Gm14662
Astx4b
Gm14493
Gm15391
Gm14968
Gm15137
Gm15392
Gm14967
Gm15419
Gm14526
Gm13727
Astx4a
Gm14731
Gm14994
Gm14988
Gm15105
Gm14563
Gm15048
Gm15040
Gm15207
Gm15231
Gm14940
Gm14775
Gm15186
Gm15030
Gm15223
Gm15388
Gm14982
Gm15002
Gm14882
Gm14561
Gm14714
Gm14783
Gm15006
Gm15021
Gm15148
Gm14566
Gm14800
Gm14871
Gm15145
Gm15220
Gm14856
Gm14944
Gm14588
Gm15153
Gm14793
Gm14752
Gm14918
Gm14989
Gm15132
Gm15165
Gm14670
Gm14539
Gm15003
Gm15260
Gm15387
Gm15359
Gm14630
Gm14605
Gm15303
Gm14972
Gm14900
Gm15025
Gm12978
Gm14945
Gm15018
Gm14830
Gm15393
Gm15467
Gm14712
Gm14997
Gm15166
Gm15000
Gm15032
Gm15011
Gm14909
Gm14907
Gm15149
Gm14990
Gm15240
Gm15001
Gm15329
Gm15196
Gm11451
Gm15078
Gm14910
Gm15073
Gm14941
Gm14970
Gm15162
Rpl21-ps15
Gm15216
Gm14682
Gm14520
Gm14913
Gm14987
Gm14057
Gm15195
Gm14999
Gm15026
Gm15189
Gm14870
Gm15267
Gm14688
Gm15481
Gm15152
Gm14518
Gm14916
Gm14689
Gm15309
Rpl35a-ps2
Gm15062
Gm15357
Gm14646
Gm14931
Gm15074
Gm14932
Gm14914
Gm14675
Gm15421
Gm14973
Gm15157
Gm14795
Gm15159
Gm15120
Gm15213
Gm15005
Gm15071
Gm14930
Gm15171
Gm14977
Gm14633
Gm14975
Gm15154
Gm15076
Gm14911
Gm14768
Gm15065
Gm15399
Gm15177
Gm14897
Gm15067
Gm14704
Gm14993
Gm15269
Gm14631
Gm14559
Gm15194
Gm15168
Gm15227
Gm15129
Gm14730
Gm15061
Gm15211
Gm14995
Gm15331
Gm14969
Gm15297
Gm14903
Gm15160
Gm15044
Gm15187
Gm15455
Gm15014
Gm15081
Gm15224
Gm14971
Gm14984
Gm15009
Gm15193
Gm15225
Gm14765
Gm15465
Gm14538
Gm14846
Gm14899
Gm15426
Gm15185
Gm14680
Gm15242
Gm15244
Gm15034
Gm15047
Gm14884
Gm14919
Gm14678
Gm15377
Gm14926
Gm15285
Gm14943
Gm14912
Gm15016
Gm15190
Gm15483
Gm15425
Gm15151
Gm11400
Gm14998
Gm15049
Gm15400
Gm14757
Gm15174
Gm14946
Gm15382
Gm14915
Gm15004
Gm15215
Gm14517
Gm14736
Gm14791
Gm15332
Gm15116
Gm15038
Gm15075
Gm14979
Gm15459
Gm15079
Gm14746
Gm15233
Gm15442
Gm15146
Gm15289
Gm15282
Gm15209
Gm15170
Gm14976
Gm15358
Gm15058
Gm14985
Gm15484
Gm14672
Gm15010
Gm15172
Gm14681
Gm15237
Gm15203
Gm15212
Gm15214
Gm15096
Gm15263
Gm15235
Gm15060
Gm15012
Gm15158
Gm14906
Gm15161
Gm14904
Gm14719
Gm15175
Gm14584
Defa-ps4
Gm15176
Gm14644
Gm15444
Gm14497
Gm14590
Gm15188
Gm15126
Gm15167
Gm15103
Gm15121
Gm15087
Gm15141
Gm14957
Gm15111
Gm15095
Gm15439
Gm15113
Gm11546
Gm15019
Gm15264
Gm15437
Gm15436
Gm15125
Gm15106
Gm15147
Gm15192
Gm15266
Gm15142
Gm15108
Gm14991
Gm11543
Gm15112
Defa-ps11
Gm15110
Gm15094
Rpl10a-ps1
Gm15066
Gm14288
Gm11611
Gm15472
Gm15460
Gm15445
Gm15402
Gm15383
Gm15381
Gm15380
Gm15376
Gm15368
Gm15371
Gm15362
Gm14769
Gm14828
Gm14832
Gm15344
Gm14927
Gm14983
Gm14986
Gm15020
Gm15338
Hmgn2l6
Gm15294
Gm15268
Gm15206
Gm15191
Gm9987
Gm10462
Gm10434
Gm10418
Gm9812
Gm10813
Gm9818
Gm10849
Gm9823
Gm10805
Gm10038
Gm9864
Gm10794
Gm14296
Gm10711
Gm10728
Gm2564
Gm10481
Gm10205
Gm10025
Gm10359
Gm9825
Gm10172
Gm10067
Gm9939
Gm15077
Gm15118
Gm14410
Gm14326
Gm14391
Gm14157
Gm14282
Gm11192
Gm14851
Gm11397
Gm15366
Gm14760
Gm14698
Gm13625
Gm14431
Gm15039
Gm9969
Gm10256
Gm9780
Gm9747
Hist1h2ap
Gm10135
Hist1h2br
Gm10591
Gm14455
Mir290
Mir877
Gm12296
Gm12173
Gm14981
Gm13587
Gm13775
Gm15415
Gm13723
Gm13734
Gm13741
Gm13753
Gm13757
Gm13759
Gm13760
Gm13762
Gm13747
Gm13890
Gm11532
Gm13248
1700047I17Rik2
Cyp4a29-ps
Cyp4a30b-ps
Cyp4a32
Mir208b
Mir297a-3
Mir297a-4
Mir297c
Mir343
Mir466b-1
Mir466b-2
Mir466b-3
Mir466c-1
Mir466d
Mir466f-1
Mir466f-2
Mir466f-3
Mir466g
Mir466h
Mir467c
Mir467d
Mir467e
Mir504
Mir511
Mir582
Mir598
Mir653
Mir872
Mir874
Mir879
Mir449b
Mir467a-2
Mir467a-3
Mir467a-4
Mir467a-5
Mir467a-6
Mir467a-7
Mir467a-8
Mir466e
Mir692-2b
Mir466c-2
Cyp2d37-ps
Gm13789
Gm13997
Gm14027
Vmn2r-ps2
Vmn2r-ps3
Vmn2r-ps6
Vmn2r-ps7
Vmn2r-ps8
Vmn2r-ps9
Vmn2r-ps36
Vmn2r-ps37
Vmn2r-ps38
Gm13334
Vmn2r-ps40
Vmn2r-ps41
Vmn2r-ps42
Vmn2r-ps43
Vmn2r-ps44
Vmn2r41
Vmn2r-ps45
Vmn2r-ps46
Vmn2r45
Vmn2r-ps47
Vmn2r-ps49
Vmn2r-ps53
Vmn2r-ps55
Vmn2r-ps56
Vmn2r-ps58
Vmn2r-ps59
Vmn2r-ps62
Vmn2r-ps64
Vmn2r-ps65
Vmn2r-ps66
Gm12347
E330020D12Rik
Vmn2r-ps67
Vmn2r-ps68
Vmn2r-ps69
Vmn2r-ps70
Vmn2r-ps71
Vmn2r-ps72
Vmn2r-ps73
Vmn2r-ps74
Vmn2r-ps75
Vmn2r-ps76
Vmn2r-ps77
Vmn2r-ps78
Vmn2r-ps79
Vmn2r-ps80
Vmn2r-ps81
Vmn2r-ps82
Vmn2r-ps83
Vmn2r-ps84
Vmn2r-ps85
Vmn2r-ps86
Vmn2r-ps87
Vmn2r-ps23
Vmn2r-ps128
Vmn2r-ps129
Mir1224
E130208F15Rik
Hmgb1-ps1
Hmgb1-ps2
Hmgb1-ps3
Hmgb1-ps4
Gm15452
Rhox3b
Rhox3-ps
H60c
Hmgb1-ps5
Hmgb1-ps6
Srsx
Gm10476
Gm11077
Gm11084
Gm11096
Gm11099
Gm11100
Gm11105
Gm11107
Gm11109
Gm11111
Gm11114
Gm11115
Gm11116
Gm11131
Gm11146
Gm11168
Gm4791
Prps1l3
Gm5141
Gm5633
Snord15b
Tmem181b-ps
Gm6098
Gm6158
Gm6182
Gm6205
Gm6344
Gm6619
Gm6633
Gm6710
Gm6803
Gm6821
Gm6903
Gm7029
Gm7097
Gm7104
Gm7230
Gm7293
Gm7309
Gm7418
Gm7421
Gm7437
Gm7876
Gm7995
Gm8050
Gm8221
Gm8256
Gm8265
Gm8356
Gm8577
Gm8801
Gm8810
Gm8893
Gm8923
Gm9200
Gm9457
Ccnb2-ps
Gm9493
Gm9506
Gm9575
Gm9577
Gm9581
Gm9587
Gm9599
Gm9603
Vmn1r-ps74
Gm9611
Gm9612
Gm9613
Gm9630
Gm9671
Gm9697
Gm9703
Gm9719
Gm9742
Trav9d-3
Gm1980
Gm1989
Gm1992
Gm2000
Gm2001
Gm2004
Gm2005
Gm2007
Gm2018
Gm2020
Gm2022
Gm2026
Gm2035
Gm2044
Gm2046
Gm2056
Gm2066
Gm2075
Gm2101
Gm2108
Gm2128
Gm2163
Gm2178
Gm2199
Gm2200
Gm2214
Gm2237
Gm2244
Gm2245
Gm2301
Gm2302
Gm2308
Gm2310
Gm2399
Gm2415
Gm2420
Gm2541
Gm2566
Gm2568
Gm2666
Gm2673
Gm2777
Gm2788
Gm2790
Gm2792
Gm2800
Gm2810
Gm2822
Tmem181c-ps
Gm2830
Gm2840
Gm2854
Gm2855
Gm2862
Gm2864
Gm2869
Gm2877
Gm2895
Gm2916
Gm2927
Gm2956
Gm2962
Gm2974
Gm2976
Gm2986
Gm2991
Gm3002
Gm3015
Gm3025
Gm3033
Gm3053
Gm3054
Gm3072
Gm3076
Gm3077
Gm3084
Gm3095
Gm3099
Gm3102
Gm3106
Gm3111
Gm3138
Gm3139
Gm3141
Gm3147
Gm3150
Gm3164
Rpl35a-ps7
Gm3170
Gm3173
Rpl23a-ps3
Gm3176
Gm3182
Gm3183
Gm3187
Gm3191
Gm3194
Gm3208
Gm3211
Gm3267
Gm3272
Gm3275
Gm3278
Gm3287
Gm3294
Gm3297
Gm3326
Gm3327
Gm3329
Gm3339
Vmn1r-ps9
Gm3344
Gm3345
Gm3348
Gm3355
Gm3362
Gm3370
Gm3371
Gm3373
Gm3376
Gm3411
Gm3424
Gm3436
Gm3443
Mpc1-ps
Gm3453
Vmn1r-ps46
Gm3468
Gm3470
Gm3476
Gm3486
Gm3512
Gm3513
Gm3526
Gm3531
Gm3543
Gm3550
Gm3555
Gm3563
Gm3573
Gm3584
Gm3585
Gm3604
Gm3611
Gm3617
Gm3618
Gm3623
Gm3625
Gm3629
Gm3633
Gm3642
Gm3644
Gm3654
Gm3667
Gm3675
Gm3676
Gm3681
Gm3687
Gm3695
Gm3699
Gm3706
Gm3712
Gm3715
Gm3727
Gm3739
Gm3750
Gm3755
Gm3756
Gm3757
Gm3765
Gm3810
Gm3828
Gm3833
Gm3835
Gm3839
Gm3848
Vmn1r-ps65
Gm3852
Trav4d-3
Gm3867
Gm3940
Gm3943
Gm3944
Gm3956
Gm3959
Gm3962
Gm3965
Gm3968
Gm3972
Gm3977
Gm3978
Gm3980
Gm3981
Gm3984
Gm3985
Gm3987
Gm3989
Gm3993
Gm3994
Gm3996
Gm3998
Gm4001
Gm4003
Gm4011
Gm4016
Gm4018
Gm4023
Gm4027
Gm4073
Gm4076
Gm4117
Gm4128
Gm4134
Gm4149
Gm4152
Vmn1r-ps73
Gm4167
Gm4181
Gm4189
Gm4202
Gm4204
Gm4219
Gm4222
Vmn1r-ps84
Gm4245
Gm4246
Gm4252
Gm4256
Gm4271
Gm4279
Gm4285
Gm4287
Trav3d-3
Gm4294
Trav12n-1
Gm4308
Rps19-ps1
Trav9n-3
Trav3n-3
Gm4353
Gm4409
Gm4454
Gm4459
Gm4462
Gm4468
Gm4473
Gm4479
Gm4482
Gm4491
Gm4524
Gm4535
Gm4540
Gm4553
Gm4558
Gm4577
Gm4596
Gm4604
Gm4613
Gm4631
Gm4660
Gm4675
Scgb1b21
Gm4724
Gm4725
Gm4726
Gm4732
Gm14311
Gm15022
Gm15320
Gm15321
Gm15490
Gm15491
Gm15492
Gm15493
Gm15494
Gm15495
Gm15497
Gm15498
Gm15499
Gm15500
Gm15502
Gm15503
Gm15504
Rpl15-ps3
Gm15506
Gm15507
Gm15508
Gm15509
Gm15510
Gm15511
Gm15512
Gm15513
Gm15515
Gm15516
Gm15517
Gm15519
Gm15520
Gm15521
Gm15522
Gm15523
Gm15524
Gm15525
Gm15528
Gm6939
Gm15529
Gm15530
Gm15531
Gm15532
Gm15533
Gm15535
Gm15537
Gm15538
Gm15539
Gm15540
Gm15541
Gm15542
Gm15543
Gm15544
Gm15546
Gm15547
Gm15549
Gm15550
Gm15551
Gm15552
Gm15554
Gm15555
Gm15556
Gm15557
Gm15560
Gm15561
Gm15562
Gm15563
Gm15564
Gm15565
Gm15566
Gm15567
Gm15568
Gm15570
Gm15571
Gm15573
Gm15574
Gm15575
Gm15576
Gm15578
Gm15581
Gm15582
Gm15584
Gm15585
Gm15586
Gm15587
Gm15589
Gm15591
Gm15592
Gm15594
Gm15595
Gm15596
Gm15597
Gm15598
Gm15599
Gm15600
Gm15601
Gm15602
Gm15603
Gm15604
Gm15605
Gm15606
Gm15607
Gm15609
Gm15610
Gm15611
Gm15613
Gm15614
Gm15615
Gm15616
Gm15617
Gm15618
Gm15619
Gm15620
Gm15621
Gm15622
Gm15624
Gm15625
Gm15626
Gm15627
Gm15628
Gm15629
Rpl7a-ps9
Gm15631
Gm15632
Gm15633
Gm15634
Gm15635
Gm15636
Gm15637
Gm15640
Gm15641
Gm15642
Gm15643
Gm15645
Gm15647
Gm15648
Gm15649
Gm15650
Gm15651
Gm15652
Gm15653
Gm15654
Gm15656
Gm15657
Gm15658
Gm15660
Gm15661
Gm15665
Gm15668
Gm15669
Gm15670
Gm15671
Gm15672
Gm15673
Gm15674
Gm15675
Gm15676
Gm15677
Gm15678
Gm15679
Gm15680
Gm15681
Gm15682
Gm15683
Gm15684
Gm15685
Gm15686
Gm15687
Gm15689
Gm15690
Gm15691
Gm15692
Gm15693
Gm15694
Gm15696
Gm15699
Gm15700
Gm15701
Gm15702
Gm15703
Gm15704
Gm15705
Gm15709
Gm15710
Gm15711
Gm15712
Gm15714
Gm15715
Gm15716
Gm15717
Gm15718
Gm15719
Hmgn2-ps1
Gm15720
Gm15721
Gm15722
Gm15723
Gm15724
Gm15727
Gm15728
Gm15729
Gm15730
Gm15731
Gm15733
Gm15734
Gm15735
Gm15736
Gm15737
Gm15738
Gm15739
Gm15740
Gm15741
Gm15742
Gm15743
Gm15744
Gm15745
Gm15746
Gm15747
Rpl31-ps6
Gm15749
Gm15750
Gm15751
Gm15752
Gm15753
Gm15754
Gm15755
Gm15756
Gm15757
Gm15758
Gm15759
Gm15762
Gm15763
Gm15764
Gm15766
Gm15767
Gm15770
Rpl31-ps22
Gm15773
Gm15774
Gm15775
Gm15776
Gm15777
Gm15778
Gm15779
Gm15780
Gm15782
Gm15783
Gm15784
Gm15785
Gm15788
Gm15789
Gm15790
Gm15791
Gm15792
Gm15794
Gm15847
Gm15854
Gm15887
Gm16026
Gm16060
Mir1186
Mir1190
Mir1192
Mir1195
Mir1196
Mir1198
Mir1199
Mir1b
Mir466f-4
Mir466j
Mir466k
Mir466l
Mir467g
Mir467h
Mir669d
Mir669e
Mir669f
Mir669g
Mir669h
Mir669i
Mir669j
Mir669k
1700049E17Rik2
Gm9732
EU599041
Gm10807
Gm12588
Gm9631
Trav15d-2-dv6d-2
Gm16029
Gm16131
Gm16130
Gm15865
Gm16156
Gm15982
Gm15981
Gm16214
Gm16213
Gm16012
Gm16215
Gm16216
Gm15839
Gm15949
Gm15948
Gm15852
Gm15851
Gm16172
Gm16154
Gm16105
Gm15918
Gm14335
Gm15896
Gm15886
Gm15878
Gm16239
Gm15947
Gm16104
Gm16158
Gm16177
Gm15518
Gm15885
Gm15989
Gm15988
Gm15969
Gm16190
Gm16191
Gm16070
Gm16098
Gm16171
Gm15881
Gm15882
Gm16196
Gm16194
Gm16195
Gm15938
Gm16072
Gm16071
Gm15860
Gm16143
Gm16144
Gm16178
Gm16007
Gm15985
Gm16013
Gm16204
Gm16228
Gm16227
Gm16226
Gm15815
Gm15891
Gm16011
Gm16199
Gm15803
Gm15802
Gm16081
Gm16146
Gm15904
Gm15608
Gm16175
Gm15992
Gm15868
Gm16015
Gm16014
Gm15991
Gm15813
Gm16055
Gm16054
Gm15857
Gm16069
Gm15846
Gm15845
Gm16151
Gm16150
Gm15939
Gm15893
Gm15892
Gm14533
Gm16052
Gm16050
Gm16032
Gm15862
Gm15842
Gm15796
Gm16004
Gm15872
Gm15900
Gm15987
Gm15923
Gm16006
Gm16005
Gm16048
Gm15956
Gm16174
Gm15823
Gm15894
Gm15841
Gm15869
Gm15867
Gm15863
Gm16020
Gm16234
Gm16206
Gm16019
Gm16203
Gm15866
Gm15883
Gm15945
Gm16235
Gm16138
Gm15979
Gm16205
Gm16089
Gm16090
Gm16122
Gm15825
Gm15856
Gm15927
Gm16036
Gm16035
Gm15829
Gm15935
Gm15912
Gm15934
Gm15884
Gm15976
Gm16161
Gm16222
Gm16224
Gm16225
Gm15859
Gm16243
Gm15906
Gm16241
Gm15951
Gm16041
Gm16040
Gm15831
Gm15830
Gm16113
Gm16111
Gm16061
Gm16087
Gm15835
Gm16117
Gm16118
Gm16242
Gm16200
Gm15994
Gm15907
Gm15908
Gm16180
Gm15920
Gm16042
Gm16086
Gm16085
Gm16084
Gm15820
Gm15975
Gm16159
Gm16212
Gm15919
Gm16066
Gm16064
Gm16217
Gm15818
Gm15840
Gm16074
Gm15875
Gm15972
Gm16031
Gm16094
Gm15853
Gm16155
Gm15917
Gm16112
Gm16110
Gm15824
Gm16075
Gm15877
Gm16028
Gm16095
Gm16096
Gm16179
Gm16045
Gm16043
Gm16044
Gm15990
Gm16240
Gm15970
Gm16165
Gm16168
Gm16169
Gm15879
Gm16145
Gm16079
Gm16078
Gm16186
Gm16229
Gm16230
Gm16192
Gm16193
Gm16058
Gm16057
Gm16056
Gm16059
Gm15936
Gm16053
Gm15849
Gm15903
Gm16181
Gm16116
Gm15810
Gm15809
Gm16008
Gm16167
Gm15984
Gm15986
Gm16198
Gm16022
Gm15848
Gm15873
Gm16080
Gm16153
Gm16152
Gm16100
Gm16099
Gm15870
Gm16188
Gm16017
Gm15895
Gm16108
Gm16049
Gm15957
Gm16034
Gm16033
Gm16211
Gm15844
Gm15901
Gm15940
Gm15942
Gm16076
Gm16231
Gm15929
Gm16047
Gm16046
Gm16209
Gm16208
Gm16164
Gm15799
Gm15798
Gm15943
Gm15999
Gm16238
Gm16237
Gm15932
Gm15996
Gm15995
Gm16218
Gm15978
Gm16021
Gm16232
Gm15816
Gm15864
Gm15817
Gm16001
Gm16142
Gm16141
Gm16140
Gm15828
Gm16244
Gm16121
Gm16120
Gm15902
Gm16137
Gm16135
Gm15911
Gm15963
Gm15962
Gm15961
Gm16160
Gm16025
Gm16024
Gm15953
Gm16202
Gm16201
Gm16184
Gm16133
Gm16132
Gm16134
Gm15889
Gm15890
Gm15980
Gm16083
Gm16220
Gm15898
Gm16185
Gm16126
Gm16127
Gm16183
Gm15819
Gm15888
Gm16073
Gm3608
Gm7052
Gm5561
Gm14306
Gm11705
Gm11398
Gm15983
Gm15655
Gm15931
Gm15646
Gm15732
Gm7148
Gm7361
Dynlt1c
Sirpb1c
Gm10323
Gm16280
Gm11143
Gm3055
Gm4207
Trav9n-1
Gm3898
Gm9574
Gm10778
Gm4567
Gm4425
Gm10087
Gm3435
Mir1904
Mir1898
Mir1893
Ighv1-23
Ighv1-24
Trav5-1
Ighv8-8
Scarna10
Scarna17
Scarna2
Scarna3a
Scarna3b
Scarna6
Scarna8
Scarna9
Snora15
Snora19
Snora20
Snora21
Snora23
Snora28
Snora2b
Snora3
Snora30
Snora31
Snora33
Snora34
Snora36b
Snora41
Snora52
Snora5c
Snora61
Snora75
Snora81
Snord100
Snord11
Snord110
Snord111
Snord12
Snord16a
Snord17
Snord19
Snord2
Snord23
Snord37
Snord38a
Snord42a
Snord42b
Snord45b
Snord45c
Snord4a
Snord53
Snord55
Snord57
Snord64
Snord65
Snord66
Snord67
Snord68
Snord69
Snord70
Snord71
Snord72
Snord8
Snord83b
Snord85
Snord90
Snord91a
Snord92
Snord93
Snord95
Snord96a
Snord98
Snord99
Igkv4-78
Igkv1-135
Trav14d-3-dv8
Gm16267
Gm16252
Gm16310
Gm16266
Gm16249
Gm16250
Gm15569
Gm16248
Gm16316
Gm16253
Gm16311
Gm16262
Gm15205
Gm16263
Gm16285
Gm16298
Gm16299
Gm16284
Gm16277
Gm16295
Gm16306
Gm16307
Gm16268
Gm16312
Gm16321
Gm16320
Gm16318
Gm16315
Gm16317
Gm16251
Gm16246
Gm16302
Gm16279
Gm16257
Gm16256
Gm16303
Gm16300
Gm13901
Gm16282
Gm16283
Gm16308
Gm16292
Gm16273
Gm16260
Gm16275
Gm16276
Gm15249
Gm16278
Gm16272
Gm16323
Gm16288
Gm16322
Gm16271
Gm2350
Zbed6
Gm15590
Gm15797
Gm15725
Gm15954
Gm16163
Gm16314
Gm16286
Gm15832
Mir1981
Mir1927
Mir1929
Mir1930
Mir1933
Mir1935
Mir1936
Mir1938
Mir1942
Mir1943
Mir1306
Mir1947
Mir1948
Mir1949
Mir1950
Mir669l
Mir669m-1
Mir669m-2
Mir669o
Mir1951
Mir1954
Mir669n
Mir1957
Mir1958
Mir1960
Mir1963
Mir1964
Mir1965
Mir1966
Mir1968
Mir1982
Mir1839
Gm16552
Gm16348
Gm16349
Gm16355
Gm16354
Gm16359
Gm16357
Gm16358
Gm16356
Gm16339
Gm16326
Gm16343
Gm16344
Gm16350
Gm16352
Gm16367
Sprr2a3
Npcd
Vmn1r-ps69
Vmn1r-ps86
Vmn1r238
Snord107
Mir2139
Gm16518
Gm16519
Gm16523
Gm16532
Gm16534
Gm16553
Gm16536
Gm16537
Gm16538
Gm16540
Gm16541
Gm16542
Gm16549
Gm16554
Gm16555
Gm16556
Gm16557
Gm16559
Gm16560
Gm16561
Gm16563
Gm16564
Gm16565
Gm16567
Gm16568
Gm16570
Gm16572
Gm16573
Gm16574
Gm16575
Gm16577
Gm16578
Gm16579
Gm16580
Gm16581
Gm16582
Gm16583
Gm16584
Gm16586
Gm16587
Gm16589
n-R5-8s1
n-R5s2
n-R5s3
n-R5s5
n-R5s6
n-R5s7
n-R5s8
n-R5s9
n-R5s10
n-R5s12
n-R5s13
n-R5s14
n-R5s15
n-R5s16
n-R5s18
n-R5s19
n-R5s21
n-R5s23
n-R5s24
n-R5s25
n-R5s26
n-R5s27
n-R5s28
n-R5s29
n-R5s30
n-R5s31
n-R5s32
n-R5s33
n-R5s34
n-R5s36
n-R5s37
n-R5s39
n-R5s40
n-R5s41
n-R5s42
n-R5s43
n-R5s45
n-R5s46
n-R5s47
n-R5s48
n-R5s50
n-R5s51
n-R5s52
n-R5s54
n-R5s56
n-R5s58
n-R5s60
n-R5s61
n-R5s62
n-R5s63
n-R5s64
n-R5s65
n-R5s67
n-R5s68
n-R5s69
n-R5s70
n-R5s71
n-R5s72
n-R5s73
n-R5s74
n-R5s76
n-R5s77
n-R5s79
n-R5s80
n-R5s82
n-R5s84
n-R5s85
n-R5s86
n-R5s87
n-R5s88
n-R5s89
n-R5s90
n-R5s92
n-R5s93
n-R5s94
n-R5s95
n-R5s96
n-R5s97
n-R5s98
n-R5s101
n-R5s102
n-R5s106
n-R5s107
n-R5s109
n-R5s112
n-R5s114
n-R5s115
n-R5s118
n-R5s119
n-R5s120
n-R5s125
n-R5s127
n-R5s129
n-R5s130
n-R5s131
n-R5s150
n-R5s151
n-R5s152
n-R5s153
n-R5s154
n-R5s155
n-R5s156
n-R5s157
n-R5s158
n-R5s159
n-R5s160
n-R5s161
n-R5s162
n-R5s164
n-R5s165
n-R5s166
n-R5s167
n-R5s168
n-R5s169
n-R5s170
n-R5s171
n-R5s172
n-R5s173
n-R5s174
n-R5s175
n-R5s176
n-R5s178
n-R5s179
n-R5s180
n-R5s182
n-R5s183
n-R5s185
n-R5s187
n-R5s188
n-R5s189
n-R5s191
n-R5s192
n-R5s193
n-R5s194
n-R5s195
n-R5s196
n-R5s197
n-R5s198
n-R5s200
n-R5s201
n-R5s202
n-R5s204
n-R5s205
n-R5s207
n-R5s209
n-R5s210
n-R5s211
n-R5s213
n-R5s214
n-R5s215
n-R5s216
n-R5s217
n-R5s218
n-R5s219
n-R5s220
Vmn1r2
Vmn1r221
Vmn1r-ps63
Trav15-1-dv6-1
Ighv5-12
Ighv2-5
Ighv2-6
Ighv2-9-1
Ighv2-7
Gm16599
Trgj3
Ighv5-17
Ighv3-1
Ighv11-1
Ighv4-1
Gm16618
Trdd2
Trdd1
Ighv5-16
Ighv1-58
Igkv1-110
Igkv14-100
Igkv12-98
Igkv10-96
Gm16638
Trbj1-5
Trbj1-4
Trbj1-3
Trbj1-2
Trbj1-1
Trbd1
Trbj1-7
Trbj1-6
Traj9
Traj11
Traj19
Traj16
Traj14
Traj15
Traj12
Traj13
Traj35
Traj34
Traj33
Traj32
Traj40
Traj39
Traj38
Traj37
Traj30
Trgj2
Ighv14-2
Gm16686
Igkv1-35
Igkv18-36
Igkv12-38
Igkv6-29
Ighv1-4
Ighv6-6
Ighv10-1
Ighv1-9
Ighv7-1
Ighv7-2
Ighv2-9
Ighv1-69
Ighv1-72
Gm16710
Ighv1-81
Ighv1-36
Ighv1-37
Ighv1-26
Gm16722
Gm16725
Gm16726
Igkv4-80
Gm16731
Ighj4
Ighv1-34
Gm16741
Ighv1-77
Ighv1-82
Gm16751
Gm16758
Gm16759
Gm16764
Traj57
Traj56
Traj59
Traj58
Traj53
Traj52
Ighd2-5
Ighd2-8
Ighd3-2
Ighd2-3
Ighd2-4
Ighv1-56
Ighv1-55
Igkv1-117
Igkv1-122
Igkv1-99
Trbc1
Trbd2
Trbj2-1
Trbj2-2
Trbj2-4
Trbj2-7
Ighv8-13
Ighv1-75
Ighv1-78
Ighv1-76
Ighv1-80
Traj21
Traj20
Traj27
Traj26
Traj29
Traj28
Traj23
Traj22
Traj25
Traj24
Ighv1-52
Ighv1-50
Ighv1-49
Gm16832
Gm16833
Gm16835
Trav16
Gm16838
Ighv7-4
Ighv14-3
Ighv14-4
Ighv7-3
Ighj3
Igkv12-41
Igkv12-46
Igkv5-45
Igkv12-44
Ighv1-19
Ighv1-18
Ighv1-14
Ighv1-15
Ighv1-22
Ighv1-64
Gm16876
Ighd4-1
Ighj1
Ighj2
Ighv5-9-1
Ighv2-6-8
Ighv5-15
Ighv5-6
Igkv4-61
Ighv1-61
Ighv1-66
Igkv1-88
Igkv12-89
Igkv4-90
Trac
Traj4
Traj3
Traj1
Traj8
Traj7
Traj6
Traj41
Traj42
Traj48
Traj51
Traj43
Traj44
Traj45
Traj46
Ighv6-3
Ighv13-1
Ighv3-6
Gm16933
Igkv14-111
Trav15n-1
Ighd2-6
Ighd2-7
Igkv6-25
Igkv8-27
Igkv8-26
Ighd1-1
Ighv2-3
Ighv5-9
Igkv2-137
Ighv1-39
Ighv1-31
Ighv1-47
Ighd3-1
Gm16968
Ighv5-2
Ighv2-2
Ighv5-4
Trbj2-3
Trbj2-5
Gm16976
Trav9-2
Trav13-1
Trav6-6
Gm16984
Ighv9-1
Igkv4-56
Ighv14-1
Ighv1-2
Trav4-3
Trgj1
Trav13d-4
Traj50
Traj31
Traj18
Traj17
Trav12-1
Traj49
Mir1186b
Mir3471-2
Mir3473
Mir3474
Gm17014
Trdv2-2
Trdj1
Gm17017
Gm17018
Trim30b
Mir669a-4
Mir1249
Mir3058
Mir3106
Mir3057
Mir3060
Mir3062
Mir3064
Mir3066
Mir3067
Mir3068
Mir3073
Mir3074-1
Mir3076
Mir3077
Mir3082
Mir466m
Mir669d-2
Mir4660
Mir669a-5
Mir669a-6
Mir466b-4
Mir669a-7
Mir669p-1
Mir466b-6
Mir669a-9
Mir466b-7
Mir669p-2
Mir669a-10
Mir467a-9
Mir669a-11
Mir467a-10
Mir669a-12
Mir466p
Mir466n
Mir3088
Mir3092
Mir3094
Mir3095
Mir3096
Mir3097
Mir3100
Mir3101
Mir3102
Mir3103
Mir3104
Mir3108
Mir3112
Mir466b-8
Mir466b-5
Mir3113
Zfp955a
Zfp955b
BC147527
Hist1h4n
Trdv4
Gm17244
Gm17251
Gm17257
Gm17267
Gm17268
Gm17271
Gm17300
Gm17304
Gm17305
Gm17309
Gm17324
Gm17330
Gm17332
Gm17333
Gm17334
Gm17337
Gm17344
Ighv2-1
Gm17349
Gm17354
Gm17361
Gm17364
Gm17374
Gm17377
Gm17383
Gm17387
Gm17391
Gm17396
Gm17402
Gm17404
Gm17409
Gm17412
Gm17414
Gm17415
Gm17416
Gm17420
Gm17421
Gm17428
Gm17430
Gm17449
Gm17467
Gm17469
Gm17477
Gm17482
Gm17490
Gm17494
Gm17509
Gm17511
Gm17521
Gm17522
Gm17530
Gm17535
Gm17541
Gm17542
Gm17545
Gm17546
Gm17555
Gm17566
Gm17567
Gm17571
Gm17572
Gm17576
Gm17577
Gm17581
Gm17584
Gm17590
Gm17604
Gm17606
Gm17611
Gm17613
Gm17615
Gm17617
Gm17618
Gm17622
Gm17631
Gm17641
Gm17651
Gm17654
Gm17655
Gm17657
Gm17661
Gm17662
Gm17669
Gm17673
Gm17678
Gm17688
Gm17693
Gm17705
Gm17720
Gm17728
Gm17732
Gm17020
Gm17021
Gm17024
Gm17025
Gm17026
Gm17027
Gm17029
Gm17031
Gm17032
Gm17033
Gm17034
Gm17035
Gm17037
Gm17039
Gm17040
Gm17041
Gm17042
Gm17043
Gm17052
Gm17053
Gm17054
Gm17055
Gm17056
Gm17057
Gm17058
Gm17063
Gm17065
Gm17066
Gm17067
Gm17068
Gm17071
Gm17072
Gm17075
Gm17076
Gm17077
Gm17079
Gm17091
Gm17092
Gm17093
Gm17096
Gm17098
Gm17099
Gm17102
Gm17103
Gm17104
Gm17106
Gm17111
Gm17112
Gm17115
Gm17117
Gm17118
Gm17120
Gm17122
Gm17124
Gm17130
Gm17131
Gm17132
Gm17134
Gm17135
Gm17136
Gm17137
Gm17138
Gm17139
Gm17140
Gm17141
Gm17142
Gm17146
Gm17157
Gm17163
Gm17168
Gm17169
Gm17171
Gm17175
Gm17179
Gm17180
Gm17182
Gm17189
Gm17191
Gm17192
Gm17193
Gm17194
Gm17195
Gm17198
Gm17199
Gm17200
Gm17202
Gm17206
Gm17207
Gm17209
Gm17217
Gm17218
Gm17219
Gm17225
Gm17226
Gm17227
Gm17231
Gm17235
Mir5125
Mir3473c
Mir3473d
Mir3572
Mir3971
Mir446q
Mir5097
Mir5098
Mir5101
Mir5105
Mir5107
Mir5109
Mir5114
Mir5115
Mir5117
Mir5120
Mir5123
Mir5124
Mir5129
Mir5131
Mir5134
Gm20412
Gm17782
Gm17907
Gm17919
Gm18128
Gm18191
Gm18199
Gm18200
Gm18201
Gm18343
Gm18354
Gm18358
Gm18359
Gm18360
Gm18489
Gm18520
Gm18522
Gm18560
Gm18604
Gm18733
Gm18734
Gm18737
Gm18756
Gm18779
Gm18808
Gm18833
Gm18958
Gm19203
Gm19246
Gm19684
Gm19807
Gm20287
Gm20413
Gm20386
Gm20387
Gm20389
Gm20390
Gm20391
Gm20392
Gm20396
Gm20397
Gm20399
Gm20401
Gm20403
Gm20404
Gm20409
Gm20411
Gm20414
Gm20415
Gm20416
Gm20418
Gm20419
Gm20421
Gm20422
Gm20425
Gm20426
Gm20427
Gm20429
Gm20431
Gm20432
Gm20433
Gm20434
Gm20438
Gm20441
Gm20442
Gm20443
Gm20444
Gm20447
Gm20449
Gm20450
Gm20451
Gm20452
Gm20453
Gm20454
Gm20456
Gm20457
Gm20458
Gm20459
Gm20460
Gm20461
Gm20462
Gm20463
Gm20464
Gm20465
Gm20468
Gm20469
Gm20474
Gm20475
Gm20476
Gm20477
Gm20478
Gm20479
Gm20480
Gm20481
Gm20482
Gm20483
Gm20484
Gm20485
Gm20488
Gm20489
Gm20490
Gm20493
Gm20495
Gm20496
Gm20497
Gm20498
Gm20499
Gm20500
Gcom1
Gm20503
Gm20505
Gm20506
Gm20507
Gm20508
Gm20509
Gm20510
Gm20512
Gm20513
Gm20517
Gm20518
Gm20519
Gm20521
Gm20522
Gm20523
Gm20524
Gm20525
Gm20526
Gm20527
Gm20529
Gm20530
Gm20531
Gm20532
Gm20534
Gm20537
Gm20538
Gm20539
Gm20540
Gm20541
Gm20542
Gm20543
Gm20544
Gm20545
Gm20546
Gm20547
Gm20548
Gm20549
Trav12-2
Gm20554
Gm20563
Gm20604
Gm20605
Gm20721
Gm20727
Gm20634
Gm20661
Gm20696
Gm20715
Lrrc70
PIAS2
KATNAL2
NCAM2
FGF7
ATP5E
KRTAP7-1
GCNT7
ZBTB26
BTF3P11
PLK1S1
CA12
RAE1
DOCK8
USP3
PSPC1
IGLL1
MAGEL2
ARPC5L
GJA3
SCAI
RPS4X
C18orf32
SLC35A2
TRPM7
PIM2
UBE3A
MIF
PINX1
TMEM154
ZDHHC20
KRTAP19-1
KRTAP19-5
KCND1
PSAT1P1
ATP10A
KRTAP21-1
AK3
WDR89
SLC6A11
IL2
UBXN8
UNCX
POTEH
TMEM184C
SNRPD3
CLMN
PTCHD3
SLC25A6
GDF2
PPM1L
BRI3BP
ANKRD22
UCP1
SNRPC
TLR2
C11orf31
DGKK
FTH1P16
POLR3K
SUMO2P7
KPNB1
C6orf62
TIAL1
HHIP
RECQL4
IFNGR1
IL1RN
PTPN20B
COX18
RASGRP2
STXBP2
SGCA
C1D
NEPNP
PPIAP31
HSD17B8
RNF41
MLANA
FCGR1A
ANAPC10
UCN
HERC2
HIST2H2BF
NAA10
NHLRC2
GATA5
HIST2H3C
CYP4F8
ABHD16A
PADI6
COL1A1
SNF8
BCL2L10
BOLA1
ATL3
SV2A
TFB1M
PRIM2
CD40
ZMPSTE24
C19orf59
C8orf82
FGB
PERP
TMEM97
C21orf62
IKZF5
CMBL
RPLP2P1
FXR1
SF3B4
LRSAM1
HCFC1
PRSS41
ZNF192P1
PHKA1
AP5B1
HSPA4L
PSAT1P3
IL10RB
IFT20
RPL23A
C10orf118
ZBED6
ABO
HEBP2
MARCH6
CYCTP
MTMR11
WIPF1
SPATA1
BTNL10
TAMM41
KAZALD1
LINC00094
ELMO1
GPKOW
MYO5A
KY
PKD1L3
MED1
NR2E3
MAGIX
TMEM69
ADAT2
CDK8
NDUFA1
DNAJC28
GLRX5
ID4
SLC3A1
LBX1
DMRTC1B
WDR70
CCL24
SKA1
RHBDD2
CD19
NEK8
GART
CEACAM20
MAPK4
SEC22B
PEX3
SNHG6
MRPS36
PLP2
UBTFL1
CDK7
USP38
MRO
PHLDA1
TMEM53
CYP21A1P
CYP3A4
SNHG10
TNXA
CASP8AP2
GID8
C14orf132
PPP1R2P1
SGCD
FUCA2
CAMK4
CDX4
LURAP1L
RHOXF2
CWC15
MAVS
ZBTB33
VN1R5
GSX1
NEFL
RLIM
TMEM255A
NCR1
EXOC6B
CCNL1
MGMT
CACNA1F
SEC1P
STARD4
DPP8
ZC3H12D
C6orf89
CYP3A43
COL4A4
PAN3
TMEM199
OTUB1
SBF2
SCT
BDKRB1
CCDC125
SEC23IP
CCL4
B3GALT4
NUTF2
COL4A3
WDR46
NEUROD2
AP3M1
SPON1
LY6G6D
C1QA
ALDOAP2
ZNF334
C1QC
OPN1LW
PGPEP1L
SEBOX
ZNF29P
NAA50
NSUN4
KCNH2
GP6
JRK
SOX2-OT
C17orf58
TUG1
CA14
HHEX
OPN1MW
GINM1
MTUS2
DCC
CCDC22
ANKRD32
FERMT3
C1QTNF3
ORC2
RAB5B
OPLAH
COMMD1
TKTL1
TTC23
GJE1
SUPT3H
TRGJP2
TMEM120A
EPS8L1
IL7R
RAB9A
WAC
ARC
PPP2R2D
PDGFC
TMEM18
SMARCAL1
PSCA
RAD17
HMGB1
ATM
LY6K
METTL8
QPRT
UBXN2A
C1orf54
ABT1
FOXP3
PFDN6
CTRL
HK1
GNAT1
RGL2
APOBEC2
ZDHHC21
LYVE1
NFYA
TEX26
FAM171B
BMS1
VEGFB
AMZ2
MRPS21
PCGF1
MMP16
GNAI2
FLNA
SSTR2
FGF20
SH3RF3
OFCC1
PRPF3
ZNF322
PNPO
PLCB3
STX11
LY6G6C
BMP10
PRX
RIMKLA
CYP4A22
SERTAD1
SNAPC3
PIGA
NBN
CLCN5
SARM1
MAGEE1
FGF16
ACTG1
GSC2
ATRX
BRCA2
PCBD2
KCNE2
PAGR1
RPL37A
AKAP4
METRN
IFRD2
ACAT2
CD177
ICA1L
MTMR7
RAN
AGFG1
DCUN1D1
C7orf73
CYP11B1
XKR5
RPS19
MCTS1
DDAH2
HIST1H4I
MEGF11
PITX1
HSD17B1
SHROOM4
FGF8
HYAL3
ZDHHC24
DYRK2
SLC2A4RG
SLC16A6
BEND5
CLIC1
LEPRE1
AVPR1B
SYAP1
SLC46A1
IFIT1
CTSE
AGRN
MS4A2
HSPB8
GULP1
FAM90A13P
AGAP11
SRGAP2
NAT6
MGAT4C
TCAP
CHRNA7
SYT5
FAF1
IKBKE
BMP15
METTL10
NUDT11
LINS
MSH5
GSPT2
RASSF5
FAU
CIAO1
ZNF575
TXNL1
COL3A1
MAGED1
COX7B
ATP7A
PCDH12
SSBP1
CAV3
RPLP2
PANK1
NXPH3
SSBP2
TIPIN
ATP5G3
SRP19
RBM14
STIM1
MRPL40
HYAL2
DCLK1
EMD
ADAM10
IL20
CFI
GPLD1
PLAC9
MGAM
ITGA4
FAIM3
DAXX
STAT2
BCDIN3D
FECH
RNF7
TTC37
ACER2
RPL4
CNR2
GOLIM4
SLC24A2
MARVELD2
RASSF1
MS4A1
FOXN1
OCLN
INHBA
POLA2
FSCN2
AQP5
IDO1
TBL1XR1
SOX14
RFXAP
KIFC1
MS4A18
EVX2
PARVA
INO80E
HIGD1A
LSM11
PPP2R1B
DNASE1L1
SLFN5
ATG10
LHFPL4
CFL2
TIFAB
MYO1F
SLC25A12
PTPLAD2
SLC35F5
CD55
CLEC5A
RTN4IP1
POLH
TAS2R38
PF4
SLC7A6OS
PPBP
SLC35B1
CD81
GPR150
CDKN2A
SP110
ADAMTS10
FAM20A
BRIX1
TMEM72
TMEM238
EPGN
SFT2D1
NUMBL
ZNF277
SPNS2
POU3F3
GP1BB
TBX1
HMGB2
ENPEP
TAF9B
KIN
TTC25
GNB1L
CRYAB
IFRD1
LEAP2
BNIP2
C11orf52
GPR179
SOCS7
CUTA
FBXL21
MIEN1
CTC1
WNT7A
TCN2
KCNK3
KDM2A
BTC
ARHGAP23
CCNK
CYSLTR1
NIPAL3
CD46
FTH1P3
SOBP
TXNRD2
ACTR3
PIK3CA
DLAT
ZNHIT3
HINT1
KCNQ1
C2orf49
PNLIPRP1
PTEN
PIH1D2
ACTL9
ZKSCAN8
ZNF558
PLCL1
SCML4
PPTC7
GIN1
VARS
ZNF518A
C11orf57
PTRHD1
C9
MTPAP
MYO19
PPIP5K2
ZNF141
ALOX5
SLC25A15
TTBK2
CYP20A1
NDUFA13
C10orf128
LIMS3L
HSPA4
KBTBD7
AP2B1
TCF15
CIRH1A
C19orf68
FAM3B
GDPD3
UBE2D4
TUBGCP2
POLD4
ASXL3
SRPRB
TAS1R3
TAF8
GDI1
NODAL
LSM2
SERTAD4
NCAM1
PRF1
PNLIPRP2
UNC13D
PTCHD1
PDE3B
IL36A
C10orf82
CYP2R1
EDIL3
LACE1
KCNH1
HOXB2
ZKSCAN3
ZSCAN12
ZBTB9
PRSS44
FAM50A
GMCL1
RPL3L
CCNDBP1
CORO1A
TACR1
HSPA1A
SLC30A1
DPY30
NFKBIA
EIF2S3
CALML4
TTC12
HSPA1B
MLLT11
GNB4
EMC3
KCNB1
PLXNA3
FEM1B
FAM105A
LHX5
CISD3
LRP8
C11orf58
SLC35E3
GALNT9
GRWD1
HOXB4
MRPL19
LAGE3
C7orf34
PHIP
ZNF471
MAGEB5
NEU1
ORAI1
CABP4
IL1RAPL1
APOC2
TRIM27
SMARCC2
NR0B1
ASB6
RPL37
ZNF486
NSL1
GJD2
SRY
PHC3
SMIM17
KEL
TAF3
GPR173
RNF152
ANK2
TSPYL2
ARFIP2
ZNF430
AP3S1
SEMA3B
SDHAF2
NUCB2
SLC44A4
KNG1
KCP
KIAA1161
DMD
MYOT
FAM134B
PAWR
VHL
MRM1
UBL4A
ZNF714
SYT7
SLC10A3
RPS6KC1
FGF17
LSM3
ZNF264
MSTN
RASL10B
ZNF43
GAS2L2
LUM
EHMT2
RPS6KA6
RRP8
C17orf50
PARG
CNNM3
GPRC5C
TAF15
MANF
CCR10
PRRG1
RPL23
LANCL3
ZNF707
TNFRSF11A
XK
CYBB
IKBKB
FBXL18
PIK3CB
KDM5C
DCDC2C
TMEM232
ACTB
PDZD8
AKR1B10P1
NCL
G6PD
TAF10
RBM15B
VPRBP
ACVR1C
KLRG1
RAD54L2
ZNF689
FAM204A
SCRIB
MSMB
UQCRFS1
C4orf19
RFX5
POP4
RBKS
COX19
S1PR2
NUDT18
NCOA4
UNC93B1
OR2H1
C19orf12
BSND
NR2C2
SMC1A
UQCC2
PCSK9
KLRG2
FAM98B
ZIK1
BTG1
URI1
CD300LD
ZBTB24
GABBR1
TCIRG1
SLC30A10
PPP2CA
CCDC127
IKBKG
TPH1
MOCOS
RAB21
C8A
C2
RIBC1
DTWD2
RGR
PUF60
ZNF259
RDM1
THBS1
PHACTR1
P2RX6
GATS
C6
GAB3
PANK3
NPPC
ATP6V1D
ZNF593
HSD17B10
PA2G4P4
PDCD5
STX8
ORMDL2
SETX
ELF4
CSTB
BCL7C
DLEU7
MMP19
PTDSS1
PPM1N
PILRB
MEIS1
MCCC2
MAPK13
MPP1
RUVBL2
LIN7A
HIGD1C
TNFAIP8
CETN1
HLX
CACNA2D1
CYP2C19
UBE2N
LIMD1
NDUFS1
PCYT2
SPINK5
ABHD14B
MBOAT2
C19orf40
CACNG2
ASCC1
CELF3
POLDIP2
HRK
RGP1
OR2H2
RP2
VPS33A
CRIM1
ZBTB12
RGN
KCMF1
STAT1
LAPTM4B
CFB
ICOSLG
NDUFB11
CAPN8
MSL1
OBP2B
F8
MED22
NUDT3
CLEC7A
SSTR3
RPL7A
RAC2
MEA1
GLP2R
ANGPTL3
UBA1
H2AFB1
TLR3
GRINA
PCSK7
FUNDC2
LRP3
SURF1
EXOSC4
MTCP1
IGHMBP2
GPAA1
SURF4
HMGN2
CDK16
REXO4
GPR65
KCNK10
TPCN2
THEM5
ALG10
CNIH4
THEM4
RER1
IGLC7
ZNF157
MYOM1
ADAMTS13
CYP4V2
RCVRN
LSM14A
RAB39B
NIPAL2
H2AFB2
ZAP70
KIAA0355
TMLHE
FUS
CACFD1
NOVA2
NELFE
ZNF81
LCP2
ZNF182
PHF8
CNDP2
FAM163B
NAA11
SSX5
MOB1A
MTHFD2
EIF3L
VEZF1
RPF2
LEPR
SRSF1
FTSJ1
MROH1
SPPL2B
CEBPD
KIAA1919
PORCN
SOX10
GPRIN2
DYNLL2
PRKDC
FRG1
MBL2
RXRA
SHB
DPH3
ZFP57
SH3TC2
TMEM223
ZADH2
GPR27
WTIP
CLN5
B2M
NKX2-4
PAX1
STRN
FAM120C
THBD
BOP1
WNK3
ITGB2
RYBP
RBM3
CNTD1
UHRF1
SKIV2L
IST1
NELFA
POU6F1
IL10RA
TMED4
HMGCS1
TMPRSS4
CENPI
HLA-G
MYOM2
HSF1
SORD
CCL28
GXYLT2
WAS
PPP4R2
GNL3L
EIF2AK2
INTS3
QSOX2
DGAT1
SCN4B
DNASE1
SALL3
ABCD2
ATP9B
UBE2V2
SLC27A3
SCRT1
GATAD2B
NHEJ1
DXO
MPZL3
MPO
SLC52A2
GATA1
CD3E
SMIM23
FBXO33
FBXL6
HDAC6
CD3D
GGCX
CD3G
VPS35
MAGOHB
RTP4
HCAR1
SPC24
SVIP
FTLP2
FAM69B
ANKRD13C
PGM5
ATP5L
RPL36A
CPSF1
AGPAT5
KLHL28
CTDP1
CD79B
RAP2A
RPA3
ERAS
ZNRD1
KMT2A
SLC30A4
TIMM17B
ANXA8
PRPSAP1
TNFRSF10A
PRSS45
PRR4
PPP1R11
BCL2L12
RNF181
PQBP1
UBE2D1
RBFA
GLG1
TUBE1
FAM149B1
MAMDC2
ATP6V0E1
CLIC3
EXD2
RNF39
ADPRM
RNF187
TNNC1
FAM229B
RAB4A
DNAJC9
GLA
SLK
UBE2E2
VPS28
BICC1
IFT46
ETV6
ARMCX4
PHF14
ARCN1
ARL14EP
ARMCX1
SLC25A40
SLC25A37
PGBD5
TRIM31
ARMCX3
THSD7A
USP26
GPC4
LRP10
TM9SF2
ERH
DNAJC24
TRIM40
ARMCX2
TRIM10
AASS
KRT222
ODC1
TEFM
SCN8A
RAB42
KCNK12
FAM162A
TRIM15
KIR2DL2
NDOR1
TRIM26
HTR5A
NEXN
KRT20
POLG2
DUSP16
TRIM39
KRT23
ARHGEF9
CXCR5
BCL9L
G6PC
BLNK
C4B
DNAJB4
RBX1
GIPC2
HTR1F
KRT39
RPS25
IFI44L
FGF22
NTPCR
NDUFS6
MSANTD1
ZC4H2
C9orf41
TRAPPC4
ALG1
SLC10A1
MRPL15
ARGLU1
ATOH8
KRTAP3-3
LIG4
SMIM4
HYOU1
KRTAP3-1
PRCD
ADAT1
PPM1E
KRTAP2-4
ZNF449
ITGA1
TSPYL1
KARS
DDX26B
CIDEA
KRTAP4-11
KRTAP4-12
RPP21
S100B
KRTAP4-1
HLA-E
LYN
DERL2
GNL1
TRAF3
B3GALNT2
PELO
EMG1
GBX2
KRT33A
ADARB2
MON1B
LRPAP1
KRT31
SHH
CEP95
SDC3
TUBA4A
NKD1
CFD
DNMT3B
GNAQ
PSMG2
MRPS18C
NOD2
GPRC5A
TM4SF4
COPS8
ZNF490
RPF1
PRR3
SDR16C5
GCA
C2CD2L
SMURF2
COL19A1
NKX6-1
UBE2QL1
NSUN3
HINFP
MMGT1
KRT15
SYNJ2BP
SLC9A6
FAM110B
ELAC2
ARID3A
KCNN3
NSA2
RASEF
ELK3
TMEM173
IDNK
C1orf52
FABP3
SERINC2
GPR37
GEMIN6
EGR2
GNA13
COX5A
EHF
C16orf72
CHRM3
CRYBG3
NIPAL1
RPP25
WDR83OS
TNFRSF13C
EVI2A
IRAK4
FST
PPP1R10
CA8
PLBD1
CHD7
LMO4
PLCG2
XRCC6BP1
ATF6B
MRPS18B
NDUFA6
AGR2
POLR2E
MUC3A
ATAT1
DCUN1D2
LRRTM3
HS3ST3B1
JUP
NRN1
FKBPL
SPIB
PRRT1
PMP22
CYP2D7P
TCF20
UTP6
THY1
CPS1
RRP7A
MRPL48
EIF2A
PXMP4
SNX13
ART4
GZMK
IRX6
GBP6
LY86
OAF
LITAF
EIF1
ERP27
CD40LG
TRIM44
BARHL2
RALY
DOC2B
CYSTM1
LDLRAD3
UCP2
C6orf57
SLC16A7
POLK
TMEM74
GAST
TRAF6
IMP3
RAG1
RAG2
CES1
EGFL8
SYCE2
AKR1C1
A4GALT
TBCEL
ZFP14
CES5A
ZCCHC18
NLRP3
C19orf24
FAM199X
AGPAT1
ESX1
NRG4
KCNG4
C17orf97
PABPN1
C17orf100
IL1RAPL2
SEPT9
SPTLC1
MYPN
NDUFS7
LYPD8
KCNE3
GRPEL1
USP32
RNF5
CPPED1
ITGB8
DHX16
GFI1
ZNF790
CLVS2
C11orf96
AGER
F12
PDE7A
OSBPL10
HCFC2
PPP1R18
SGCB
PPM1D
CENPP
NRM
CACNA1A
CD82
KIF1B
CFC1
ROPN1
IBSP
TEKT1
RABL5
MT2A
ZNF286A
PSMD12
MT1E
ARF6
SCN1A
DNTTIP2
GCLM
MDC1
GINS2
SV2C
FKBP10
ZBTB8OS
SCAF11
SCN3B
AKR1C2
SCN9A
CHST1
DFFA
NT5C3B
SLC35C1
AKR1C3
IRF8
L2HGDH
CUX1
RBM41
GPSM3
IGSF10
NOTCH4
TARDBP
YARS
FUT9
IGKC
IDH3A
TUBB
GSX2
CDKL1
SGPP2
C17orf75
TBRG1
AVPR1A
BARD1
RBM20
LDOC1
FPR1
EIF3H
UMPS
PRPS1
GPR63
IL2RG
OOEP
PPM1K
C7orf72
GATAD1
ACSL3
AKR1C4
BRIP1
RSPO3
FKBP4
MOGAT2
UCN3
SLITRK2
YIF1B
HLA-DRA
TEKT4
SAMD1
AAED1
FMR1
SH2B2
FLOT1
PRKRIP1
ITGB5
ACLY
GBA
AARD
HLA-DRB1
LPHN1
CTSV
TMEM5
EXT1
HLA-DQA1
FAM189B
TMC8
PPP2R1A
EXOSC1
LRRC39
FMR1NB
CALU
SCAMP3
ZBED3
ACER3
AFF2
CYBA
ATG13
SLC37A2
SPRED3
CLK2
B3GNT6
HLA-DQB1
RPAP3
MALSU1
CAPN5
RNPEPL1
DRAXIN
RAB40B
OMP
HCN3
CNP
SPC25
G6PC2
ABCB11
PKLR
GJB1
DPH5
CLNK
IDS
HLA-DOB
ZNF316
ALG2
DNAJC7
STX17
DDR1
HS3ST1
ZNF600
TAP2
CDPF1
CTSH
MSANTD3
PREX2
STT3A
WDR55
TRAPPC2L
HAS2
LYPD1
VSTM2A
BHLHA9
MAGEA11
MTHFS
TMEM179
NKIRAS2
C14orf180
PSMB8
ZNF354B
ACTN4
SLC44A1
TAP1
ZNF879
ZNF703
ZNF354C
SCAND1
MPP6
ARHGAP18
PSMB2
TMEM38B
TSPAN33
SRP72
CLSPN
MTM1
TMX1
ACTL7B
AEBP2
MTMR1
IKBKAP
ZBED4
OTP
RPL13
ACOT4
HLA-DMB
DNAL1
NCOA2
DHX58
FRRS1L
HLA-DMA
TAF13
BRD2
CD38
TTLL8
KIFC3
KIAA1324
HSPB9
SYT17
RAB5C
FGF12
HLA-DOA
WIZ
MRPS17
FZR1
LPHN3
TFPT
GTF2H4
BHMT2
NDUFA9
RAB3C
SLC41A2
ZBTB42
RNF139
COL7A1
UGCG
PRPF31
GNAI3
TECRL
CSF3R
GABRA3
ODF3
BET1
LENG1
GABRQ
COL1A2
KCNJ5
SCYL2
TMC4
INIP
ERO1L
KLHDC10
PSMC6
MEAF6
C12orf45
MBOAT7
PYROXD1
SNIP1
TUBB3
COL11A2
C14orf79
WDR31
PHKG1
RPS9
GABARAP
CETN2
RAB8A
NSDHL
LILRB3
HOXA13
EVX1
LMNA
PTPMT1
C12orf39
DDI2
DNAJB14
DDHD1
TMEM89
ABCC9
NXPE3
C6orf15
SBF1
TLCD2
PNMA5
ALOX12P2
ATP6V1G1
CDSN
PSORS1C2
SF3A3
TNFRSF1A
TNFSF15
MTX3
ITGA9
CPA1
IL13RA2
TIMM50
CALR3
RXRB
LILRA5
UGT2B10
VKORC1L1
CCHCR1
RRAGC
LRCH2
ZFP92
TREX2
LAIR1
SLC38A7
SLC39A7
EID2
PMPCB
HAUS7
ATP5F1
ST8SIA1
TRIM32
ADORA3
SMIM7
CDH11
MEST
TMEM135
SENP2
OPA1
BGN
LENG8
KCND3
ZC2HC1A
LENG9
CDC42EP5
FBXO42
CXCR4
OR8H1
AGTR2
FBXW2
RTN4RL1
F2RL3
APLNR
C5
P2RX3
PACS2
PRG2
COPG2
DIMT1
MRPL51
POU5F1
ARSA
KLF14
NXPH2
ISCA2
KIR3DL1
C4orf40
TEX22
MAPK1IP1L
SERPING1
HEYL
HLA-C
CHORDC1
RBFOX3
GARS
PNCK
TCF21
CISD2
CBX2
MYD88
PAG1
NR2F6
BMP8B
CBX8
FABP12
HLA-B
SLC36A4
SLC2A12
HTR1A
WISP1
JPH2
GATA2
FITM2
NDRG1
EEF2K
BCL2L15
BDH2
ABCD1
RAB7A
ENTPD7
ADA
POM121
ACVR2B
ISG20L2
CRIP1
COX15
MESP1
FKBP6
C14orf80
DENND2C
DDX39B
NRAS
IDH2
LHFPL3
MED17
VSTM5
BCL7B
TMEM121
ZEB2
METTL16
NTRK1
DCTN5
CIB1
CNBP
KDM4D
NGF
MLXIPL
SSR4
SESN3
IGHG1
HOXC8
IGHM
SCN5A
ORC4
RPS6KL1
MTMR2
DHX8
L1CAM
AVL9
TMEM130
DNAJC30
ATP6V1G2
ERLIN1
NFKBIL1
NAA30
TRRAP
MAN1A2
LTA
PVRL3
PLA2G5
TNF
JAK3
LTB
C14orf37
STX1A
BLOC1S2
GORASP1
ACTR10
ABHD11
NOTCH2
CLDN4
WBSCR27
CD1D
WNT1
KIF5C
IL21R
MMP3
SEPT7
DCUN1D5
C3
ELN
DCLRE1C
AIF1
FXR2
PRRC2A
CTNS
C3orf62
LIX1L
RBM8A
PEX11B
CD4
ATG3
BAG6
GPR162
PIAS3
LEPREL2
RNF115
LIMK1
C14orf1
GPR135
HIF1AN
FHIT
JKAMP
SLC35A5
GNB3
EIF4H
TGFB3
LAT2
CDCA3
WRAP53
PRKAB2
CBLL1
RFC2
PRPH
TPI1
KCNJ9
BCL9
ACP6
ATP1A2
SPSB2
GTF2IRD1
LRRC23
APOM
ENO2
ATN1
PTPN6
SIX6
SIX1
NCF1
GPANK1
CSNK2B
C1S
ACBD7
C1R
PPP2R5E
NMT2
HIP1
G6PC3
B4GALT3
MPZ
SDHC
CLHC1
FICD
TMCO1
POGK
TRDMT1
GPR161
SFT2D2
C1orf112
UBXN7
ST8SIA6
PTPLA
TMEM236
TOR3A
TOR1AIP1
LHX4
UNG
KIAA1614
GPATCH8
SLC39A12
NCF2
TPR
ARL5B
CFH
CFHR3
CFHR1
ZBTB41
PUS10
MMAB
PTPRC
CASC10
PEX13
MVK
RABIF
SYN2
TMEM183A
GRIP2
