CG12116
CG6463
CG13813
CG10887
CG13248
CG16956
CG11122
CG9350
CG7506
CG16775
CG10189
CG32445
CG13457
CG7011
CG11459
CG15865
CG8745
CG17264
CG1602
CG3014
CG31515
CG31681
CG10914
CG5755
CG12679
CG3394
Xe7
CG31624
CG33233
CG7781
CG11753
CG12481
CG14040
CG14104
CG14610
CG4686
PI31
CG13704
CG8927
CG15506
CG15373
CG31735
Pde1c
CG3603
CG14688
CG43736
CG17737
CG6661
CG2209
CG7029
CG4409
CG6701
CG17580
CG8449
CG10171
CG10383
CG33306
CG32440
CG34356
CG34411
CG3530
CG18281
CG17129
CG4763
CG12200
CG7231
CG2082
CG4585
CG6140
CG14353
CG8407
UGP
CG6865
CG11596
CG30026
CG6255
CG14402
CG4872
CG6094
CG13285
CG3788
CG12398
CG2955
CG16743
CG11138
CG10011
CG14551
CG15548
CG8134
CG6999
CG18011
CG11357
CG7988
CG33964
CG13989
CG12970
CG18493
CG4829
CG30401
CG9531
CG9773
CG5292
CG9689
CG6220
CG13587
CG3713
CG12895
CG7099
CG14854
CG17189
CG3756
CG13829
CG13928
CG15554
CG6678
CG13110
CG32037
CG1695
CG12121
CG15629
CG10183
CG3527
CG8485
CG16749
CG42232
CG30458
CG15657
CG4928
CG33521
CG6055
CG8303
CG9806
Tao
CG13678
CG9135
CG5376
CG11584
CG13021
CG30037
CG4998
CG1409
CG31373
CG17680
CG9279
CG32150
CG13720
CG4045
CG14142
CG10877
CG32161
CG15818
CG11141
CG4733
CG7248
CG33143
CG14856
CG3225
CR32205
CG15035
CG5849
CG33177
CG13018
CG17075
CG3809
CG9960
CG30414
CG9318
CG31140
CG5895
CG4681
Desat1
colt
Elp3
Caper
PGAP5
sra
Tsp42Ep
CG7408
CG9706
CG7706
CG3337
Unr
CG5068
LSm1
ds
Obp44a
mrj
tok
CG14223
Tudor-SN
CG12173
Aats-leu
Unc-115a
CG17036
CR10102
wde
CG16789
CG17350
HP1D3csd
Papst2
CG12517
Bet3
Pkc98E
CG9863
tRNA:N5:42Ab
ase
mRpS23
CG13926
CG5188
vig2
CG6966
CG13749
CG9630
CG31286
CG30157
Ptpmeg
CG31446
Fadd
CG10472
CG15118
Lcch3
140up
Dip-C
CG11703
CG42388
gdl-ORF39
RpIII128
SmG
Pdsw
GlyP
CG33127
CG14220
MED28
CG18302
CG4623
CG8950
CG7582
CG13739
ATPsyn-d
CG8329
CG2201
CG6752
mip130
CG18278
Ogg1
PGRP-SC2
CG15269
CG4101
CG13526
CG13045
CG17111
wcd
Pdp
CG30110
jb
CG5872
acj6
l(2)35Bc
Gcn5
CG13747
CG3149
CG14861
CG18568
CG4743
CG6907
CG11106
PCNA
CG5599
p24-2
CG13565
Amun
tRNA:Y1:85Ae
gudu
dnr1
Obp19d
CG8545
Obp56i
cu
CG8675
CG33298
CG4271
mbf1
Dark
CG3634
nwk
CG1516
Spt6
PMCA
CG8708
CG10082
Rbcn-3B
tRNA:K2:42Ab
wfs1
Aps
CG13148
pbl
CG30417
Sra-1
FANCI
CG10185
Mlp60A
Herp
CG31619
CG15771
Syx18
capt
CG1835
CSN5
Tre1
CG32266
Surf6
CG9086
CG31697
snRNP-U1-C
tRNA:CR31890
sea
Bx42
Aats-tyr-m
CG31638
dj-1beta
CG9861
fand
CG14926
CG14907
eff
CG32102
CG11986
Efr
CG6420
tRNA:K2:42Aa
CG9836
Hmt-1
CG4679
if
Vha55
CG15440
CheB42c
puf
CG16894
tRNA:G3:28D
pyd3
Mer
CG3645
CG13901
CG9636
CG14154
CG14805
Sema-2a
mub
Tim13
Nup205
CG8677
lin-28
CG11927
CG7638
Dnz1
CG12682
AnxB9
PSR
S
CG7653
CG31955
CG31800
CG13127
H15
CG31204
CG8757
CG10444
CG10353
CG32212
CG12885
rempA
CG31200
CG8257
ttk
Eig71Ed
Mink
CG32814
GstO1
CG7255
msl-1
spn-E
CG18870
corto
VhaSFD
CR32582
CG9586
EndoG
CG4991
Aldh-III
tRNA:CR31333
mRpL49
CG12713
CG43370
Ostgamma
CG1749
CG13330
Bap55
sphinx2
Gga
CG9632
CG3434
CG4269
CG42339
mid
Scamp
Rrp6
CG15247
CG18812
Atg14
CG14963
Capr
ACC
Jon65Aiii
Hlc
CG6040
Tsp42Ej
CG11426
slv
CG14177
Rh50
retn
cag
alpha-Man-II
Su(P)
CG9272
CG11815
CG7565
CG6665
Pex10
CG17744
CG3499
CG15203
Vps26
Mulk
Syngr
Jon25Bi
CG11700
CG7197
CG14362
Cnx14D
escl
kibra
hale
Srp54
mr
okr
rdgA
CG14111
CG12541
CG7542
CG15097
7SLRNA:CR32864
sxe2
CG4901
CG13786
CG5037
CG12042
Sas10
CG10694
CG14105
CG32686
ZnT49B
CG31808
wac
dik
ETH
CG2258
Uba2
CG32187
CG1486
yem
RpL24-like
unc-13
CG2680
CG7834
5-HT7
Jon66Ci
CG15111
Tomosyn
CG18208
CG31826
sm
Neu2
Sb
E(bx)
CG32803
CG9970
Men
CG1924
swaPsi
Gfat2
Stat92E
GalNAc-T2
CG14712
CG4603
wts
CG10907
mus308
LamC
CG3345
CG3502
CG15515
Elp2
CG1172
CG13562
Trn-SR
Hdac3
CG42540
Nf1
CG7716
CG3815
CadN
Nop60B
Crg-1
CG9941
CG6945
dock
CG2652
CG2107
Kmn1
CG3222
CG4848
CG31882
Ts
Lcp65APsi
Jon74E
aqrs
CG14010
CG6364
CG4704
CG7593
CG2611
CG6527
CG11699
CG7557
Menl-1
qless
Rs1
janA
Rpt1
CG7763
CG5205
CG7324
CG3626
CG1394
CG13065
CG15330
RpS3A
CG4982
CG9669
CG8909
SppL
Cul2
CG31706
CG14883
RN-tre
rha
CG14659
tilB
CG31821
spz
hdm
CG8360
rad50
NTPase
CG32137
ATPsyn-gamma
Rm62
Ser
MTA1-like
RpII18
Atg17
CG15127
CG3328
CG18643
CG15483
CG12267
CG11588
C3G
mRpS33
dnc
CG10479
Uev1A
CG13463
Itp-r83A
Rim2
CG17612
CG11836
tlk
Mec2
COQ7
CG3609
CG13073
Mst87F
CG4159
CG9853
CG14014
Prosalpha4
mRpL1
Cpsf100
CG6766
CG32687
CG3862
GPHR
CG11137
gig
sll
JHDM2
CG4116
CG18815
CG4747
HtrA2
CG32259
CG8009
CG7791
CG8483
CG16787
snoRNA:U14:30Eb
CG4259
CG13751
milt
CG12057
Sec22
CG8494
CG10623
mus312
CG12024
CG30196
CG32006
CG13155
l(3)76BDm
CG9220
Syb
mnd
kappaB-Ras
TrpA1
CG32668
HisCl1
CG9114
Cdk5
Nop17l
Task7
Moe
tRNA:CR30506
Cyp301a1
CG4962
CG7295
CG12082
CG31230
svp
Cbp20
CG4666
CG17249
CG2924
Srp68
CG5662
Jon99Ci
CG10428
CG4596
CycD
CG31789
TTLL3A
Prx6005
CG8460
Aats-phe
tRNA:R2:42Aa
ari-2
Btk29A
CG9510
Nmnat
Sap30
RpS18
Cnx99A
CG9034
CG5961
CG3542
alphagamma-element:CR32865
kuz
Chrac-14
C1GalTA
wus
ldlCp
CG13671
CG14495
CG10590
Or88a
CG8654
Srp54k
Klp64D
msk
yip2
Nup75
Shaw
mRpL17
Chmp1
CCHa1-R
CG13070
CG1104
Vps37B
CG8116
CG7420
ash2
CG11112
Pli
exd
PGRP-SC1a
Eig71Eb
pain
CG6543
yip7
CG11714
CalpA
CG4582
CG12439
ftz-f1
CG15306
Abi
Wbp2
Cyp305a1
Ac76E
Dbp73D
CG7371
CG10795
CG13375
CG12241
CG5549
CG4653
CG9837
CG14762
nesd
wor
Mctp
CG5287
Pde9
eIF4E-3
CG8314
CG9445
CG1646
ligatin
CG5653
CG11679
Drsl5
CG14153
CG31807
hts
CG7616
CG3215
CG12096
Atu
tRNA:S474:12Eh
CG3085
kdn
AnxB11
Cdk12
mRpL44
CG11781
SmF
CG13218
CG32698
CG12851
Rdl
CycT
CG33056
CG10098
CG13296
dgt1
rasp
CG15523
26-29-p
14-3-3epsilon
CG6962
CG13954
galectin
cona
Obp22a
Rpn11
Hira
nxf4
mre11
bgcn
fidipidine
l(1)G0320
CG15922
CG5955
Lpt
Rad23
CG13135
nau
CG14797
CG31279
krimp
CG30411
CG30487
CG3842
CG13585
Rpn3
CG9406
CG9581
Act79B
CG11400
CG5734
CG8230
sphinx1
Pp2C1
Andorra
Rab27
AstA-R2
Ppt2
CG4630
Iris
CG6686
sNPF-R
p47
CG6910
CG4622
CG9184
CG15167
CG11851
Art3
CG5539
CG13506
CG4538
mbt
CG17154
Taf7
AQP
CG3546
GstO3
CG14230
bun
CG7322
tty
CG14785
Taf11
ple
dalao
CG7370
HDAC4
Pvf2
CG17190
UK114
CG2852
NDUFA8
Golgin245
Tango7
CG14325
CG5538
CG3918
CG4329
Scsalpha
Sos
Nuf2
CG10628
Eig71Eh
CG2964
mRNA-cap
CG12877
CG9413
CG5388
CheB38c
CG1789
AP-2sigma
CG14615
eIF4E-7
magu
CG15005
CG9010
CG11756
tRNA:S2b:86A
Rab30
CG6951
Trp1
MED19
CG13955
CG32732
CG13298
CG31642
Start1
CG30033
Best4
CG7185
Arpc2
CG13308
tRNA:P:90Cb
Kap3
CG31957
CG30499
CG13566
CG15676
stas
CG7966
TkR99D
HP1b
CkIalpha
CG10311
CG10166
CG7806
rut
Pmi
Rab26
eIF-5A
vih
CG31777
CG14137
CG6488
C15
CG4266
mRpL43
bru-2
CG10918
Drak
slgA
CG5800
Syt4
beta4GalNAcTA
snf
eIF5B
Nmd3
Tim17b2
Jon65Ai
fz
MED24
tRNA:G3:35Ba
CG14237
CG31897
dgrn
CG14626
CG6746
CG9130
CG3781
CG3860
CG13038
CG10431
GstZ1
unpg
CG32549
Gapdh2
Dad
CG2811
Fbxl4
se
CG33234
CG11241
CG14435
CG16979
Anp
CG5608
tRNA:V4:90C
CG9752
vig
CycB
Vha36-2
CG6841
CG3744
Arp8
CG13366
Art7
Poxm
CG3313
CG14667
CG7028
kn
CG13924
Ctf4
CG5869
CG12608
Mipp2
CG13033
His2A:CG31618
CG33129
CG3323
CG7460
CG1275
Sdic1
HSPC300
CG12688
Tango10
CG12795
CG7339
Hip14
CG13900
nct
CG6073
CG32181
AP-1sigma
tRNA:M2:48Bb
Rbp6
CG12609
CG12605
Gs2
CG1894
CG15087
Rbcn-3A
CG9269
nAChRbeta2
CG12115
CG30349
shi
CG3209
baf
RpL30
por
Khc-73
CG14579
PKD
moody
Eig71Ec
tRNA:N5:84F
Scm
Saf-B
CG5656
CG7739
CG14427
CG4645
CG12531
CG12659
AdSS
CG10064
Marf
Clk
flfl
CG10352
CG7379
CG5516
ham
CG42593
CG10219
Vha44
CG2543
CG11231
CG5382
Prosalpha6T
CG17140
Sptr
CG8728
CG10420
Arp5
CG6034
fuss
Nup160
CG15343
CG32320
CSN3
CG17681
CG14074
CG5337
CG9253
tRNA:S4:12Ee
CG31347
CG10343
CG4297
Tap42
CG9914
CG9263
CG4953
viaf
Gycbeta100B
CG13090
l(2)k12914
Jon99Ciii
CG9547
mRpS29
CG9666
APC4
CG30376
sNPF
CG2111
Kif3C
l(3)01239
blp
smt3
Jon65Aii
Ndc1
CG5339
CG5402
stmA
CG5805
ifc
CG2790
CG13288
CG11638
CG10477
CG3492
CG32333
CG15082
NC2beta
emp
RpL24
CG13042
CalpB
CG11726
CG16952
CG5697
Sur
tRNA:G3:55E
Su(var)3-7
CG10289
CG14488
CG17186
mol
CG12782
P5CDh2
drk
e(y)3
CG4278
Hus1-like
Aats-his
Or13a
CG10089
CG1732
lig3
CG4393
CG30054
Obp99d
S6k
Best3
EndoB
E(spl)mdelta-HLH
CG8833
CG3473
AnxB10
whd
tRNA:Q:34E
CG11200
CG13026
CG7227
CG15429
Mapmodulin
caps
CG10616
Jon65Aiv
CG11597
Cyt-c-p
ppk18
aay
Arp1
CG10903
CG34417
mRpL22
CG2233
CG4074
CG34367
l(2)37Cd
CG7512
CG1287
ltd
ana
CG9777
Lin29
CG6015
thoc6
NAT1
CG9003
SmB
CG6287
DAAM
CG5984
trn
CG5022
CG12012
Ddc
AstC
CG14015
Vap-33B
CG31646
mRpS16
CG14721
CG10326
CG33003
CG30050
wash
CG9016
DIP2
RagA-B
Zip102B
CG15704
CG17712
pr-set7
CG32603
Atg1
CG12730
cal1
Bacc
CG4853
CG4500
CG18367
CG4593
ey
5-HT2A
CG2224
E(spl)m2-BFM
Jon66Cii
Jheh2
emc
Snx6
CG13501
CG11665
mod(mdg4)
Obp8a
CG9870
DnaJ-H
CG13738
CG12333
CG33116
CG10880
CG17917
pgant5
CG16964
CG15233
Moca-cyp
CG13615
CG7519
CG3092
snoRNA:U49:66Da
Ssl2
CG11404
Dsor1
defl
CG6937
CG7179
l(2)gd1
CG42733
Jon44E
CG13016
CG9578
CG31223
CG2246
CG7430
CG9667
Gr10b
CG12310
CG32461
CG12099
tRNA:G3:35Bb
Mdh2
Obp69a
CG2182
Oseg6
CG31751
CG7914
melt
eIF4E-5
pcs
CG11395
MESK2
CG2540
CG6218
E2f2
brn
E(spl)m4-BFM
rk
Tor
Msp300
CG13102
CG3216
ms(2)35Ci
Klp98A
tRNA:G3:57BCb
CG14929
shf
Adk2
Tfb1
pyr
Rheb
CG11839
Ssdp
PsGEF
AGO1
CG3652
vas
CG16892
syd
CG6796
CG31041
Fer3HCH
Rint1
eIF-2alpha
Rgl
Sec23
par-1
l(2)37Ce
Reps
Unc-115b
CG1339
CG9186
pum
Galphas
tRNA:M2:83F
CG4891
mRpL3
Arl4
CG33791
Nat1
CG14570
CG18549
CG13920
CG3698
CG32284
Pde11
Tob
CG9018
Arp6
CG5780
Updo
CG9934
CG32987
x16
DopEcR
CG30383
CG4572
CG12011
CG4615
CG31482
Sdic3
Ccz1
RpL6
CG10919
CG8993
Pgk
Caf1-105
CG5122
me31B
Adar
RpL37b
CG1316
CG7737
Pc
mRpL45
Tsc1
Pdk
Obp57b
TH1
CG18170
Pfrx
bol
CG31495
CG31600
CG2574
La
CG8026
neb
Ras64B
Klp10A
U2A
CG5027
Faf
ymp
CG31460
CG17010
CG10814
CG17840
tRNA:V3b:92Bb
CG6412
CG12402
Dip3
CG12343
scw
beg
Jon25Biii
Hydr2
CG31849
Rpn10
CG10495
Sras
CG7580
Nos
nec
TfAP-2
Cp15
CG14806
Cct1
CG30491
CG32240
Gos28
Cbs
stg1
Cbp53E
Aos1
CG14997
hrg
Nnp-1
CG1965
snRNA:U5:35D
CG17265
CG1542
CG13557
CG7173
RpL14
sro
Mad
CG30154
Pbgs
Psn
Rpt6
Stam
CG11069
CG9140
CG9849
CG15014
CG5004
Spps
CG11905
CG13305
CG5532
CG13024
Mmp2
CG30343
dlg1
CG7510
Rel
CG33095
CG13230
nAChRalpha3
BoYb
Aats-gln
CG5021
Not3
AttA
Cpr50Ca
pip
Rbsn-5
CG9548
dsh
CG11777
ear
tw
PIP5K59B
Epac
CG31088
CG6843
CG18178
glob1
CG12784
Sac1
Cul4
Vha36-3
pigeon
CG15756
tRNA:G3:22BCb
Pi3K21B
CG7126
shot
msps
CG7304
Ercc1
obst-F
CG3104
CG32793
CG14624
CG10053
Atg16
CG5880
Hmg-2
sds22
tRNA:S7:12Eg
krz
CG30429
CG5770
CG31606
CG32299
CG15186
Ndg
Ubc10
tRNA:A:90C
CG17996
Nup37
CG10077
Sec63
spir
CG10635
CG13337
TyrRII
CG16884
CG6276
CG10973
CG8199
Ate1
CG6074
CG8765
Rad9
cola
Lip4
CG9297
Pex23
Zir
CG6550
CG3457
Reck
adp
CG5278
Pgam5-2
CG7637
Hn
dnd
eIF-4E
bnb
CG31156
Mis12
Lam
CG5846
Cand1
Cdc16
CG9399
CG6569
c-cup
Hsp83
CG10075
CG7329
crol
CG13123
snRNA:U1:82Eb
CG2076
CG15545
CG31510
CG31862
CG6227
Noa36
tra2
CG3876
SuUR
trsn
Tsp
Vps60
siz
Nek2
CG7536
CG12264
AkhR
CG5110
CG15368
CG2681
CG13364
Nup133
Ets98B
CG12929
RpL10Ab
CG30447
CG31268
Prosalpha3
CASK
CG18301
stwl
Indy
CG8079
CG13540
Khc
CG6000
pont
Mlp84B
tRNA:M3:70Fb
CG1575
CG15817
CG10133
CG10734
His3:CG31613
sax
CG8272
CG10827
CG10333
Sas
Gycalpha99B
Frq2
CG9021
CG9391
Ttc19
mtd
CG7009
CG31870
Cul5
phyl
ens
CG31459
Rga
Kua
CG30493
mRpS7
CG14131
TrxT
bigmax
CG13010
BRWD3
CG13144
CG5147
Tgt
cad
MtnB
AstA
Arl6
CG32152
CG30278
CG5909
spt4
CG11070
Acyp
CG4291
godzilla
Ino80
CG32669
CG6867
CG10306
CG10752
CG4066
Erk7
CG9922
CG31287
comm2
Nup54
slmo
CG9313
CG13641
Mgat2
CG15896
CG1620
CG34384
CG6745
CG13482
CG1724
CG13197
CG5038
l(2)34Fc
Pp1-87B
NKAIN
CG9377
mRpL24
Rassf
RhoGAPp190
Etf-QO
CG10396
CG4447
CSN6
Awh
tRNA:CR32785
CG10176
CG15719
CG12863
Sxl
CG14546
CG11779
osa
CG7992
Taspase1
papi
Keap1
Hnf4
Rac1
CG30022
Pglym78
CG15059
CG8475
CG30114
CG32988
Dh44-R1
CG32441
CG8379
Acp53Ea
CG11409
TSG101
CG10949
CG17187
CG6765
CG15861
Ect3
CG13627
CG10376
Ndfip
Jon99Cii
trbd
Pdcd4
dbo
CG30122
CG14490
Tg
sesB
CG31324
CG11534
CG5500
CG18480
mtRNApol
l(1)10Bb
CG13871
E(spl)m6-BFM
Oxp
CG11110
CG32396
CG18649
CG9143
CG18404
fd102C
CG17660
Gr59b
CG1461
CG5001
Trn
Jon99Fii
tam
CG14342
drosha
CG11593
CG15199
CG5537
CG9150
CG18581
CG18869
CG31050
CG9550
Pka-R2
Ntmt
CG7049
Jon99Fi
CG13319
Cp7Fa
CG7484
CG3160
CG5028
Syt7
CG3198
phr
CG32736
l(3)72Dp
cv-2
Cypl
Sirt4
CG31999
CG12016
CG11208
Utx
Gr9a
Cpr49Ac
Pgant35A
CG11162
nmo
CG16736
AP-2alpha
CG32052
Shawn
srpk79D
CG7974
CG8778
Ccm3
CG1041
Rop
gdl
Plap
Rab18
Cct2
RpL27
asf1
CG3552
CG18599
CG14853
Trax
sqa
CG14414
RecQ5
term
CG32141
Gr28a
eIF4E-4
CG14317
Pez
CG13455
CG3088
Ilk
CG31183
CG1750
CG6023
CG13428
bab2
Mon1
O-fut2
CG12219
pdm3
tRNA:V3b:84Dc
Drp1
Shc
CG30323
CG13810
Smg6
Oseg4
p115
BobA
CG15528
hgo
CS-2
CG12883
kraken
CG11041
CG11319
CG13630
Rcd-1
CG18180
CG18179
CG2063
Ubc2
ball
CG12914
mgr
pcm
tRNA:L2:44EF
Rrp45
Set
CG42335
CG5966
CG8219
Nup98-96
byn
CG6938
thoc7
E(spl)m3-HLH
hppy
CG10516
CG15353
l(2)k09913
soti
dpp
CG9396
obst-E
CG12831
CG32428
CG7956
P58IPK
CG7448
Frq1
CG15147
CG14218
Rpt3R
Pp1-13C
Rad51D
tRNA:M3:46A
Ns2
Ucp4A
CG6607
sna
VGlut
CG5321
HIPP1
Muc12Ea
CG7048
CG14894
DJ-1alpha
alphaTub84B
CG11210
mask
Rlip
pie
CG14683
Mgstl
CG9650
stet
CG13887
CG3199
Asap
Rrp42
CG14187
TwdlS
IntS8
CG31871
CoVIII
aret
Sep2
Acf1
Jon25Bii
Lrr47
CG8001
SerT
CG5861
CG31803
CDC45L
scramb1
mura
CG5830
CG1999
Brms1
CG3430
swm
HLH3B
nes
PRL-1
pall
l(2)34Fd
LBR
Brf
Smu1
CG6204
fabp
Ccp84Ac
OstStt3
CG5569
sff
sti
CG31496
Tango14
twin
CG14143
CG8311
Ubi-p63E
CG15278
CG13004
ytr
betaTub56D
Crc
CG15784
Atxn7
CG4390
Myb
trbl
Corp
CG32189
CG15212
Nup43
CG30059
ncm
CG42266
RhoGAP5A
mspo
Caf1
CG13332
PH4alphaEFB
snoRNA:Psi18S-1820
angel
CG17664
CG7600
CG33144
CG15286
CG18619
Rtf1
tRNA:G3:35Bc
CG11034
CG5384
Cbl
CG2906
CG5776
CG32191
eIF4E-6
FER
CG11148
CG5604
botv
Trip1
CG42271
Gr94a
Tbp
Dmtn
mRpL2
IntS9
CG18173
swa
CG6013
sns
PGRP-SC1b
CG14598
Rootletin
Ptth
CG3679
Pnn
CG1161
CG2200
CG17662
foxo
CG3184
NAA20
CG10116
CG11899
da
Rpn1
CG8155
CG3663
Su(Tpl)
Hel89B
CG16758
Cul1
CG1265
CG17343
sd
Uch
CG4293
Gad1
Ssrp
bbx
fbp
fwd
Hydr1
Gapdh1
lobo
CG5463
tRNA:L:35C
CG2021
CG6379
ImpL1
CG14006
mRpL39
CG33332
CG32537
Kebab
dpr10
CG31550
cni
CG3902
CG7849
CG9961
tRNA:G3:56EFb
CG2247
CG6870
snRNA:U2:34ABb
CG13025
CkIIalpha-i3
RpS11
CG5150
Cortactin
Rev1
CG33722
Aef1
Arp53D
CG6734
l(2)k05819
CG9123
CG15083
Atg8b
CG17765
Trpgamma
Ext2
CG13280
be
CG6888
CG18048
Cyp6u1
Art6
kat80
Vps2
Obp47b
CadN2
sens-2
Coq2
rogdi
Cals
Piezo
Su(z)12
Hsromega
CG13609
Nab2
Fcp3C
Vps45
CG11876
PH4alphaSG2
CG4914
CG32104
CG14591
mRpL10
Obp56c
CG3077
Mekk1
waw
p130CAS
Sod2
e(y)1
kra
Ssl1
CG8414
PIG-U
cv-c
CG32762
cup
CG9099
Myo61F
CG30338
CG5265
CG15414
let-7
mir-8
CG14550
CG1537
CG13992
CG31704
CG14417
CG15345
CG10407
CG30485
CG30195
Rrp47
CG32945
CG13766
CG14696
CG11131
CG13898
CG3281
CG10910
CG10904
CG31848
CG7884
CG13066
CG6753
CG13204
CG18605
CG13862
CG32846
CG13226
CG14053
CG42319
CG4951
CG31832
CG32847
CR32027
CG1227
CG7824
CG31637
CG7368
CG17687
glo
tRNA:I:49Fc
Mt2
Lcp65Ab1
ppk9
loqs
CG4658
CG2608
CG17646
Sc2
CG10462
CG5945
Np
CG11037
CG6914
CG4061
CG33107
Cyp9f3Psi
oaf
tyf
CG9368
tRNA:CR31334
CG14509
CG1632
tRNA:CR31162
CG13426
CG4434
X11L
CG33012
CG17260
HP1c
heph
CG9986
CG18536
nan
CG18213
CG4884
CG12907
Ets21C
CG6125
CG10211
CG15925
CG30160
CG11418
ct
tth
CG2260
TppII
CG3009
RpLP1
CG16717
trr
CG2617
CG8299
CG8235
Synj
CG31810
CG30413
CG14877
CG15282
CG6540
CG1444
CG3829
ko
or
CG31473
CG15358
Cep97
Npl4
CG13998
CG13837
CG6136
CG16772
CG30398
CG32599
VhaAC39-2
CG11581
Dic4
CG7156
CG15717
CG43427
CG31690
CG32758
CG7080
Imp
CG31148
CG9641
CG6893
CG31663
dtr
CG9769
CG14270
Lcp65Ab2
CG10777
CG10096
CG6154
east
PGRP-SB2
CG4577
Mnt
CG31683
Taf2
LM408
CG4854
CG3511
msta
CG34401
Eig71Ee
CG32554
Caps
tRNA:CR30238
CG8060
lambdaTry
CG11109
CG31688
CG42327
CG13712
CG13063
Inr-a
CG14103
mtm
Or30a
sicily
CG11077
CG32638
rtet
CG3556
CG3808
CG16986
RpL32
CG5612
r
CG32712
CG7296
CG18765
CG14356
CG14561
CCAP
yellow-e
GM130
Sln
CG8607
CG6404
Muc14A
CG9305
CG14258
lbe
Axud1
Trim9
Blimp-1
CG10139
TER94
beat-IIa
Ars2
nsr
Dpy-30L2
CG13896
TkR86C
geminin
CG3501
ATP8B
7B2
SNCF
Pkc53E
CG1718
CG9308
CG14971
l(2)37Cg
kek5
CG33649
CG10214
CG42272
CG2577
Ack-like
Pdfr
CG14132
CG17475
CG9411
Prm
CG12395
CG12942
CG31388
dgt4
CG15042
Pallidin
CG5853
GLaz
CG13385
Hsp22
tRNA:V4:89BC
CG7381
Acyp2
nord
CG3790
et
CG7280
CG18467
CG3955
Trf4-1
CG9410
CG14352
CG3288
CG15543
trk
Npc2e
Vps33B
AMPKalpha
FKBP59
tRNA:CR31971
CG4907
FucTD
CG3649
CG31872
loj
CG12104
Paip2
CG33490
CG11327
Cpr76Bd
Tsf3
Rpt3
Prpk
CG17549
CG42329
CG30484
ftz
CG14540
CG1234
CkIIalpha
CG13126
CG9338
tRNA:CR30299
dikar
CG7900
CG15423
cmpy
CG15482
CG8326
CG4554
CG7631
CG7148
IntS14
Nrt
Catsup
Cyp6a2
CG34056
nudE
CG4830
chic
CG8370
CG14085
Actn
RanBP3
CG7058
CG8892
CG31272
CG43867
TfIIEalpha
CG17802
orb2
l(1)G0230
swif
TwdlD
Rpn12
CG3309
Obp58b
CG17568
CG8412
CG1572
CG14312
CG8335
CG3290
fsd
CG30025
Fili
CG7443
ced-6
CG17746
CG6506
CG14369
qkr58E-1
Spf45
Act5C
RacGAP84C
Nedd4
Uhg3
TpnC73F
CG7288
Mst85C
CG15766
Cp38
gny
CG32651
BicD
CG17294
gro
CG12716
mtacp1
Trap1
lz
Taf10
CG31750
CG32448
RpLP0
CG7222
RhoGAP19D
CG6329
ms(3)76Ba
CG13995
DNApol-alpha180
CG42342
Tsp47F
CG17209
CG14341
CG7211
JTBR
CG5078
CG14044
Ser6
CG7358
Atac2
Send1
Klp3A
Mlh1
CG14618
ClC-c
etaTry
Nurf-38
heix
Tfb4
CG9067
DOR
CCHa2
CG14355
CG42324
P32
CG2150
Ire1
CG17806
CG13108
CG8105
CG14722
CG5255
CG32579
CG13558
Sec13
CG18766
CG12272
CG5160
CG2781
CG13062
Cpr50Cb
CG6758
CG30324
klg
CG4461
Mal-A6
CG5171
mthl13
X11Lbeta
Exn
Rpb11
RpS29
Cpr78Ca
CG10232
Art8
CG9293
robl
CG31002
CG7967
spas
TRAM
CG17234
CG3349
CG11583
RapGAP1
Fbp1
Nplp1
CG14763
CG32694
CG1988
CG8157
aurB
CG7139
RhoGAP71E
CG4229
CG7110
mRpL55
CG31296
CG10680
CG13409
CG7409
ss
CG9684
CG6659
nvy
Snmp2
CG12672
Gr64a
CG8378
tRNA:N5:42Ac
hk
CycC
CG13713
SRPK
Arpc4
CG13245
CG2291
rdo
CG13220
CG15198
LysP
CG3505
CG6277
SIFaR
CG31301
CG30440
Idgf1
CG12256
tef
CG33301
Sgs5
CG11381
cuff
CG15651
Kaz-m1
CG13972
nod
Nmda1
CG2202
Gale
CG12017
PlexB
CG5087
Tret1-2
CG31391
CG6254
CG10993
Ubx
Lcp1
CG3907
CG17198
CG11251
nito
Tace
CG11342
CoVa
casp
CG7024
cln3
slou
Smvt
MKP-4
CG6353
CG6928
CG2772
Pcd
CG13373
CG6852
CG12637
ATPsyn-beta
CG14130
CG2006
robl62A
Nak
sgll
CG11790
Prosalpha7
Dcr-1
CG31988
CG6763
icln
CG1701
TotA
Obp99a
Tps1
Spx
Pp2A-29B
CG4552
tRNA:N5:42Aa
CG7985
CG13477
CG6511
pUf68
Pk17E
amn
Vm32E
Gr59a
CG4462
EcR
CG32588
mRpS35
CG11159
CG14676
GCC185
CG3339
CG4557
MED23
CG15362
CG12560
CG15124
CG16854
beat-IIIb
SsRbeta
CG14777
Hex-A
CG7911
P5CDh1
CG3402
CG3708
CG14893
spz3
Ir75a
frc
qsm
CG1418
CG8740
Graf
Patsas
CG15661
CG8791
CG32813
CG3880
alien
CG4161
lama
dpr4
Reph
cav
CG9705
Sh3beta
CG10625
CG5023
Osi9
CG9926
CG3760
CG9940
CG18268
Edem2
CG9004
CG32267
Cyp4p3
CG30076
CG11966
bam
CG5968
spin
l(3)05822
mip120
scpr-A
ago
Not1
CR42254
esn
Ir7c
CG7277
CG31342
CG13049
CG14184
CG16779
CG3868
Gr36a
msd1
Scr
CG31013
CG4089
Taf1
crok
Cap-D2
CG32720
CG11911
CG14630
key
Cha
Ude
Tdrd3
CG17666
CG30369
CG7963
CG43795
twi
Alk
Ance-4
CG14057
CG17839
eater
GATAe
CycJ
Fad2
CG8316
CG9104
CG31274
Mes4
Tsp86D
CG15435
SmD3
rst
CG32809
cdc14
PGRP-LD
Hsc70-5
CG3746
CG31975
alpha-Est9
CG31131
CG17217
CG1504
Obp99c
CG4004
CG7598
Fur1
rap
CG30269
Atg18a
Ag5r
Ak6
ppk21
numb
CapaR
Amy-d
MED17
tRNA:S7:23Ea
CG34127
CG11893
Ced-12
CG8369
CG30051
CG14380
inaC
CG5567
ssh
PpY-55A
Gtp-bp
Smn
snRNA:U4:39B
MED16
ocn
jim
tRNA:V3b:84Db
CG5704
CG5334
CG1827
RpL35A
l(1)G0255
CG10466
CG17271
Tbh
beat-Ib
RAF2
Ehbp1
Gyc32E
CG32756
Vps20
Strip
CG8209
CG32655
Acp24A4
CG13427
CG11975
CG17601
spag
CG32695
CG42382
CG4287
CG7378
CG18539
dpr11
CG31126
NetA
RnpS1
ninaE
CG32061
Rad1
tRNA:D2:69F
CG6707
gsb-n
Cpr47Ef
CG14135
Vinc
CG13984
CG12983
Dgp-1
CG12546
Trxr-2
CG9288
rev7
CG7182
CG10512
Tab2
Obp58d
CG16813
Rab9Fb
wal
CG31475
Hayan
tRNA:S7:12Ed
Seipin
CG4408
CG33203
Ork1
CG44085
Eip63E
dre4
mRpL47
CG17752
Sin
Atg101
CG17738
l(2)35Df
CG18135
Ctr1C
CG2921
CG32164
iotaTry
Spn47C
HIP
CG33786
CG13390
CG33060
Ir60a
CG11368
Hsp67Ba
CG6983
CG3226
Cyp4ad1
tRNA:M3:70Fa
TwdlT
salm
Cyp311a1
CG11453
Cby
scaf6
MESR6
Mks1
CG30222
CG3823
apt
PIP82
Nlg2
CG31819
Lnk
rnh1
tRNA:K2:42Ae
gogo
CHOp24
Csat
Tpr2
lkb1
CG16879
rumi
l(2)37Cb
Mtap
Cpr92A
wry
NC2alpha
CG9509
CG8336
CG15337
ric8a
Cen
CG7601
Trf
CG14668
CG5687
Rab3-GEF
CG32376
topi
CG2120
U26
Hen1
CG11269
CG3631
Atac3
CG12909
CG18530
Qtzl
CG5399
CG13921
Cpr100A
Doc2
meigo
TfIIEbeta
nAChRalpha5
wupA
CG17139
CG7800
mus304
DCP2
S-Lap5
CG11190
Roc2
CG8021
CG11985
CG3709
CG30151
tow
Lis-1
Obp56f
CG15530
ro
Mtl
Fnta
RpL22
p38a
CG15022
CG18107
l(1)G0289
mthl7
dj
sa
Mp
CG3386
Alg10
ckd
eloF
CG8735
shu
CG2453
CG4580
CG12347
CG7945
Rcd5
CG30428
MED31
Ir67b
CG6153
fry
CG12288
tRNA:L3:49Fa
sqz
CG1677
Ibf1
CG14128
eys
Gld
Cpr23B
CG3368
CG10731
mor
eIF6
CG13840
CoRest
CG30008
snoRNA:MeU6-A47
GluRIIE
SK
CG5250
tRNA:R2:84Fb
CG13324
ctp
sosie
CG1737
Mdr50
CG9106
CG5281
mex1
Aats-pro
knrl
Cht5
RpS19a
CG12744
CR9284
tRNA:CR30218
Stim
CG10660
CG6044
Rbp1-like
CG15510
CG2022
Usp7
POSH
CG1513
Zip42C.1
fd19B
CG13193
RabX4
bbc
ac
CG32640
ec
CG3224
GAPsec
CG4511
pgant6
Aats-asp
Ten-m
CG17003
qjt
CG11367
CG2889
CG1218
CG15705
CG11007
CG8813
tRNA:I:49Fb
tRNA:R:12Ef
Cp18
Obp18a
Jhe
l(3)mbn
CG5819
CG11537
CG32368
Cht6
AdoR
CG14069
CG14966
CG9629
Sik3
CG7335
CG6621
Or47a
CG31913
CG30375
CG34354
Edg84A
Ranbp21
Top1
Cp19
CG8945
PGRP-SB1
Ank2
kto
GC
scrt
CG2972
Ulp1
net
not
CG10103
crim
SP
CG17625
CG7261
scu
ebd1
cN-IIIB
NimB4
CG10969
CG31357
CG17648
sowah
CG16799
Cyp313a1
wapl
Cpr49Ah
CG11168
Brd8
mRpS18A
cpa
TwdlQ
Prosbeta3
CG17991
CG10927
CG14340
CG10853
CG13405
CG12376
Cul3
CG12163
CG14079
Oatp30B
CG8837
CG10307
CG32221
sun
Pdk1
mus205
CG15258
CG14339
Adgf-A
CG11043
Spt
Ns4
CG32679
Elo68beta
Syt1
CG8258
CG8078
CG8289
SAK
CG15012
Ccp84Aa
CG12511
CG12674
CG9698
CG32395
CG4455
CG12520
MED26
p38b
CG18265
CG6567
CG5614
CG31730
CG12796
Acon
CG5906
Or35a
CG14329
CG1532
CG11539
CG4301
CG12207
CG3560
arx
CG13358
CG18518
CG4631
PP2A-B'
grp
CG15347
tRNA:Y1:22Fb
CG8149
veli
Mtch
amd
akirin
CG32755
Cyp6a21
msb1l
rdgB
Vps28
zye
CG3650
Gr97a
Myo10A
CG12645
ald
CG6191
amx
CG1273
CSN4
CG3964
CG11406
CG17994
CG8786
CG13050
CG33785
CG2187
CG12736
elB
CG8223
CG17258
CG4825
CG7059
CG11113
GC2
Rh5
KP78a
Or47b
CG9717
CG17364
Ppox
CG11423
CG3295
CG7328
TwdlK
snRNA:U2:38ABb
Gfrl
Gclm
CG8834
Rrp40
Sec61beta
CG13000
CG30183
D19B
CG14589
CycB3
Cep135
CG13185
alphaKap4
Pex5
t
CG14077
CG6179
CG8952
Or92a
CG1635
CG9451
brk
Pepck
Cyp313b1
ade5
CG8949
Prosalpha4T2
CG18745
Mst35Ba
Send2
CG8206
CG14370
tap
RpS27
SMC5
mRpL4
CG17333
CG33062
cp309
Cyp4d2
CG15617
CG31809
Prat
CG2144
Jhedup
Prosalpha2
Kah
CG14990
CG8065
CG42685
CG13001
Gclc
CG14280
CG18131
CG14422
CG11180
hep
CG15270
CG9988
CG17360
CG13685
CG6499
ssp2
CG5815
slx1
Obp19c
CG10035
Tim9a
CG13309
CG42673
CG10841
Cyp49a1
CG4546
Ca-alpha1D
CG13699
Lectin-galC1
Aven
CG15728
CG1746
CG17197
klu
CG31813
Cad87A
cib
CG14882
Jafrac1
Pmp70
l(2)k01209
nej
Bsg25A
Nrg
dib
CG31976
RpL10Aa
Mur29B
CG11913
CG7208
CG17780
resilin
TwdlR
CG7567
Prosbeta4R2
ppk16
maf-S
TfIIFbeta
CG31327
CG2104
CG34362
Cpr65Eb
barc
Grip71
Dok
CG9466
SrpRbeta
CG11880
CG11221
Or42b
CG8319
CG13321
CG31108
Tom
btd
Dcr-2
DUBAI
Pex2
CG7787
CG11555
CG7194
mRpL13
tRNA:CR31896
CG6388
CG5096
BI-1
Cdep
CG15480
tRNA:M2:48Ba
Cdk2
CG6628
Bub3
Camta
CG31266
Atg12
yellow-f
Hk
CG31030
CG11842
CG9722
CG10953
CG18193
CG11982
egr
Atg7
CG14125
Tep5
Rabex-5
CG9902
Spred
CG13868
CG15019
Aats-tyr
CG15615
TotF
Mkp3
CG32237
CG14492
CG11529
NaPi-T
Ubqn
CG31414
Rcd-1r
BthD
CG31275
CG15431
betaCOP
CG6144
Dip2
CG4318
pygo
CG10320
Rab9E
Prosbeta2R2
CG6696
Nse1
PPO3
Jarid2
CG13138
BEAF-32
fzy
pen
Cyp4g1
tRNA:E4:62Ad
CG13850
CG31051
wds
CG5103
snRNA:U1:21D
CG32708
Act42A
CG8252
kcc
CG11577
wek
Or85f
AstCC
Cf2
Dys
CG2975
CG18666
Chd1
Ir48c
CG14839
CG43759
CG10019
CG31343
CG11837
Pcp
CG4783
CG10188
CG10943
CG6041
CG3776
CG3558
CG15125
Sfmbt
CG17637
CDase
CG8237
CG16974
Or9a
mRpL21
Ccp84Ab
tRNA:K2:42Ac
CG3515
RpL23A
tgy
IM18
CG15262
Neb-cGP
MED1
Grp
CG5916
CG31659
MAGE
CG14191
CG4753
CG32121
Sar1
PebIII
CG14086
l(2)06496
CG13008
PPP4R2r
Sir2
CG9153
DNaseII
CG31269
CG5009
RpS28b
Spt20
Vps36
CG6503
Oga
mia
CG4364
CG1888
CG17134
Sdc
CG8550
CG6629
Antp
Klc
RpL17
CG4230
CG4091
atilla
rt
qkr54B
slp1
CG6455
HipHop
gd
Dyb
CecB
Sirt6
CG13438
mal
CG12374
Cad96Cb
CG12947
CG14718
CG5458
Fmo-1
CG13502
Cpr60D
CG13287
CG4480
Pburs
Slbp
ImpE2
CG5767
CG1315
CG5114
CG11722
CG5126
CG4313
GstT3
CG33213
mu2
Cys
CG11320
CG14565
CG9743
CG2911
muskelin
TfIIB
SF2
CG16885
HIP-R
Glut3
Tgi
Shal
CG14120
RpS25
CG2147
Mur89F
Prx5
CG31202
dnt
CG32110
betaNACtes2
CG1399
CG14715
Mpp6
Sclp
CG11127
CG8239
CG3589
Prp18
Cas
dco
CG14932
sni
CG12984
grk
Abp1
CG14455
RpS2
spag4
CG13759
CG12662
Mob2
Gr93d
Gr47a
woc
CG13183
CG6293
CG13386
hng1
CG10262
snoRNA:Me28S-G3277a
CG13326
E(spl)malpha-BFM
CG1142
CG14628
CG17002
vanin-like
fkh
tRNA:R2:84Fd
CG4502
Nelf-E
robo
CG11658
CG17784
CG3436
Csl4
bib
Gr10a
gcl
antr
CG31407
CG33123
Cpr62Ba
CG14780
Gr36c
CG33199
CG13258
CG11399
Rox8
Ir52c
Rfx
Sam-S
grim
betaNACtes6
CG15743
Cyp313a5
dpr2
Gnf1
Rbf
CG6435
CG10317
CG3587
CG3748
brat
CG3251
RhoGEF4
CG18598
CG10433
CG13663
CR32111
ix
CG7691
v(2)k05816
CG2901
Gadd34
CG17575
CG15365
CG43902
alphaTry
CG3246
CG10863
CG10222
CG7794
Pym
Mal-A3
Or43b
p24-1
CG14767
eIF2B-alpha
CG6201
CG17032
CG15760
CG32473
CG10584
CG14022
CG17778
CG6750
cas
PH4alphaSG1
RpI135
CG30148
GstD7
CG8297
ZnT63C
Mrp4
CG13192
CG12684
CG10764
Met75Ca
CG17259
mats
CG17109
CG17896
CG14298
CG2046
CG31793
CG11586
Gr22a
UBL3
Pvf1
PGAP3
CG13679
Acp36DE
CG13408
CG33082
Ser7
CG17359
pnt
fj
CG9864
Osi17
CG3817
CNMaR
Cyp28a5
CG15479
CG13168
CG15708
CG9294
CG6429
CG14491
CG15556
CG13056
vret
CG14219
btv
hng3
Mo25
CG33639
beag
CG30467
scat
CG8746
CG3777
Bsg25D
CG5778
Gr98d
Or67a
Gr22e
CG32857
CG5674
XRCC1
l(2)09851
VhaM8.9
Ir56a
Synd
Ilp8
CG14421
Obp99b
snRNP-U1-70K
pim
CCKLR-17D3
CG10163
CG3687
Sec31
CG4716
nbs
CG3570
DNApol-eta
Spn53F
kirre
CG32066
Rab4
pxb
CG10869
Gcn2
CG3253
CG34386
CG8083
CG3640
grh
CG10252
CG14457
CG31219
fd3F
Map205
CG4880
beat-Vb
CG17739
Pino
CG1503
Rnp4F
fra
CheA87a
CG9346
Gyc-89Db
Cpr78Cc
nerfin-1
CG13978
CG7349
CG9519
CG1288
Vha100-4
CG4520
Msr-110
gcm2
CG12862
CG13890
Ube3a
CG4712
CG2371
CG13728
CG2663
TfIIA-S
Rab39
MBD-like
CG43740
CG1552
lbl
CG12814
CG1024
CG6523
pgant3
CG17560
l(3)72Ab
CG7627
CG13650
Syn1
CG7337
CG5885
CG32213
Cdk7
PK2-R1
CG10494
CG14185
Npc2c
CG5568
CG7200
CG31176
e(y)2
RpL7
ppk6
pgant4
CG2004
CG15375
mRpL50
ea
CG18266
Rbp2
IntS12
Vha100-3
metl
dimm
Thiolase
Gr43a
CG13284
ana2
CG16890
CG31221
ImpE1
l(1)G0193
CG32000
18w
tgo
wg
CG8939
CG4367
Zw10
CG17270
CG13367
CG11291
CG33181
CG8620
CG11380
CG33136
Scp2
epsilonTry
snRNA:U2:38ABa
CG8188
CR18166
tin
bin3
GstD10
CG3638
fw
CG32022
CG8072
CG18628
Sema-5c
RabX1
CG14933
BubR1
Tsp3A
sta
spict
tRNA:CR31604
CG14526
Ptp4E
CG7568
cdi
Vmat
CG10881
w
Tes
ZC3H3
LanA
Rab9
GstD4
CG4822
fd96Cb
E(spl)m7-HLH
jigr1
tna
Rpn13R
CG5439
CG31267
tweek
out
CG14071
Prosap
CG9947
CG31740
mam
ras
CG11920
DIP1
CG13877
CG8420
CG6903
slif
ttm2
CG9194
Uch-L5R
CG14273
wtrw
CG4836
caz
CG10936
CG12069
yki
CG10550
kat-60L1
CG3831
RpI12
CG7433
Hrs
CG11321
CG3301
CG7573
Rpn6
CG1847
CG6912
ms(2)34Fe
CG14689
CG6324
opm
fan
Ir76a
side
btl
CG13216
Prosalpha1
S-Lap7
CG12393
CG13625
vnc
tRNA:R:83AB
CG31089
bip2
CG7611
CG7202
MED10
CG6405
Cog3
ci
CG5548
GluClalpha
CG5611
insv
Cib2
ng3
TpnC4
Zpr1
Treh
PpD6
Nf-YC
CR31781
CG6271
Tsp42En
CG15814
CG9948
CG31464
Nxt1
gek
Uvrag
Skeletor
CG13223
RpL40
tra
CG11378
p
poe
mRpS31
Dref
beta3GalTII
Hsp26
CG43102
SdhB
alpha-Est7
CG6610
CG13947
Fife
Adk3
Zip71B
Teh3
CG5050
CG11349
CG7872
Dh44-R2
Gr22c
Mat1
CG17387
Eig71Ei
Obp83a
CG3270
nahoda
hth
ppk27
CG14864
CG15117
CG15863
pigs
CG4019
CG3106
CG42260
CG31787
CG32206
RecQ4
Tengl2
Oli
Tapdelta
CG32699
Cyp4d21
ST6Gal
Act57B
CG3355
CG31851
att-ORFA
rols
Or85b
CG15169
Mid1
CG6142
CG13392
Cpr49Af
CG13690
mei-218
CG6908
KLHL18
CG16798
Chc
CG2678
CG11630
CG10467
PVRAP
Or46a
CG7841
ACXE
CG11360
CG9596
E(spl)mgamma-HLH
CG14321
ItgalphaPS5
SA-2
Ef1alpha48D
CG10274
CG15696
CG10669
CG14834
CR13130
Syx8
CG42404
CG12479
shrb
ca
CG32365
su(s)
CG12693
CG5348
CG14870
Trl
PpV
CG3819
mus81
sut2
CG3581
Prosalpha3T
CG42269
O-fut1
mib1
CG2211
CG15136
Es2
CG14164
Rat1
G9a
CG11898
mei-S332
CG5466
mthl2
Ilp7
ND23
lectin-21Ca
Fcp1
CG2025
Spt3
CG10131
Mal-A8
Mst57Db
mtrm
tRNA:I:49Fa
CG17834
CG13362
CG7172
CG5375
CG1663
Nca
CG7903
CG7695
dgt5
tRNA:S4:12Ea
ktub
Alg-2
CG10164
CG12857
CG8248
Ipk2
CG14024
CG8611
GAPcenA
slam
CG16857
U4-U6-60K
Fak
tRNA:E4:56Fb
nrv2
CG1688
CG11018
CG2656
fdl
CG6424
CG8925
z
ida
CG10366
CG9572
CG15432
pHCl
Ela
CG31075
CG13198
beat-Vc
CG15701
CG32263
Rac2
CG6006
eIF-4a
CG42492
CG32454
tRNA:R:19F
mip40
CG18744
Cpr62Bb
CG42255
CG5043
ninaG
pins
CG17272
Vps13
plum
Est-Q
yellow-g
Duox
CG14007
PNUTS
CG13962
CG6465
CG8386
Kaz1-ORFA
mirr
yata
Rbpn-5
CG6576
CG5084
eca
CG13950
dally
mus201
CG4433
CG10063
CG42672
CG7402
Eip93F
CG7290
Cad74A
CG3961
Ent1
Bgb
Osi15
Cyp28d1
cno
CG7979
CG32436
CR12842
Aats-lys
tomboy40
Kaz1-ORFB
cora
CG4730
CG8800
CG5721
CG6602
CG8668
gfzf
Efhc1.1
antdh
CG12985
CG8563
CG18754
CG6744
tRNA:I:49Fe
CG14960
Gr98c
CG9766
CG31820
CG7054
GILT3
NimC1
niki
Fancl
hebe
CG3566
CG18233
Ubp64E
CG12576
CG5381
atl
GstE8
CG3703
CG14400
Snap29
CG3238
CG13377
CenG1A
CG6695
PrBP
ash1
sv
CG17751
Osbp
nab
mRpL46
CG4020
daw
CG5220
CG4238
CG7079
Ugt35a
CG12725
CG15356
CG30197
Cyt-b5
CG12746
Gpo-1
CG12182
CG6812
Su(H)
Pgi
CG17386
CG14708
CG3793
CG5592
CG9897
brv3
fs(1)Ya
RluA-1
CG30103
Vps25
CG9467
Chi
Socs16D
Her
CG18508
dsd
Snapin
ver
CG12880
ng4
CG31371
Lcp65Ae
CG32068
Xpac
Mical
CG14969
CG7366
Acp26Aa
KCNQ
CG18294
CG17929
CG31300
CG12721
spg
feo
CG6066
CG3408
Lar
CG31253
msl-3
Acp62F
Cpr30F
CG15572
CG31538
TfIIS
Grip84
tRNA:H:48F
CG42615
tld
Vps16B
CG4199
CG14731
Lrt
CG5556
trpl
CG7668
Rme-8
Mst35Bb
Dgk
Rpi
CG5639
Adk1
CG12426
CG9577
CG17349
CG17977
CG11095
Hsc70-1
CG5204
Nep5
CG12825
CG8854
GstE7
Ice1
CG18335
Ahcy89E
snRNA:U5:14B
Myo31DF
CG12090
CG4053
Hrb87F
CG7523
Obp56h
CG5745
CG11590
CG2321
Con
CG10286
dhd
Tango13
CG9727
CG16935
CG11883
Pex19
Tdc2
dap
l(2)not
slo
robo3
CG12975
Ubc4
CG11160
Or33c
Lsm11
CG15255
Rtnl2
Pat1
Slip1
CG1703
CG31220
Nf-YB
Prp3
CG31111
P5cr
CG13857
CG30392
Takl1
CG30457
RIOK1
CG6441
CG14324
CG18858
CG33090
CG32373
CG14102
CG10651
ema
Samuel
Lkr
CG5033
Letm1
CG31103
Cpsf160
CG13029
CG9919
RpII15
CG18675
polybromo
Sec61gamma
parvin
UbcE2H
CG31743
prd
CG16908
tank
Muc11A
CG3906
CG11322
CG11076
Sirt2
CG16790
RPA2
CG42741
CG31019
CG9344
CR18228
CG43367
Prosbeta5R2
CG31404
Arpc5
NaCP60E
tos
ush
CG18428
Nmdar1
NimB1
Ir76b
Kdm4B
Mdr49
GstE6
Xpd
Srp14
agt
ken
cv-d
Top2
toy
Ugt35b
Gr22b
CG8617
CG33080
und
CG1927
CR31044
CG7916
5PtaseI
SKIP
Fib
CG7384
ZnT35C
CG17721
CG8850
insc
Desat2
CG12822
PHGPx
CG33331
obst-J
LKR
Or74a
Gyk
Surf1
Sobp
Obp28a
CG3267
mtsh
CG14115
CG32444
CG17121
Tsp42Ea
CG1317
Tl
NimC3
Gbs-76A
LSm-4
CG3921
sbr
CG13053
Mesh1
CG8963
CG2023
CG32295
CoVIb
CG14194
Side
CG7759
CG12522
CG13012
CG17290
Sp7
Gr58b
hipk
CG6282
Acp29AB
Rb97D
CG10104
CG6299
Tusp
Ugt
sut1
CG11843
CG18808
GstD5
oc
rau
CG30382
CG10186
car
CG4186
CG3344
CG9249
CG5808
CG10932
RpS10b
CG17278
GstD2
ave
Act87E
Ir51b
Naam
CG9692
CG4968
NtR
Cpr31A
CG3706
CG11068
CG32392
CG15333
Pa1
Nup62
TfIIFalpha
CG7220
MED4
CecA1
rig
CG15638
CG7142
CG14984
CG13946
CG42233
sbb
CG12125
Tet
CG2256
CG5080
CG16826
CG14568
CG31320
CG31524
Osi1
GstE12
CG32506
CG34382
HP4
Gr32a
Nup358
f-cup
rdx
CG17027
CG7362
dsf
Eip74EF
CG32939
CG6688
CG15892
MFS10
CtsB1
CG8974
CG33514
Eip75B
CG32808
GstD1
CG1344
CG8270
CG16896
CG5261
Lcp65Ag1
Mst84Db
tRNA:CR31432
CG14483
Tim17a1
Drep-3
CG10032
CG12538
CG2059
snoRNA:Me28S-A1666a
l(3)04053
CG13124
CG18371
Prosbeta5
CG5432
CG16898
Art9
CG32276
CG12986
CG5892
Pngl
scpr-B
CG2691
CG9394
frac
Rala
Or94a
CG5510
CG10005
D1
gskt
CG14974
Wnt5
Dh31-R
adat
fs(2)ltoPP43
CG18600
unc80
CG11060
CG15643
E23
Ice2
tum
CG10839
Rbp1
CG7987
CG32082
CG15525
ric8b
CG11629
CG10822
Dpt
CG7927
tomb
CG4629
Tina-1
CG13251
CG15385
CG42268
CG12951
HPS1
CG1815
MYPT-75D
CG32165
CG31952
isopeptidase-T-3
l(1)G0469
CG10301
CG7556
CG31093
hec
Tsp2A
CG14661
CG3016
CG12464
CG33158
Axs
CG4594
ssp7
Cp36
CG15394
RpL7-like
bab1
az2
CG7560
Mob4
nop5
dmrt11E
CG17059
Ccs
CG12268
tai
Mst98Cb
CG6738
CG10588
CG8492
CG13742
stil
CG14434
CG3841
Tsp42Ei
lap
RIOK2
Semp1
Mst84Dc
tst
CG2604
CG32087
Gem3
Yp1
Rpn2
osk
CG4988
CG13474
Aats-ala
CG15439
ppk23
CG6654
tRNA:CR32421
CG13315
Or85a
CG42343
CG17380
Ide
pug
CG14275
Cks85A
CG15594
CG3156
zfh1
CG6495
CG10424
CG12170
CG13252
CG7272
jp
CG5645
CG14691
CG11674
CG30109
yps
lat
Zip42C.2
Ppcdc
CG12304
CG13188
Oseg5
CG15170
vap
CG9921
CG2254
Nup93-1
CG33462
CG13449
CG11696
timeout
CG2277
achi
CG12523
CG32649
Arfip
her
cmet
CG9757
CG2137
Hf
CG14983
CG11984
Pex13
jar
CG31036
Ost48
CG1358
tRNA:Y1:85Ab
CG32105
l(3)73Ah
Tm1
elm
CG17564
CG14573
CG8031
Fancd2
Nse4
CG9133
PAN2
CG1518
CG13137
Nhe1
CG32447
pgc
olf186-M
Cpr49Ag
GNBP-like3
Rsf1
CrebA
CG14246
ltl
Apc2
hig
CG6813
cwo
CG11373
edin
mino
CG18081
CG6749
Edg78E
CG8602
CG11307
usp
CG7881
Syx17
CG14823
pr
CG13541
Bsg
Vago
CG14418
CG10347
tRNA:G3:56EFa
Invadolysin
l(1)G0136
CG17279
CdGAPr
TyrR
CG30010
CG33275
CG32195
mus101
CG8712
Ent3
CG3259
CG14898
CG5999
l(3)j2D3
CG32241
CG11300
CG1402
CG3176
CG17652
PK1-R
CG12950
CG7886
RasGAP1
CG8067
Bap170
mRpS9
CG2014
CG9951
Ef1alpha100E
mth
CG17211
CG5274
CG43155
Osi5
CG4670
CG3008
Wdr82
CG16782
rho
CG4858
CG10621
CG9515
CG1907
Shawl
Uba3
CG10140
ppk15
CR31647
CG7856
Cyp12b2
dpr3
CG7342
Roc1b
CG15731
CBP
Cpr72Eb
CR42862
CG31436
tRNA:CR30298
CG17287
CG9822
CG32054
CG10483
CG9850
Cdc6
CG15767
gammaSnap1
Eip63F-2
su(w[a])
Npc2a
CG12859
CG7504
CG17322
mthl3
CG3704
ORMDL
ACXC
Rae1
CG17107
CG34370
CG32023
CG16837
tRNA:V4:70BCa
CG11762
bnk
CG4218
Ca-P60A
RhoGAP100F
CG6418
CG8111
CG32069
Tsp33B
CG14567
kek2
Pink1
CG30285
CG32364
pck
CG5254
wntD
SLC5A11
prc
tRNA:Y1:85Ac
Rpn9
uzip
Ret
CG31664
Wnt6
Pex3
Non1
CG33145
CG31874
CG5111
vib
CG33120
CG13084
tRNA:P:90Ca
Mst84Dd
CG42788
CG15084
Ir75d
Cngl
Rpn5
CG5089
Obp57d
frj
CG14372
Kdm4A
NetB
Nckx30C
tou
CG11999
CG31910
CG7744
CG15888
Dg
CG7991
CG43707
CG11486
mRpL12
CG11498
neur
CG12994
mdy
SP1173
uif
CG30421
tRNA:M-i:61D
Tango5
Cpr49Ab
Grasp65
CG12391
l(2)gl
rod
pav
CG7289
Sbf
CG3592
CG11391
CG9125
CG16723
Cpr5C
Fuca
Or71a
CG6950
MED8
alphaTub67C
Mcm5
CG3719
CG10298
CG11666
CG42784
Golgin84
Ugt86Dh
l(3)mbt
CG17325
l(2)k14710
Vps4
CG18472
CG5316
pcx
sls
CG7206
CG9691
CG43313
CG10654
Lhr
CG42700
CG4769
GluRIB
CG8306
trx
CG15068
bsh
CG4562
cnir
asrij
mRpL23
Lsp1beta
CG6770
holn1
CG9813
CG7298
CG30471
bdg
Mlc1
CG12728
HP6
Ilp6
vlc
CG8584
CG15332
CG14327
cpb
hd
CG8353
D12
CG3214
GstD11
CG12164
Ing3
CG15909
S2P
snRNA:U6atac:29B
CG2765
CG17819
Cdk4
CG6723
Apc
eRF1
CG8323
CG13058
ACXD
RASSF8
Cdc23
CG5937
Ady43A
Cpr67Fa1
rgn
zfh2
Obp58c
CheB42a
CG4707
CG3611
CG1785
CG14265
CR11386
ppk11
CG14082
CG43755
CG17110
CG1571
Apoltp
CG17770
CG16721
CG30373
Rap2l
dsx
cic
MFS16
CG7551
tRNA:L3:49Fb
Dic2
RpS15Ab
CG31609
CG7777
GILT2
enok
VAChT
CG17328
Prestin
CG13407
Rpb7
Spn42Dc
rin
CG10947
CG30101
CG13133
Gdh
I-2
CG14383
CG13014
CG9593
CG2017
CG13311
bgm
Muc96D
Cpr65Ec
Or67c
CG11294
CG13830
Vps35
mle
CG6453
CG32163
CG5447
CG9555
ppk8
Yp3
DNApol-epsilon58
fd68A
scrib
Cchl
CG5270
CG17928
CG13059
Obp93a
CG18540
CG3321
bon
CG5886
Lsd-2
Pig1
CG13068
tko
wgn
CG13088
amos
CG4586
Odc2
CG18609
SmD1
Bin1
snoRNA:Me28S-A1322
CG12384
caup
CG9601
DCX-EMAP
Irk2
Nup44A
Rich
CG13793
disp
CG32984
CG5327
Cyp4s3
CG15279
CG13228
aru
bai
CG30172
garz
tRNA:E4:62Aa
CG32249
Nelf-A
l(3)87Df
Drsl6
CG18469
Cpr64Ad
Aats-ile
CG16978
CG30274
CG6901
CG10265
CG9981
CG8628
CG7135
5-HT1B
Hsp70Ab
dpr12
Larp7
CG17028
CG32318
koko
Cpr76Bc
CG17193
CG6431
tomboy20
CG15529
Vha100-1
nonA
skap
shtd
Pxt
Hmgs
CG30095
AdSL
CG42284
CG4449
VhaPPA1-1
MCO3
CG14478
DAT
Tsp66E
CG17565
Slob
CG3662
CG8334
Mst89B
Atg8a
CG10598
CG30357
Hel25E
CG11444
CG17242
CG8066
CG12018
Eig71Ef
CSN1a
CG13667
CG12204
CG13097
Ubpy
CG14764
CG11227
CG7724
5-HT2B
ppk19
CG13855
CG17906
spd-2
CG8320
gammaTub23C
CG4741
CG11983
alpha-Est2
CG31262
MED7
Mst84Da
Cyp4ac2
RpS4
CG2278
Ir25a
pyd
CG4960
Wnk
lola
GstE3
Acn
ZnT41F
CG6422
alc
Lac
Tsp5D
CG12289
CG8398
CG13784
elg1
CG15735
abd-A
Ir94c
CG7837
CG10866
Hml
CG31100
CG13743
CG31639
gt
CG11737
tRNA:P:3E
Octbeta3R
CG13297
CG14013
CG31760
CG10803
CG11370
mRpS25
CG15168
CG8997
mad2
Mtpalpha
CG5379
Prx2540-1
CG31038
CG7896
CG32095
CG30394
CG11970
CG13131
Pex14
CG5525
Fibp
CG15914
CG5098
CG43338
CG31008
CG5267
CG10561
CG9701
CG18249
wnd
CG16739
Mipp1
Ac78C
CG17912
cry
CG32250
CG15864
tRNA:G3:22BCa
CG32573
CG30289
tsr
CG18304
tRNA:I:49Fd
CG2065
AttD
CG31776
CG14482
CG11563
CG9568
CG15870
Cda5
CG2217
CG5823
twr
CG10513
CG5535
CG7839
RpS5a
CG33489
Cec-Psi1
CG10639
CG3407
Ugt86Da
CG31231
CG9286
unc79
CG10587
CG13578
CG7922
br
Hsp70Ba
CG13231
CG9459
GILT1
CG5506
CG18477
Bet1
sisA
sl
CG31191
Ste:CG33239
CG5565
CG9030
CG31797
CG33137
ClC-b
Act88F
CG11912
CG8358
CG16985
CG13640
rept
CG11902
CG30016
CG17083
CG5168
WRNexo
CG11951
bi
Df31
sca
ldbr
tRNA:CR31165
CalpC
CG3822
ninaD
CG9928
CG32459
plu
CG18823
CG5414
CG15027
CG14868
CG14476
scaf
mthl10
Nplp4
CG11852
CG13054
4EHP
CG14354
roX2
CG4553
CG4025
CG13091
CG42313
Rab11
Gr23a
CG11693
CG10055
CG7708
CG10996
CG1648
Galt
CG5380
CG7747
Lamp1
RpL18A
mys
CG8596
sals
CG31915
pot
CG32523
LysE
CG31729
Fen1
fas
CG15098
CG5177
CG5758
Inx5
Hexo2
meso18E
dmt
CG6280
CG7387
CSN7
CR14033
CG14937
Gint3
Inx6
CG17300
CG10984
CG30288
CG14830
cyr
CG33303
PGRP-LC
CG12499
CG1678
chm
CG8629
mira
CG9815
CG11672
CG8646
Ucp4B
crm
CG31358
CG2974
CG14110
CG15712
CG14456
CG33109
CG31933
CG4525
ssx
Cp16
CG8517
Ugt86Dj
Myt1
CG8142
kug
GXIVsPLA2
CG13806
CG13397
CG32271
PebII
snama
l(1)sc
CG6084
GAA1
CG10321
ninaC
CG12307
Dhap-at
CG4098
CG7715
wit
CG14424
CenB1A
Obp50e
Cyp4g15
Smurf
Smyd4
SP2353
CG4598
Npc2h
CG11398
CG7154
Vhl
Cyp12e1
CG9799
ArfGAP3
sei
Cpr62Bc
Aac11
alpha-Man-I
CG34109
CG18542
CG11619
CG12003
Rx
Ctr1B
Pglym87
CG7338
FoxP
CG16712
CG17029
CG9147
ppk28
alphaTub85E
CG13300
mst
jub
Dr
GS
hyd
CG15473
Sug
SkpA
CG13577
CG6347
lgs
GstE2
CG13299
CG7120
CG7017
Ir8a
CG15456
Med
CG14590
Ir94h
CG13481
CG30495
SkpC
wisp
CG5555
CG6508
Sirup
flw
CG1722
CG31677
CG7857
CG3909
CG14262
CG13559
PlexA
beat-Ia
DppIII
GstS1
CG9331
Fit1
awd
Or59a
Neos
tRNA:CR31889
CG14260
CG12470
MstProx
Sk2
Ref2
spi
c12.2
CG14512
CG7458
CG32246
CG17556
snRNA:U1:95Ca
CG13247
CG13889
REG
CG9300
fab1
Kr
Hsl
CG13631
obst-G
Chrac-16
CG16868
CG12004
CG16953
px
Fim
Miro
CG13060
Cp1
Nmt
CG30265
PIG-C
CG8501
Cyp9f2
Pi3K92E
CG17344
CG11103
CG5681
CG13454
Atf3
CG8891
upSET
CG4936
mute
GstE14
Sod
lbk
CG5791
CG13827
Ace
CG31676
ASPP
Mal-A7
CG10481
CG30203
Trxr-1
MBD-R2
Mst77F
CG7294
CG33017
Yp2
csw
CG4009
RpS9
CG17598
CG8187
CG13693
CG9257
CG4021
CG31898
Gasz
CG8630
CG31141
dnk
CG13579
CG9747
ome
CG31259
Leash
CG1561
link
CG11505
elgi
CG2616
Vha68-2
CG3803
CG1806
CG15260
Srp9
CG7772
CG15293
CG2493
CG1774
CG7083
CG3557
Dp1
Obp50b
CG7656
GstT4
alpha-Est5
CG31128
Sans
Traf-like
CG10338
Spc105R
CG3045
CG11413
CG15249
e(y)2b
tRNA:N5:42Ae
CG15093
CG14572
CG14294
Ssl
CG2145
gce
CG15099
CG6683
repo
CG12708
CanB
TotZ
CG14005
bbg
CG5706
CG5346
CG31115
CG3548
CG5044
RpL37A
NijC
CG34461
CG13002
ndl
CG8552
skl
Sr-CIV
Mocs2
Sry-alpha
CG6443
RpII215
rho-4
Gp150
CG5863
CG3500
CG13473
Sip1
Pdh
Arc42
CG14835
SdhA
CG7265
CG10962
CG12309
Gr66a
CG3277
CG8003
CG15544
CG3610
CG34383
Ant2
Mlf
CG7264
bys
dx
TTLL3B
CG8565
Acam
Muc55B
Obp83g
mthl11
alrm
ImpL2
app
Cyp308a1
Mfe2
fne
CG11456
Or19a
CG5810
CycY
Adam
Spase22-23
nAChRalpha6
CG8145
Tsp68C
CG10553
CG8441
CG2113
CG13101
Taf13
NFAT
dpr18
Vti1
Brd
retinin
yellow-h
cyp33
lectin-46Ca
Rh6
Ptp10D
wol
CG9395
c11.1
NiPp1
CG17570
CG10384
CG2556
veil
CG31778
CG9422
CycG
Lap1
CG14036
MFS18
deltaCOP
CG8397
Aats-ala-m
CG4440
CG34345
CG10268
SoYb
CG11279
CG43164
CG30391
CG31924
Cpr76Bb
dom
CG32032
ppk13
GstD8
CG8929
CG16742
CG16719
Cpr64Ac
CG3632
tRNA:K2:42Ea
CG4374
CG13227
CG8135
Arl1
Drip
l(1)G0148
CG4095
snRNA:U5:34A
CG43693
Drep-4
l(3)76BDr
S-Lap8
fu12
CG16727
CG15142
SelD
CG33189
CG10560
Inx7
Bili
PhKgamma
CG15403
CG17385
CG11388
Ranbp9
CG30419
CG11379
Or42a
Dh44
CG15116
Mkk4
RpL18
CG13114
CG3588
CG15905
CG9044
CG12853
CG4563
CG11570
Cp7Fc
Takl2
CG32817
Npc1b
CG42449
scramb2
Ir48b
Cyp6t1
CG15047
Rok
stum
CG14221
Oseg1
CG15908
CG32243
QC
jumu
CG15471
CG30415
CG42237
w-cup
CG11313
CstF-64
Tim9b
CG13423
mRpS18B
CG13531
CG9107
CG12898
P5cr-2
Tcp-1eta
CG14787
CG32073
CG4662
CG10591
CG14915
CG2519
Ripalpha
CG31551
Nedd8
CG1968
cnk
bou
NPF
eIF2B-beta
Hers
CG9514
phol
CG32485
CG12692
Ppcs
GV1
CG33098
CG14803
CG34439
rtv
CG4927
Trc8
cert
CG8783
Rca1
ben
CG30354
CG12480
Wnt4
CG17239
CG7168
LRP1
PEK
futsch
Cpr72Ea
Spn28Da
CG8042
Ir52a
CG11997
GluRIID
Gasp
Pal1
CG13606
Calx
LpR1
NELF-B
CG5326
CG14247
CG10845
trus
CG5509
su(Hw)
CG5199
Sara
CG11438
CG5515
eco
CG12729
CG8498
nsl1
CG4892
l(3)psg2
CR18854
CG16959
CG18067
CG10147
CG17244
CG30161
Gli
CG6091
CG2839
CG13589
rhi
CG9962
CG11191
CG2650
CG32081
CG30091
CG1213
CG12818
Psi
CG31922
betaTry
CG12209
Lsp1gamma
Dic1
CG13613
Cpr49Ae
CG11455
lok
CG12007
CG13604
CG4692
CG14743
D
Nnf1b
CG7630
CG3800
CG13842
Inos
CG2767
CG17267
CG8851
CG7183
CG6345
Git
Src64B
CG31098
Eh
Pask
CG3835
CG4338
asp
CG6337
sty
CG13616
Rh7
CG32944
S-Lap4
CG4949
CG15211
CG8768
CG11447
CG10445
Pak3
Atg10
CG17329
pad
CG30001
MED25
Obp84a
Lk
yellow-g2
CG8478
MFS15
CG10631
Cyp12a5
CG17807
CG31805
CG4372
CG32834
CG1143
exu
CG31415
CG2871
Sur-8
DnaJ-1
Gbp
CG3528
CG5445
Hmt4-20
CG42340
Tcp-1zeta
y
CG14892
His3.3B
CR32207
CAP
snRNA:U4:38AB
CG11598
CG14118
CG3925
Osi19
CG4565
RyR
Spn77Ba
dlt
CG11050
CG1319
ppk29
CG14945
jv
udd
SA
mRpL9
CG7166
tRNA:G3:35Be
CG7115
CG17177
GstO2
GC1
Ada1-1
Tsp97E
CG32639
CG4925
CG10581
CG11155
Lcp65Ad
CG6330
CG32432
CG32277
Osi20
Crz
RpL13
tRNA:E4:62Ae
Idgf5
CG11374
CG14829
Hmx
A16
CG5644
CG42249
Or19b
CG13314
CG32642
CG12860
cactin
tRNA:S774:12Ef
CG15399
S6kII
CG34340
Snx3
CG9444
CG6674
CG32071
ato
CG18336
CG31650
Tengl1
Fatp
CG14655
CG32487
CG12147
GstD3
CG32264
Cyp303a1
Tctp
CG3356
Cyp6a13
Rpt4
CG7461
sub
CG9306
CG15666
CG14669
CG13310
CG3292
CG18262
CG14855
CG14407
CG31773
CG11165
karr
E(var)3-9
CG12253
nst
CG4749
CG32017
Timp
Droj2
CG11626
mmy
Sirt7
CG7432
Sbp2
pio
CG4042
unc
CG5969
dpr9
gammaTub37C
Osi4
Sh
Rbm13
CG31806
CG33671
Cp190
M6
Cht12
CG4341
RpS6
CG10144
Unc-76
tRNA:CR31480
NimB5
Rgk1
CG15386
CG2662
825-Oak
mtg
CG7882
CG15096
CG13403
CG4729
Rab6
CG32201
ntc
CG14195
CG12491
bowl
Pka-C2
natalisin
CG17816
CG14253
Acp63F
mtTFB1
CG16741
CG14545
CG12817
CG31548
kar
CG2818
CG14840
gem
tRNA:R2:42Ac
spo
CG9014
CG9336
Hand
CG15580
CG5440
Met75Cb
CG4781
tun
CG30379
smid
MED20
Clbn
Lerp
Su(var)3-9
AGO2
T48
CG14931
CG13912
CG11377
blanks
CG2807
Syx1A
CG18478
Trissin
CG32521
Ugt36Ba
CG42389
CG10543
CG7191
CG32536
CG8960
CG13492
CG12519
Cpr47Ed
sfl
Scgdelta
CG2941
Nup154
Teh4
msn
HP5
CG10205
UbcE2M
HBS1
Ptpa
CG6729
Edc3
Gr93c
CG8366
CG5421
CG10721
TwdlBeta
CG15115
CG30377
TwdlP
Acsl
CG31949
CG9267
Nle
CG1463
CG6304
al
CG15395
corn
CG14505
Ssu72
tRNA:V3b:84Dd
ptr
CG13833
CG11980
blow
uri
CheB93b
CG30185
CG14841
CG33993
tRNA:G3:57BCa
EfTuM
Fsn
CG12948
CG32829
CG5958
CG14229
Capa
Ipk1
Phae2
CG5793
CG31775
CG2993
CG5045
CG1354
H
CG42326
trem
esg
CG2898
Rcc1
bonsai
CG9649
CG31559
bc10
Ir21a
CG8549
Obp83b
CG16833
Or56a
CG11275
CG9603
CG6650
CG42674
CG9281
CG9920
Mcm10
CG5953
Kul
CG1941
CG9483
CG7728
Amyrel
CG5642
deltaTry
CG34396
Sox15
l(2)08717
fln
tkv
CG14609
Fas3
fend
Eip55E
KrT95D
os
Prosbeta7
HLH106
CG8908
CG9672
Cctgamma
CG18788
mod(r)
CG10426
CG32726
CG7045
Evi5
CG42747
CG9760
Or98b
CG34353
Cyp18a1
Dis3
CG7300
RpL34b
CG14089
CG1236
Corin
Pop2
CG11655
T3dh
CG15564
hiw
CG12213
CG3168
Gal
CG3795
RpS28a
prom
CG10280
spz6
Cpr97Ea
Osi8
Nup214
CG13991
CG42750
CG9029
CG13622
CG15764
CG16756
Cpr65Ax2
CG42666
sw
CG32074
Dp
CG14274
asun
CG9839
CG13937
CG34357
Traf4
CG13359
Fem-1
CG17283
mRpL33
CG11854
CG8401
GABA-B-R1
CG7341
HHEX
CG4797
CG12229
CG5071
CG13653
Gr93b
CG5213
CG6308
CG6830
CG7943
RpL36
CG10864
CG3213
CG11249
CG3040
CG13116
arr
CG3625
Nrx-1
CG10177
CG15741
CG17026
CG31759
slpr
vito
betaggt-II
Sr-CII
CG5194
CG6012
CG8541
per
mRpL54
Rpp20
CG14958
CG3108
CG32676
Gyc-89Da
CG9175
Mal-A1
Gl
dyl
CG6071
CG4757
CG32533
Npc1a
CG1986
jvl
sli
Acp53C14b
snRNA:U5:63BC
CG9101
RnrS
Su(fu)
CG13560
Mys45A
CG30438
Ntf-2r
glec
CG7101
spn-A
CG16753
Ser8
CG15309
CG13443
mthl9
CG4335
CG30093
CG31875
RpL34a
CG2736
TwdlB
CG9782
Cda4
Hsp70Bbb
CG32713
CG15695
CG9953
RhoGAP102A
Vha26
CG13870
CG42360
rib
CG11825
CG17378
foi
CG6891
CG8243
Edg91
Cyp6t3
spri
CG13902
Cyp6g2
tan
CG12592
pst
kek3
Or67b
GABA-B-R2
dy
CG8008
CG13323
CG5151
chas
CG14625
Osi6
mRpL14
PCID2
Pvr
Fie
CG30325
Kap-alpha1
CG5190
CG13170
CG31958
CG34342
Vha100-2
ppk25
Mdh1
CG11107
CG7829
CG18547
SIP3
Scox
CG12934
Doc1
CG1983
verm
nAChRalpha2
AdipoR
CG1764
mwh
Cpr67Fa2
LysX
sgg
Ptp52F
Dhod
CanA-14F
CG14516
Tengl3
CG6791
Osi7
intr
CG31198
CG15141
CG9465
CG1544
unc-5
CG13306
Pfk
Cyp12d1-d
CG11634
CG5196
CG14627
CG9899
SMC2
CG7949
PGRP-LF
CG13539
Fpps
CG15550
CG10336
Las
eEF1delta
CG32214
Tpc2
CG13460
Cpr66Cb
CG17919
Rlb1
Ir87a
CG14411
CG10170
Dro
CG15056
Tb
CG8281
Prosbeta4
beta4GalT7
Cisd2
bocksbeutel
Ski6
CG9270
CG42797
nrv1
CG12590
CG6052
Dlc90F
CG6415
CG14301
Cyp4d20
CG3773
CG13965
IntS10
dar1
Pex6
CG8159
CG31205
Snx16
tRNA:G3:35Bd
Dph5
Tim17a2
CG4768
CG12769
CG5873
CG42724
Patj
CG15673
Arp3
CG17047
Spn100A
betaTub85D
Oatp33Ea
Cyp6a9
CG13919
CG1631
gb
MFS3
CG5478
CG7655
inc
Cec2
CG32106
CG30080
vimar
CG3164
fd64A
a
raw
CG11601
CG16791
RpS15Aa
CG8852
CG14606
Ppm1
mew
DNApol-alpha73
CG17337
Pabp2
vkg
Cyp4d14
TpnC47D
Eig71Ea
CG7712
vfl
CG14820
sip3
CG14947
Cyp12c1
XNP
gprs
sas
CG17119
CG14291
CG4459
CG12866
CG11334
CG5807
CG42575
kune
Mpc1
VhaAC45
CG1387
CG11284
CG3731
JhI-26
His2B:CG17949
CG1909
CG14062
CG12998
pico
CG32479
SkpB
Arpc3B
CG17593
Tpc1
Hem
CG6690
CG15880
CG9205
CG18136
CG14946
AP-1mu
mbm
CG5172
Msi
CG12484
CG9468
CG2837
Manf
dare
CG3812
Ugt37a1
CG17196
CG15443
MED6
Cyt-b5-r
CG1124
CG32452
san
Uba1
SMSr
Or43a
sha
CG18095
Mcm6
Csk
CG9643
CG14011
RpS19b
CG14838
CG17982
tRNA:D:96A
IM10
CG3894
CG33543
CG10562
CG13163
CG6847
CG2528
RpII140
fat-spondin
Snmp1
NUCB1
CG6967
SamDC
DNApol-epsilon255
Ref1
beta4GalNAcTB
CG1299
Gbeta76C
GstE13
CG3121
CG5273
CG9062
otk
CG17068
RhoGAP92B
CG32280
CG9990
Got1
Porin2
mRpL52
Thor
CG16800
tacc
Crk
CG32681
Tsp29Fa
ogre
tRNA:K5:29A
phl
Rack1
Spn55B
Nsun2
CG15034
CG10859
CG9541
CG33096
Lip2
cd
l(3)neo18
BHD
CG12107
Xbp1
CG8419
CG6583
Hsp67Bb
CG31708
CG9485
Cpr47Eg
CG4942
fusl
Sod3
Rab9D
CG11686
bsk
PGRP-SA
CG15011
RhoBTB
CG11865
CG30069
CG12991
CG5948
CG9879
CG1434
CG15043
elav
Cam
CG7778
Ubc84D
CG3939
RabX5
mei-P26
Ir92a
CG12655
CG15073
yellow-d2
CG34126
wmd
Membrin
CG10132
CCHa1
CG32219
CG33713
ncd
CkIIbeta2
Muc26B
aop
CG18764
CG5398
Naa60
ptc
a5
CG11788
CG31109
CG11585
Nacalpha
CG7786
Eig71Ek
run
CG31337
CG32278
dlp
E(spl)m8-HLH
CG30002
CREG
Ald
CG16825
CG6790
CG34120
CG2641
Edem1
CG42450
CG31437
Ets96B
fwe
CG18641
CG6568
CG12498
cnc
Dic61B
Tak1
can
su(r)
l(3)03670
Tango11
CG3306
Rpp30
qin
Lgr1
CG17376
CG14331
wa-cup
nmdyn-D6
tRNA:Y1:28C
Zip48C
CG17030
Sgs1
TAF1B
Or2a
Cht7
Sps2
CG13151
Wnt2
Dbp45A
vg
Wnt10
slik
Fbw5
Cpr78Cb
tRNA:CR30220
CG4049
CG15107
Victoria
CG3942
slmb
CG15706
mRpL19
CG32079
CG30497
CG30412
CG30284
lds
CG4705
CG12279
haf
CG9903
betaNACtes1
Dip-B
CG1126
Brca2
Sulf1
mos
Dhc98D
CG1638
CG32767
CR32652
tsu
CG11964
CG5010
CG17669
CG3347
CG13654
CG3513
dysc
pkaap
Fas2
l(3)72Dr
tex
Mes2
CG1545
CG1671
CG30403
kek4
CR6434
CG31195
CG16965
sug
CG4073
CG31626
sdk
Pph13
Jheh3
CG12620
CG30043
CG10195
fd59A
CG7906
CG42337
CG33226
CG32797
CG14720
CG8108
Rab2
stumps
RpL13A
CG15912
Ir67a
toc
CG32170
CG4038
CG13581
CG9673
CG6059
CG14070
CG34347
CG30152
CG30271
CG31326
CG14795
Parg
CG15599
tRNA:CR31603
row
Amph
CG5285
Dab
CG32085
Snm1
CG31142
Gpi1
CG9376
CG10585
CG9090
CG15571
CG15497
Pmm45A
Rab3-GAP
peb
Galphai
Rim
nrv3
Mkrn1
Atpalpha
Grd
CG8713
CG9498
psidin
RfC3
JhI-1
Lcp2
Hr96
CG12995
CG14619
ND42
CG8526
wuho
CG18661
CG31533
CG12920
CG8870
CG7218
CG18063
Osi16
CG18094
CG2199
CG14423
lin-52
Fer2
CG13369
Ste:CG33236
Prosbeta1
CG12428
JIL-1
msd5
spn-F
Ssadh
RFeSP
CG2016
stan
CG17266
glob2
CG5727
CG14968
DNA-ligI
CG43980
tRNA:K2:42Ad
CG10092
CG6700
OdsH
CG15253
Ir7a
mthl12
Diap2
CG12123
Gr63a
enc
GlcAT-P
CG32512
Pgd
Nep1
CG12014
CG14151
pll
CG14297
CG6839
CG17574
CG14500
CG9505
N
Meics
CG30100
KFase
RpS14a
CG12375
Ank
CG15071
RpL4
CG1523
CG30378
Ncc69
Fur2
AOX4
tRNA:CR31166
CG31542
CG13594
tral
dia
CG1129
Mnn1
orb
CG11309
tRNA:P:35Ba
CG17019
CG9886
CG32113
Obp56d
CG6414
del
CG6656
CG11236
Hex-C
CG6294
hh
Surf4
CG2862
mei-9
CG12477
beta'COP
CG7840
CG8043
Oat
Ipod
CG14949
Ugt37c1
CG11755
CG6685
CG5323
CG13705
Vha16-1
EDTP
Dpy-30L1
CG4332
CG6168
CG2970
mTerf3
CG10508
fig
CG31812
a6
e
CG13442
HmgZ
CG15876
CG14286
CG13043
Spc25
eIF-2beta
CG13202
CG9896
CG14438
Cad99C
CG7382
RpS5b
mRpS10
S-Lap1
CG13048
Tsp26A
CG15308
CG7423
Dl
CG32683
CG3119
Mio
CG13841
CG32819
fws
Cnot4
Strica
Phae1
Vha36-1
CG1809
CG14562
Ccn
Pcmt
CG17375
Blm
Sox21a
Ance
dbe
CG3223
Grip163
CG15747
CG14535
CG14075
CG14207
Cdk8
Oamb
Prp8
Hsp27
Plip
sog
nAChRbeta1
Spn38F
hid
CG30479
Sgs3
Obp56b
bxd
cdc2rk
Srp19
Burs
GalNAc-T1
sle
Usp12-46
Orc6
sunz
Ptp69D
CG12155
CG17104
KP78b
CG14499
CG1942
mey
Aats-met
CG10527
Vav
CG9458
CG7634
CG13676
CG3655
CG15144
Sgs7
fd96Ca
gk
CG31248
CG16865
CG12316
CG9171
Atg18b
CG17776
CG32188
mus301
CG33111
CG11317
CG11382
CG10365
CG2983
CG33191
Osi18
Fs(2)Ket
CG9992
CG9993
CG13545
sda
MTF-1
Sox14
Syt12
CG3078
CG11029
CG18769
CG5986
schuy
Dyrk2
gnu
Notum
CG11023
d-cup
RhoGAP68F
spen
CG32576
sky
loco
Cyp4d1
CG16853
CG10931
mtSSB
Mul1
rictor
dUTPase
CG12617
CG5835
CG7441
Zif
NimA
CG30344
AOX2
CG7376
roq
betaNACtes3
CG15434
eIF4G2
Acp95EF
CG14113
CG10597
CG32982
CG5910
CG4725
CG8915
CG17734
Cpr47Ec
CG5790
CG12162
CG30480
CG6083
CG30108
CG15877
CG14277
CG14982
Obp47a
CG6145
CG32298
Lcp65Af
Tollo
CG31189
St2
CrzR
CG9259
CG11350
CG14913
CG6020
fs(1)K10
mRpS30
obst-A
Ef1beta
CG13748
ksh
CG9987
CG18132
CG12438
RfC4
mRpL18
CG7367
SCOT
CG11286
CG33934
Clic
Sld5
CG6574
Ac13E
noe
CG11474
CG34376
Rh3
CG30048
CG31788
CG31029
CG18673
Sardh
CG11670
lmd
CG16972
hb
CG17362
baz
CG9536
Rgk2
loopin-1
CNMa
CG10257
CG15579
osp
lost
Ir52d
CG5347
M1BP
CG5724
CG1139
CG13996
CG13694
CG12081
CG8204
HDAC6
Torsin
Arpc1
drpr
CG15208
Cyp6a8
rngo
CG13484
CG31928
CG8321
CG5482
CG10663
Ggamma1
CG9213
Hr46
CHORD
CG7514
CG11289
Myo28B1
CG5404
Obp49a
Dbp21E2
Spp
CG32590
Cpr30B
CG17931
CG8547
CG3280
lva
ninaA
Cpr65Au
CG3326
Prosbeta2
nompC
CG6785
CG14231
B-H2
mRpL30
CG14752
CG7137
CG14687
Osi21
gry
CG31365
CG12902
CG31465
Arpc3A
Csp
CG9168
Max
DNApol-iota
spoon
CG4789
Taf4
CG12126
Or22b
fz4
Aats-arg
CG13055
CG30280
CG13674
Ir64a
CG6845
mei-38
CG10283
Wee1
unc-45
Men-b
eIF2B-epsilon
CG4619
pan
Cyp6d4
CG9590
imd
CG13322
CG10086
Proc
r-l
ADD1
CG15919
CG9686
aly
Cdlc2
insb
CG6279
CG7033
CG8202
disco
snRNA:U5:38ABa
CG3984
CG13229
Fkbp14
Sas-6
mRpL35
CG15650
babos
Hrb98DE
CG31710
CG15630
Pkcdelta
dan
CG30015
CG12698
CG10646
CG9319
CG15152
CG12945
Uhg1
TFAM
CG1902
Cpr78E
Blos1
Lpin
Asciz
CG1239
Plzf
Ama
CG31249
CG1662
Cap-D3
CG8468
Cyp4p2
CG13458
CG13476
mRpS26
CG3838
CG14391
CG15020
CG8147
CG32750
pho
clumsy
l(3)07882
Arr2
erm
Atx-1
CG16771
mRpL15
CG10341
CG6638
CG5322
Lst8
CRMP
CG6808
CG12826
CG8405
CG9203
RpA-70
CG4286
Rab35
cold
CG13716
CG4302
Pif2
CG31698
CheB98a
CG17724
mof
Muc91C
bchs
l(3)02640
Sgs4
CG15296
Elo68alpha
CG7429
Damm
Diedel
l(2)k10201
Cyp6a18
List
Pal2
CG6406
fs(1)Yb
upd3
CG8476
Actn3
CG14186
CG6614
Sry-delta
Mst57Da
CG3520
CG5854
CG32305
Vap-33A
CG10801
CG10899
CG11306
rho-7
Cka
mRpL48
Tom20
CG6325
CG30177
tRNA:V3b:92Ba
CG31926
MtnA
CG31643
312
CG14257
CG32302
CG11164
CG2051
WASp
CG31431
CG14701
Su(var)2-10
Gr61a
by
Pax
rtp
RagC-D
Oatp58Dc
how
psq
CG9521
CG2218
Hsf
CG1109
CG11600
CG13957
Pif1B
T-cp1
CG14693
CG13575
CG7518
CG10778
CheB42b
CG6512
OS9
CG18269
CG30089
h
bves
tbrd-1
CG31974
tefu
CG4365
CG33932
CG6961
CG8738
CG14739
Cyp28c1
RSG7
CG33159
Aats-ser
Papss
CG6178
CG5355
Cyp313a4
CG8180
CG2034
CG7470
CG8216
scaRNA:MeU5-C46
CG2469
Eaat2
CG31086
CG31413
CG5693
Kdm2
CG17801
IM23
Rab7
CG9164
CG13040
CG33970
CG13078
CG10081
CG6362
CG30432
WDR79
CG8027
CG15891
CG15923
CG7997
CG1208
myo
kermit
CG1421
beat-VI
CG11337
CG17352
Gr98a
CG32371
CG9518
CG12119
dob
Gip
CG18735
RhoL
gcm
Den1
CG5888
Ocho
CG5048
cher
PICK1
didum
CG2162
ph-d
RanGAP
CG15765
Ykt6
CG4911
CkIIbeta
Eps-15
CG4281
fon
Krn
CG13894
CG7607
CG10476
NitFhit
SH3PX1
CG9642
Hr78
CG3065
CG15023
CG31546
CG4723
puc
NP15.6
CG31950
CG4744
metro
CG13384
Sr-CI
CG16904
RunxB
CG43163
p-cup
CG12360
CG13760
CG6617
CG31802
CG12848
mnb
CG5934
EndoGI
CG18662
CG17821
Oatp58Da
CG3338
CG31798
DnaJ-60
CG11044
Syx7
CR30029
Tsf1
CG17237
CG6565
ptip
CG4000
CNT1
CG14921
CG17404
RpS8
CG15522
dpa
CG15754
Rpt2
dpr17
Diap1
Arp10
CG12974
CG13775
CG15601
djl
betaTub60D
pwn
CG11125
CG9254
alpha4GT1
CG17470
AOX3
boss
CG11437
Hsp70Bc
CG6123
CG12035
CG42668
CG10375
CG7810
Obp85a
Mbs
CG13930
sina
Rab19
CG8490
Cfp1
CG13404
CG31636
CG11841
CG6978
CG18537
CG8273
Lcp4
CG12912
CG16812
Amy-p
lqfR
Mpcp
Csas
CG6126
CG34351
dmrt93B
pcl
CG32425
comt
CG15578
Orco
jhamt
CG1492
Pof
scyl
CG8300
PK2-R2
CG2127
Mppe
pea
zuc
PpD5
Mip
CG8087
Bet5
kon
prod
CG15547
bcn92
CG17985
CG6333
Incenp
tRNA:CR32420
Fit2
porin
Rab1
Gr59d
CG33061
CG10514
CG13067
dila
CG13794
S-Lap2
CG11752
clu
Msh6
CG14096
CG6051
CG9068
CG9109
CG10038
CG32262
Meltrin
CG12490
eas
AP-1-2beta
CG2794
fbl
CG8671
Ir7g
CkIIalpha-i1
alpha-Est3
CG31145
CG32248
Cpr11A
CG13723
CG9172
l(1)G0045
CG31960
comr
ovo
CG14100
CG2292
fl(2)d
CG15210
Mes-4
CG30275
Sox102F
drongo
yrt
dpr8
eIF3-S9
CG18231
fz2
CG5174
CG14850
CG9389
CG30046
Mcm7
I-t
CG14196
l(3)72Dn
lolal
Sec24CD
CG5245
CHMP2B
CG4766
CG15185
CG6833
CG31780
CG12811
CG7766
Nox
RabX2
Ance-2
GNBP2
CG11889
RNaseP:RNA
CG42261
CG4587
CG12203
CG32806
CG31099
Ranbp11
CG15546
CG17597
CG10031
so
Smg5
CG13711
CG16820
Tie
faf
Spn
clos
CG10362
Gr59f
ATP7
CG1311
Spn88Eb
srw
CG2875
Obp50c
Cat
CG7589
Mst57Dc
p53
Crtp
CG15153
dome
Nxf3
CG3967
CG42564
Gr57a
CG10659
xmas-1
GATAd
lectin-33A
CG18507
CG9737
lab
CG10474
lox2
Glt
prel
CheB93a
SdhC
CG7755
Elk
eIF4G
cn
snRNA:U5:38ABb
CG7091
Peritrophin-A
homer
CG11073
snky
CG13617
mRpL11
CG10948
Hcs
CG10337
CG4465
mRpL41
Dat
CG14662
CG7465
CG7813
Rpd3
e(r)
CG12231
Girdin
CG12129
CG5728
CG31675
TBPH
CG8012
CG13465
SP1029
CG32260
CG5070
CG14204
Jabba
mms4
Cht2
exex
dve
Cerk
CG5397
CG8141
CG17065
Osi13
tim
qm
CG31792
TAF1C-like
Sin3A
CG8461
ecd
CG18003
ND75
CG14818
CG15446
Toll-7
kni
CG15711
GIIIspla2
CG13618
CG18171
beat-IIb
CG13157
CG10688
sol
CG4115
CG8910
CG5065
Or22a
CG5718
CG1603
CG8197
RpS3
CG17600
tutl
CG14507
tey
CG6398
tRNA:K2:56EF
Prosalpha6
CG30178
CG9525
Gr22f
Tpl94D
CG33509
Rep
arm
CG33155
Mhcl
CG3690
CG8080
Int6
Obp57c
CG15927
nonA-l
CG2267
alpha4GT2
TrissinR
CG6660
CG13175
Cip4
CG10911
danr
CG6401
CG32086
ninaB
Pms2
Hsp68
Sep4
CCDC151
Ziz
G6P
CG2091
CG14566
CG15514
CG9222
Drsl4
pps
CG12507
rost
Mtk
Gie
CG14621
mi
CG17974
hay
CG14906
CG33461
Oseg2
Osi3
BBS4
eIF-1A
CG31053
CG5708
Tsp42Ec
Oatp26F
CG30385
Or33b
nkd
CG9715
mRpL36
Scgalpha
CG15458
CG17098
Usf
frma
gol
DptB
Ste12DOR
CR30055
Cyp4c3
NimB2
Dredd
CG8102
RpL29
Ccp84Ae
CHKov2
Doc3
Fbl6
CG14518
CG30389
CG6769
CG32053
CG13563
CG6761
srp
CG5742
b6
CG11652
Obp56e
CG5144
CG3097
Hr51
CG30075
ref(2)P
Opbp
BM-40-SPARC
Ip259
Or33a
CG8774
ast
Osi10
lectin-24A
crq
nub
CG12056
CG2116
CG2121
CG13931
CG4165
Sec61alpha
CG2157
CG3735
RNaseX25
CG11697
sgl
Map60
CG14441
CG8004
CG10909
Desi
CG15408
Lig4
ths
Sec16
CG1943
CG17782
Obp50d
CG13069
CG13255
CG11247
CG30287
CG8213
l(1)G0196
CG7888
ZAP3
noc
Aats-cys
Octbeta1R
Or45b
CG32548
lectin-24Db
CG13047
RpL26
CG6024
CG1773
MED22
CG13949
Marcal1
Taf12L
yellow-f2
Rpn13
Ack
MED14
CG1946
Lcp1Psi
Kif19A
YL-1
Vha16-2
CG7946
Pbp49
Tom70
CG16836
Cht9
snoRNA:Me28S-A3407a
Pebp1
Twdlalpha
CG4691
CG4270
RpL41
Mal-B1
CG2694
MsR2
CG32091
CG32228
Tsp42Ek
CG14043
CG12050
CG16817
Zn72D
Nplp2
Gnmt
mbo
hng2
CG5623
Adgf-C
CG11340
CG42541
Gr21a
Spn28Dc
CG18324
Mp20
hfw
CG14109
CG5498
Prosbeta6
Gk
dbr
sano
Cyp4d8
Hip1
CG9723
Obp19a
CG17855
CG4887
Asx
cact
CG15422
CG32270
CG9626
lig
CG12581
CG5746
c(2)M
CG5342
CG12869
CG12680
EfSec
Pi3K68D
Sap-r
CG31612
CG42709
CG5828
CG3409
CG15445
CG3700
CG1314
Met
mRpS11
pog
CG1231
pdm2
CG4194
Sp1
CG9426
CG31104
CG14967
CG31817
CG30062
CG10725
CG17145
Eno
MED18
nuf
CG10566
DCP1
cue
CG6231
CG32192
CG11977
CG15449
lectin-30A
ImpE3
CG3568
CG2931
CG12112
LysS
CG6931
Oaz
ms(3)76Cc
ppk31
Efhc1.2
Argk
Mgat1
CG12699
Dak1
CG18343
Hsp60C
Vps29
Ir100a
CG32812
stl
CG8298
Tsp39D
lft
CG9674
CG7707
CG1077
CG6805
snRNA:U12:73B
CG17777
Pcl
CG7320
Vm34Ca
CG14451
CG14866
CG1598
Hr83
CG11151
CG1640
mgl
Syx5
CG5435
CG14232
Use1
CG31097
CG15317
bnl
Adh
Arp2
CG8138
CG13643
asl
Phlpp
mib2
CG10681
CG32453
Rcd1
CG11149
Acer
CG32379
Taf6
Spase12
Obp19b
cos
Mco1
Atet
l(1)G0156
dpr6
CG10713
CG31441
CG6597
CG33271
brm
rho-6
CG5026
CG9676
Rab10
CG16713
Akt1
Hex-t2
CG42749
CG9149
Glut1
CG1146
CG32107
vvl
Dhfr
CG13983
shn
CecC
Orc4
CG17105
CG6005
CG14817
CG8399
CG7768
CG3330
Nep3
CG9317
CG13707
nompA
CG15882
CG10178
na
Ubc6
Tmhs
l(1)G0222
CG31206
CG31457
CG14147
CG13933
Or94b
iPLA2-VIA
CG43737
CG1304
CG13737
dl
CG43078
CG14977
CG32488
tRNA:S4:12Eb
CG42264
Spt-I
CG31814
CG15322
CG13659
tws
bip1
CG3448
CG5003
CG9356
YT521-B
cort
CG31644
alpha-Est8
CG2918
CG17005
CG13003
CG5246
CG2070
CG31463
CG11659
Klp61F
disco-r
GluRIIB
CG32182
Est-6
CG13032
CG5412
CG2926
phtf
CG4721
CG8586
tej
CG10638
TM4SF
Or98a
Grip
CG4078
CG32413
Tango4
CG11333
CG3348
CG32117
pnr
Cht4
CG12054
Sox100B
CG9609
TMS1
CG7785
Vm26Ab
CG15459
Cyp9c1
CG6439
FK506-bp1
stau
CG9592
CG15570
CG4610
wuc
CG14631
Mlc-c
Ilp4
CG42265
Tnks
CG16998
tRNA:CR31356
mRpS2
CG10510
CG7968
CG3446
Art1
eIF-3p40
CG15237
Pol32
TM9SF4
sba
CG4612
fs(1)h
CG15535
CG7102
CG7694
salt
CG10592
CG4847
CG30430
CG15040
mRpS22
Pex11
CG8064
Prat2
Acp53C14a
CG15873
Pka-R1
Cpr64Ab
Acp26Ab
CG8086
CG30380
ventrally-expressed-protein-D
Try29F
CG3483
CG8136
nol
Dpck
CG12420
Sodh-2
Mi-2
FMRFa
CG10202
unc-13-4A
Cpr57A
CG13670
barr
CG3732
Spn42Db
rux
put
CG5386
CG5804
Hop
CG18012
CG7372
CG14569
Gmer
fru
CG1441
CG11417
CG10000
CG5641
Cpr56F
CG13999
clt
CG2698
CG15534
PGRP-LE
CG30345
Mal-A2
CG4813
Cp7Fb
CG1647
CG42663
CG5142
CG8860
CG32039
CG1667
MESR3
ppk3
wat
RpLP2
CG15225
CG8046
CG1814
tipE
Syx4
CG5694
CG15465
to
CG30159
Mcm3
CG15618
CG9360
CG11668
FucTA
CG30158
CG12689
CG4221
CG2865
Arf79F
CG15065
CG1416
RpS17
tx
ine
CG10324
CG5928
CG1091
CG11723
t-cup
CG12496
CG6553
CHES-1-like
sif
CG31139
CG16863
snoRNA:U14:30Ea
CG14463
CG11170
CG8562
CG14860
CG6171
CG31739
Crtc
CG32832
CG4955
CG30281
Myo95E
CG14749
Rho1
SkpF
RpS20
CG11656
Cad88C
Mhc
OSCP1
Ppt1
sqd
b
Pbp95
CdsA
Br140
chrb
CG8207
ck
CG7912
Pif1A
Adgf-D
MED30
CG7741
CG8152
CG4709
CG43658
Gbeta13F
TwdlE
CG15390
bwa
Pka-C1
CG15120
phm
CG15631
mkg-p
tho2
CG5590
scpr-C
CG17726
CG3264
Or65a
fok
Nipsnap
Der-1
CG42613
CG6497
Irk3
CG13982
Sema-2b
Sems
Nmdar2
CG14445
fs(1)N
VGAT
Adgf-B
CG4945
brv1
CG6175
CG14446
CG13907
CG13795
CG11362
Him
Nop56
Lint-1
CG17930
Eip71CD
CG10014
zormin
pon
Octbeta2R
Lrrk
Strn-Mlck
sel
EloA
Magi
CG13360
CG2962
Aats-val
Picot
CG7414
twe
Tdc1
jing
Ir20a
CG13494
CG5280
CG8229
IP3K1
RYa-R
CG13282
tRNA:E4:62Ab
c12.1
shg
CG9393
hdly
Acp32CD
sav
path
CG10874
Gr64c
CG9248
alpha-Man-IIb
CG16781
Cyp6d2
Nach
CG3669
Pten
Cht11
CG7332
Or45a
CG1971
Spn43Ab
His4:CG31611
CG9890
Dgkepsilon
CG6118
Eph
elfless
GEFmeso
CG7848
CG12262
Hil
Akh
Coprox
CG33108
CG7276
CG33160
FLASH
CG12911
Che-13
Irk1
ab
Ef1gamma
CG34394
CG12009
CG30424
dec-1
TwdlW
CG1998
CG3544
CG11635
g
Ssk
CR4575
CG3739
bcd
CG30270
CG31648
snRNA:U6:96Ab
CG5919
CG6834
cbc
CG15930
CG17781
hoe1
CG33178
CG9005
vri
CG43861
Osi2
CG6332
CG5157
Or49a
Xport
CG10418
Prosbeta4R1
CG32202
CG13727
Lk6
CG2943
CG3257
kay
DMAP1
Task6
E(z)
l(2)k14505
CG9170
CG5335
CG10361
Sce
CG12643
CG12269
Rab40
Cpr64Aa
Cdk9
CG3740
Zip89B
Aats-gly
Or23a
CG13875
Ste:CG33237
CG5707
Spat
CG32199
CG9812
CG5391
PH4alphaMP
CG7928
Nup93-2
CG13773
CG7149
CG13994
ph-p
Glg1
CG4706
CG8343
CG16762
mthl6
CG7609
Sgf11
NT5E-2
RpL22-like
CG33140
CG9775
CG12010
r-cup
lace
Abd-B
Ent2
Mvl
Rrp4
CG31121
CG14957
CYLD
CG30184
l(2)k09022
CG42732
CG14315
RhoGEF64C
Ras85D
snRNA:U5:23D
Pi4KIIalpha
CG11885
CG10589
CG32815
CG10184
CG6053
HP1e
CG18292
CG1428
sprt
CG8568
fzr2
gbb
CG14095
Su(var)2-HP2
aust
dpr20
CG15130
HERC2
CG6180
CG11857
armi
dos
CG16734
Tsp42Eg
CG14316
CG12913
CG10357
CG9328
CG13599
CG5703
CG14453
CG31251
CG2053
CG11226
CG5787
CG9287
RnrL
CG15209
CG31687
CG2990
CG14212
m-cup
CG31907
CycA
CG7131
Dtg
CG8245
CG4882
CG8665
CG14903
CG31368
CG12715
Dronc
ERp60
Akap200
CG13611
Tsp29Fb
CG5024
Gs1l
CG10804
para
Tip60
CG4849
CG6409
CG10748
CG13895
CG11808
CG6485
Ppn
loh
CG32196
CG17323
Gr64b
CG8701
CG15256
ng1
tRNA:CR32363
Oatp58Db
Baldspot
Ssb-c31a
CG32811
BicC
MAPk-Ak2
CG31178
Rad17
CG8838
Liprin-gamma
R
mRpS18C
Lcp3
Or83a
CG30096
Swim
CG10486
CR9337
mahj
CG10671
CG31909
CG31998
Sap47
wdp
CG11262
CG8160
CG17361
CG32148
CG10226
CG13796
CG17959
mRpS17
Mur18B
CG1824
ana1
CG4983
Zyx
CG14905
hoip
CG42699
CG8773
CG7456
TwdlH
Sox21b
CG6138
bru
CG9314
Trh
RpS21
CG8839
Oatp74D
PH4alphaNE2
FMRFaR
Arf102F
CG31313
Adf1
CG13590
Irp-1B
Ir68b
Cyp9b1
Tpi
Ir94f
VhaM9.7-b
CG10050
Rbp9
CG7579
Rcd6
CG11448
CG15602
CG10802
lute
CG10933
CG12964
blw
CG10750
CG34408
CG15721
CG1578
jbug
CG5377
Sodh-1
Ahcy13
CG12824
CG17472
CG5664
Gr98b
smo
Or22c
CG11878
CG14017
Hsp60D
CG7564
CG12723
poly
flr
CG43778
CG11961
CG14302
CG9754
CG14529
FucT6
CG10208
nclb
Adgf-E
Pi3K59F
CG30466
CG16815
Actbeta
CG13217
Eig71Eg
4E-T
CG13725
Nrk
CG3999
bmm
en
Cp110
CG8028
CG15128
lectin-21Cb
CG31469
CG17202
CG13843
St3
CG12278
CG42795
Spn28B
CG9733
CG31804
CG1792
lox
CG4646
Grip91
wkd
prtp
CG1707
Spn42Dd
fliI
CG12259
raptor
CG6472
CG4210
mts
RpS23
snoRNA:Me28S-G764
Hakai
Ir52b
CG15561
CG8368
CG33969
CG13085
CG2887
CG31199
chn
Or63a
ft
CG11562
CG14200
Dcp-1
tor
CG3604
Or67d
CG12400
CG18418
CG44098
Fis1
santa-maria
Cyp4aa1
egg
CG30039
CG9246
CG2269
Drep-1
CG9503
snRNA:U4:25F
Cubn
CG2846
CG7953
Pp4-19C
CG10960
pic
janB
Sgt1
CG34375
Gr58c
Or10a
CG4984
Ir94b
RpL36A
CG8435
Sec71
Pis
tRNA:CR31914
Jafrac2
CG9624
ALiX
CG1116
IM2
CG7457
gwl
CG6272
sala
ird5
CG31560
Hdc
CG4404
Obp83ef
CG3764
tobi
Npc2d
Patronin
CG13334
fa2h
CG11407
CG5361
CG30187
CG18789
CG31997
l(2)01289
CG14442
CG3699
CG32112
nero
Dhc93AB
CG10359
aux
cbx
ETHR
Dhpr
Nep2
CR32690
Rcd7
Ravus
Atg3
SkpD
EndoA
Rab23
CG6163
stv
CG3814
CG13160
Trf4-2
Osi22
Sema-1b
CG18557
CG4168
CG31544
IntS2
CG12971
CG14183
Cyp317a1
CG10602
TwdlY
l(2)efl
Bem46
CG30503
CG13869
Mlc2
Mtr3
ox
CG13365
alpha-Est4
CG31689
CG5789
Eb1
Grx-1
tsl
CG13293
Tango1
Pdp1
Cyp313a2
Gas8
CG1840
CG4198
thetaTry
Jupiter
pnut
CG4377
CG33125
Cyp6a14
CG32236
CG11403
CG7718
CG8814
Tsp74F
CG14605
nonC
pros
Vps39
TwdlJ
CG42235
l(2)tid
PPO1
CG32641
CG4839
AP-1gamma
Psc
Bdbt
CG3621
CG13511
Pld
Gdi
CG10749
CG31883
D19A
CG18748
CG14710
Aats-glupro
Dll
mRpS14
CG18607
Mmp1
IM3
CG17292
CG14377
CG13081
IntS11
CG9646
Lip1
Plod
CG17754
CG18417
Nup107
CG1582
Hex-t1
lin
Ncoa6
Fer2LCH
CG13744
Grip128
beat-IV
Galphao
CG4611
Ir94g
Gpdh
ena
CG7352
CG8531
CG15563
CG15715
Taf5
CG5514
Rab3
Ptp99A
CG14234
spn-D
Dysb
Chd64
CG32388
inaF-D
CG32437
CG34377
CG31380
CG14160
schlank
CG14711
CG12379
CG7330
VhaM9.7-c
CG10413
CG10182
CG8916
Saf6
Tehao
ste24b
Psf2
CG1440
Or85d
Ugt86Di
CstF-50
CG8534
Rcp
CG9215
CG11298
CG8191
CG8642
CG13993
CG33510
CG30098
Tsp42Er
CG11891
modSP
CG11608
SoxN
Cpr49Ad
Non2
CG13771
alph
CG13203
CG17764
CG15160
L
IA-2
Sep1
TfIIA-S-2
CG18810
lsn
Lapsyn
CG10737
Syp
Muc4B
chico
CG9996
Peritrophin-15a
Ca-alpha1T
CG31917
CG14252
CG9173
dgo
CG4119
Klp67A
mag
ppk22
tRNA:CR32285
CG17544
Ddr
CG31752
CG31406
CG7025
CG18473
MCPH1
Jwa
RhoGAP15B
Pgam5
simj
tRNA:E4:56Fc
CG11802
RpII33
CG10345
CG7214
CG11791
Tep4
CG12717
CG1698
CG14515
CG4288
Spn27A
CG10898
Snr1
CG12263
CG7860
Cyp6a22
tadr
CG42675
Sema-1a
Mms19
CG9570
Ugt86Dg
Prosbeta5R1
CG31493
Hexo1
Gr59c
CG14305
CG4203
sip2
CG5390
CG10068
CG12992
CG30286
CG18284
Pih1D1
Aprt
Best1
ari-1
CG32625
CG7818
Toll-9
CG5618
CG32026
RpS14b
CG14106
CG6592
CG7006
CG13689
Teh1
CG7702
CG6712
ppk12
scb
CG5484
aralar1
Ublcp1
Hr4
Hpr1
LysC
CG33172
SIDL
Ccp84Af
CG6026
Gbeta5
Lmpt
CG31174
mop
Spn43Aa
snRNA:U4atac:82E
Ccp84Ag
CG9945
CG18031
drm
CG8173
CG33099
CG10029
CG10730
Rab8
Idgf3
CG2747
ssp5
CG32801
CG14635
CG2991
step
CG13500
CG10970
CG7299
CG10920
Acp65Aa
Dd
dsx-c73A
lwr
CG30094
Zip99C
CG8331
Cyp28d2
PPO2
sim
Indy-2
CG14798
CG31207
Ubi-p5E
rdgBbeta
Dot
Atg4a
Tektin-C
CG1636
mGluR
Cpr35B
tll
CG5131
CG12071
Phk-3
CG15254
Cyp312a1
Nup50
CG32147
fit
CG5290
shd
tRNA:E4:56Fa
CG13046
betaTub97EF
Ppat-Dpck
Nha1
EloB
HLH4C
CG2118
Gug
CG8192
lilli
CG13624
BCAS2
CG13733
Pex12
CG15772
CG5561
shakB
CG14309
l(3)neo43
CG4477
CG5964
CG12128
Ime4
CG2533
Fmr1
CG5577
mRpS21
CG32450
CG8866
CAH2
CG7646
CG11458
CG14521
CG15398
Lsm10
CG13196
abs
CG32971
CG15820
CG3192
sced
CG9997
Ser12
TwdlO
CG15605
Cyp6a20
Cpr67B
CG15143
CG32816
Art4
CG42678
capu
Socs36E
CG11145
CG5191
Ero1L
CG6115
Dip1
CG4495
stops
CG4734
wun2
CG12681
RhoU
CG17856
CG1882
CG31418
E(spl)m5-HLH
CG16940
CG34380
Cad86C
Cct5
Atg5
Nnf1a
CG32204
CG11263
sinah
Vha16-5
CG3597
CG13601
mxt
Rpb10
Bteb2
Cpr65Av
Snoo
CG5210
HmgD
CG6295
sad
CG8100
CG7466
CG9084
CG4815
CG14410
CG16700
gatA
CG1979
Ir31a
CG15202
CG15649
cin
CG7675
CG11099
Drice
E2f1
Cht8
Cpr73D
mRpL20
AttC
CG31635
CG15916
Rpt5
CG13005
CG16903
CG15549
Fer3
Rbp
obst-B
CG34355
CG5276
CG9304
tRNA:CR32361
AP-2mu
CG2336
GNBP1
Dop1R1
CG15533
CG5626
SmE
Reg-2
CG3358
CG13721
CG9312
CG15635
CG10126
dmpd
CG8312
thoc5
CG6310
gkt
CG5167
Nc73EF
CG5882
CG4213
plx
yuri
Tsp42Ef
CG33124
CG6724
ATPCL
CG7720
Cyp310a1
CG12338
Cbp80
CG9316
CG9522
Ran-like
robl22E
CG12236
Hsc70Cb
Syx6
Peritrophin-15b
Tsp42Ed
trc
Ir10a
Eogt
CG31918
Kal1
stj
CG5597
Elba3
CG6462
CG3491
APC10
CG12661
CG9876
Tengl4
Tm2
CG2812
CG9492
tRNA:CR30452
CG1105
MED15
CG15036
RpS15
velo
CG9932
Spn77Bb
fng
tRNA:K2:42Ed
CLIP-190
CG30350
fs(1)M3
CG30192
CG2789
wdb
CG1368
CSN8
CG8129
CG15739
Cdc42
Spn42Da
FBXO11
CG14543
rho-5
Rrp1
CG8132
CG32103
Pur-alpha
Muc18B
Taf10b
SelG
CG32591
CG14964
zen2
vsg
CG5938
Gr28b
CG14564
E(spl)mbeta-HLH
Pk92B
l(1)G0004
mRpS6
grass
CG31731
CheA29a
CG15155
Fbp2
Tsp66A
mbc
CG2444
CG3887
CtBP
CG13331
CG34434
CG4537
Npc2f
CG12483
sn
St1
lcs
CG5181
CG13731
Fmo-2
CG9129
CG12607
hang
Arf51F
cype
CG31908
CG8924
AstC-R2
CG2915
AdenoK
CG10165
Mat89Ba
Vha13
Ir68a
l(2)35Be
tnc
CG12301
bor
CG3420
ArfGAP1
CG3308
Optix
tRNA:P:35Bd
Cralbp
Cyp4e1
CG5867
CG6739
MtnD
CG11425
CG3061
csul
RhoGAP93B
CG3608
ik2
CG15472
pod1
jet
CoVb
CG3526
CG10254
trio
CG32344
CG34409
AcCoAS
CG17450
CG6980
CG13884
fu2
Drsl3
CG13445
CG7530
r2d2
Kat60
NimC2
iav
CG14395
MESR4
stc
Gr58a
CG10300
CG31106
Gr89a
slow
CG7031
CG18259
DNApol-alpha60
CG15674
GstE5
eg
CG8195
CG17377
eIF2B-delta
mRpL32
CG14454
CG31323
cg
ppan
HLH54F
Oscillin
CG30156
CG13344
mab-21
Bap60
Zasp67
CG13159
CG11356
CG6475
CG5062
CG18558
CG5646
CG10332
CG7798
Taf12
CG3353
Nlg1
Ugt36Bc
Poc1
CG10264
Atx2
CG17843
Spn75F
CG4788
ECSIT
CG12896
CG9083
CG14401
CG1407
Bka
tRNA:CR30239
prt
CAH1
CG5493
CG7789
CG15177
Hrb27C
CG12702
pelo
ITP
CG8089
CG14182
wbl
CG15312
CG13215
CG6767
Mcm2
CG9330
CG11035
CG13876
CG13339
Hmu
drl
CG14282
subdued
CG4576
Syx16
CG13801
htl
Rpb5
CG10570
CG12990
CG4294
CG6923
bw
CG6454
Sytalpha
RhoGEF3
CG9098
ATPsyn-b
CG14778
CLS
Arfrp1
CG5903
CG13692
U2af38
CG32040
CG13564
Txl
Cirl
CG9877
CG17732
CG13071
tsg
CG12341
in
sofe
CG8818
onecut
CG17191
levy
AstC-R1
CG17944
CG12783
GABA-B-R3
IntS6
CG7804
for
CG9662
Ibf2
CG4164
CG6984
CG14930
CG9801
CG8172
l(2)dtl
CG31224
CG32647
CG5862
CG1136
CG7084
CG4328
CG6873
CG8750
mRpL51
a10
pb
Vha100-5
CG14502
CG15710
Mad1
CG14088
mri
alpha-catenin-related
CG33093
Hsp70Bb
tRNA:S2b:88A
mRpL42
CG33054
Trf2
CG12299
CG13154
Jheh1
CG14269
CG15227
CG13607
CG17118
CG17195
Hmgcr
NLaz
CG4751
Elba2
CG11158
Ptx1
CG13380
CG9452
CG43901
boi
Src42A
Bug22
CG31954
CG42594
CG14657
CG14384
S-Lap3
CG4701
snRNA:U6:96Aa
IntS1
sqh
Uch-L5
GstD9
CG15452
MEP-1
CG7386
Aats-thr
CG5762
msopa
dmGlut
croc
Hsepi
Galphaq
GstT1
CG30486
CG7692
CG15824
Or65b
Nbr
unk
CG18749
CG7639
CG14238
trol
Dhc16F
CG12362
CG14330
CG13675
CG6403
serp
ms(3)K81
CG15475
ZnT33D
Cyt-c-d
ord
tRNA:V3b:90BC
CG13646
BTBD9
Orct
tara
CG1291
CG31157
Trs23
robl37BC
CG10754
stg
Or7a
CG18731
CG14285
CG12020
retm
smg
Rad51C
beat-Ic
rec
Acp1
CG4908
CG1494
Pect
Mdr65
mesh
CoVIIc
Rip11
CG8509
Deaf1
CG12025
CR15280
mrn
CG31661
sPLA2
FK506-bp2
Ctr1A
Hsc70-2
Tsp42Eq
CG5844
CG3476
Gr68a
CG15145
He
CG14608
CG9657
Dhc62B
isoQC
tRNA:K2:42Ec
CG10348
Acp98AB
CG7544
Vsx2
Wsck
CG14891
Npc2g
Ir60e
TwdlL
CG1607
CG12788
Or85e
St4
Cyp4e2
CG6974
Gld2
Hs3st-A
CG31068
CG31427
Idgf2
CG17230
CG3630
ebi
Irp-1A
Bro
CG14694
svr
ACXB
CG10959
Vha14-2
JhI-21
CG4375
Rtc1
Sply
RhoGEF2
GABPI
regucalcin
trp
CG4975
CG7407
CG32301
Gr85a
E5
tRNA:R2:84Fa
CG17999
dah
CG10399
I-3
Tektin-A
CG14227
dor
CG8503
mars
dmrt99B
CG6356
dgt6
Tsp42A
nmdyn-D7
U3-55K
CG14527
DNApol-alpha50
CG10237
Coop
Or69a
CG8771
CG14837
Lsd-1
CG31344
ed
eag
koi
CG16786
CG31445
CG32820
lectin-46Cb
tRNA:CR32362
CG7852
ctrip
RpS30
Sucb
RtGEF
CG30456
CG11523
atms
CG11671
CG13634
Rbf2
CG32088
CG15539
primo-1
Slc45-1
laza
yellow-e3
CG6470
CG8673
CG3038
Ilp1
tRNA:K2:50C
CG9512
tRNA:N5:42Ah
CG32281
CG31816
Jra
CG30334
GluRIIC
Tret1-1
Femcoat
Unc-89
CG7406
CG14332
Mfap1
fred
Spn88Ea
CG32319
halo
CG8569
CG1951
swi2
CG1271
CG11353
Ag5r2
tRNA:S7:64D
park
boca
CG8861
Dh31
CG15387
CG15577
Obp46a
mud
CG11509
morgue
Menl-2
Nufip
CG15517
RluA-2
CG3534
CG32719
CG11414
CG32507
CG13527
Cks30A
Eap
CG2614
CG12506
Osi23
CG6693
mus210
CG5850
eyg
CG31087
lawc
yl
NAAT1
spdo
dpr13
ppk24
fray
CaBP1
CG17219
CG7094
tup
SpdS
CG13113
yip3
CG12589
CG10340
CG8539
CG13544
CG6996
TfIIA-L
CG10958
ste24c
sut3
CG12780
CG31715
sev
CG14786
CG15646
alphaCOP
CG4407
pds5
Chro
CG8635
CG12194
CG31077
MP1
CG7845
CG17173
CG17199
CG6262
wda
LysB
rush
eIF2B-gamma
tRNA:CR32272
spirit
CG32269
Paf-AHalpha
Tbce
CG8507
Rh4
CG4793
nSyb
tRNA:R2:84Fc
CG30431
CG10738
CG13856
CG4438
CG31016
Fic
LanB1
xmas-2
RpL35
CG17841
lic
CG11560
CG5282
CG14692
CG32115
CG11828
CG14995
Axn
CG14416
nos
CG4382
CG43386
beat-Va
CG1896
Cyp4ae1
CG6509
Reg-5
CG6652
CG6357
CG15418
CG8560
CG8292
RpS16
Lcp65Ac
CG7311
CG4497
CG6428
zetaCOP
btz
glob3
snRNA:U3:22A
Ilp2
CG10915
CG32374
CG12078
Ranbp16
Aatf
Cpr65Ea
alt
Non3
brp
CG31694
C901
CG15641
Cpr76Ba
Tep1
dpr16
CG30381
CG17327
RpL27A
EF-G2
CR32496
CG13039
CG3995
Mtor
CG6195
CG1690
CG31007
CG8038
Ndc80
CG6149
CG13398
Mct1
CG2861
CG11663
Claspin
CG12935
Mur11Da
CG31064
mmd
Acp76A
Pka-C3
tRNA:R2:42Ad
CG11576
CG14537
CG5902
CaMKI
Gr47b
Sym
CG42671
NimC4
Sry-beta
CG9634
CG11694
mRpL28
Psa
hbs
Itgbetanu
CG31674
sowi
CG7509
CG7497
CG2712
CG15537
vir-1
cid
lbm
CG14961
CG31125
CG14523
RabX6
Als2
bru-3
Gr33a
CG15576
CG1673
GstZ2
CG17224
Gr93a
beat-IIIc
Rif1
SF1
Acph-1
CG1113
CG2061
ppk20
CG14117
CG31835
Atox1
SPH93
CG31245
GstD6
snRNA:U6:96Ac
CG32075
S1P
Sin1
Toll-4
CG15526
CG18155
Ufd1-like
CG5973
CG14346
CG14367
DNApol-gamma35
CG4169
f
VhaPPA1-2
CG13700
CG5013
CG4362
Muc68D
inaE
CR31562
CG32119
mAChR-B
CG42684
RIC-3
DLP
PpN58A
CG5418
CG4592
A2bp1
CG12413
hydra
CG5235
CG15109
CG15100
CG18624
CG18596
CG42331
CG31021
Dscam4
CG12923
CG13561
CG5180
Madm
CG2316
gpp
CG12320
beat-VII
dpr19
CG5217
mei-41
Cyp4ac3
CG1246
CG4096
CG11384
Gp93
Peb
CG6933
nemy
Sep5
CG30056
l(2)05714
Sk1
CG14326
Rab14
ApepP
CG4933
mthl1
CG18585
Gyc88E
Nep4
Ugt86Dc
CG12206
BigH1
hpo
salr
CG32772
CG7924
CG1850
Phax
CG11257
CG33340
CG10916
Hsp60
CG4607
CG15021
CG13741
mRpL38
Top3beta
unc-119
Obp56g
CG7251
boly
Uro
CG30036
Cyp4e3
CG3702
yellow-e2
Gr59e
CG4676
Tsp42Eo
Shab
PH4alphaNE1
Sec24AB
ckn
PQBP1
CG1890
tRNA:CR30257
Lsp2
CG3163
RpL8
CG1958
Syx13
CG1970
CG8034
CG7246
CG10732
axo
CG32100
atk
CG7215
Hey
ps
RhoGDI
CG3734
CG8944
wun
CG10253
BtbVII
CG34133
Lsp1alpha
CG42390
RfC38
Tim17b1
Cpr
HGTX
CG12540
CG12917
CG3940
CG15213
Cg25C
CG5866
CG8679
CG14215
CG13096
CG31477
grsm
CG14406
Ns1
CG11248
Cyp318a1
Sgs8
beta-Spec
tRNA:Y1:22Fa
Nlg4
CG9702
CG33958
CG32557
CG9323
CG4678
CG9436
Esp
RYBP
Rpb8
CG7742
CG5781
Dif
scny
pdgy
ms(3)72Dt
CG6230
CG10650
CG1969
Ir7b
CG14073
bap
Acox57D-p
Fas1
Cdk1
CG12133
ppl
Hug
Ac3
crc
CG8680
psh
CG16704
Cyp9h1
Prp38
Pde6
CG14985
Cda9
CG31226
c(3)G
CG15628
Ir94a
VhaAC39-1
Ku80
EF2
CG5116
CG7546
frtz
Grip75
CG11475
CG2750
ChLD3
nht
CG43689
CG7650
CG10657
CG33156
CG43921
CG12118
Ect4
CG2010
MED11
Smox
mael
fu
Spt5
CG14304
cnn
CG14965
Cpr65Aw
CG6421
AGBE
cbt
CG3165
Prx3
shark
CG1340
Sytbeta
CG8249
CG4627
Cpr92F
CG9935
Phb2
kek6
shep
hubl
kst
CG1597
CG5359
yellow-d
zf30C
CG6225
NT1
tRNA:Y1:85Aa
Cpr65Az
CG15221
CG14508
CG9911
kappaTry
CG2909
sinu
CG4935
Nf-YA
cana
snoRNA:Me28S-G3081a
CG32174
CG9117
Ir67c
CG13117
CG8525
CG7201
fax
Spn31A
CG10249
comm
CG18635
pn
CG10559
Ets65A
CG15597
Top3alpha
Tsp42Eh
CG15283
CG10013
CG10137
CG32633
eIF-3p66
CG10339
Cyp6d5
m
CG31678
babo
CG8641
Sgt
GCC88
Faa
CG6484
CG14323
CG12772
CG17141
CG17078
wb
tRNA:CR31888
CG12106
CG9821
CG11892
tRNA:E4:62Ac
Clp
CG14528
Zip88E
CG10674
CG8508
Nhe3
RpS13
CG32055
ClC-a
pgant8
CG2709
Cad89D
spel1
CG4041
CG34393
Atg9
AIF
CG9825
inv
CG7745
CG7970
Rab9Db
ics
CG3062
CG3618
CG31288
nompB
CG7365
CG11760
gsb
RhoGAP18B
tRNA:CR31167
Cry
CG13283
CG17261
CG31091
CG14880
CG11873
Iswi
Yippee
CG11906
CG8500
CG14107
CG4050
CG10934
olf413
CG10151
CG31360
Ggt-1
CG32176
CG6067
Tango6
CG30273
CycE
CG14811
CG16984
CG7714
CG9826
CG30393
NfI
sdt
CG4363
CG4597
dod
Tom40
Debcl
CG11192
bic
Cpr47Ee
CG31948
Dsp1
Rh2
CIAPIN1
Hr38
tRNA:SeC
CG15740
CG11796
Ada1-2
l(2)06225
mthl8
skd
CG11664
Pvf3
cato
Blos2
CG5946
CG13698
CecA2
mago
hdc
CG5731
CG11454
mdlc
CG30416
CG32532
tRNA:N5:42Ad
Myd88
CG11897
TBCB
klar
CAHbeta
Atg4b
SIP2
CG9917
noi
Atg6
ranshi
lms
crb
CG6878
CG11786
Spase25
CG12237
Snx1
Cpr51A
BBS1
CG8051
CG17650
CG31161
CG14299
CG4617
Gr2a
mav
CG30090
CG4650
CG8417
CG3303
CG30291
mas
CG5860
cpo
Vha68-3
Cdc37
png
CG8636
CG8177
5-HT1A
Egm
HPS4
CG3091
CG10505
rdhB
Lcp65Ag2
CG18538
Cyp4p1
CG14511
CG8236
Oatp33Eb
ERR
CG6426
CG44153
CG30409
CG3517
CG1812
CG5527
CG8840
Ir51a
tRNA:CR31892
Fst
Ccp84Ad
smp-30
cl
CG7907
CG33672
CG8736
Oct-TyrR
CG14000
CG14740
Roc1a
Syn2
CG8301
Lon
temp
Ocrl
fus
CG42399
tRNA:CR30326
CG8613
CG17150
Zw
mtTFB2
CG3036
Pxn
Swip-1
CG32564
vls
bel
Zfrp8
CG6709
Cpr67Fb
CG3792
CG14759
CG12535
aPKC
CG18586
nopo
His4r
Su(var)205
CG12134
CG8777
RpL28
cac
CG31904
CG7133
Not10
CG9865
CG12027
CG14760
CG8878
CG11807
eya
CG34371
CG32544
CG8317
CG13044
Cnb
CG31937
CG7192
CG43143
Or85c
CG3529
cdm
Bre1
SPR
CG2310
CG4415
polyph
Gr36b
l(2)03659
CG17803
knk
CG12521
CG3494
tRNA:I:42A
Atac1
NHP2
CG15172
CG15263
CG5039
GluRIIA
RpL19
CG3123
CG4080
CG10073
CG13031
CG7713
CG15252
CG9616
CG1550
gish
spaw
aos
CG14357
CG15080
CG8931
kkv
bur
CG11449
GstE11
CG13325
drd
CG8543
CG13847
CG10463
btn
Dap160
Spindly
CG14440
Hcf
CG30031
ebd2
CG14556
CG1427
CG9527
CG3916
tj
CG7309
chinmo
CG2263
Pitslre
LpR2
nAChRalpha1
CG33052
Abl
Cpr97Eb
CG15046
CG10051
cathD
CG12766
CG15734
Pp1alpha-96A
Rpn8
Rgk3
SRm160
l(1)1Bi
Mst36Fa
Pkg21D
CG33269
CG11134
nerfin-2
CG31741
CG5079
U2af50
mRpS24
CG5757
nyo
CG31785
Ciao1
olf186-F
Tango9
CG31370
CG31235
CG9289
mxc
spz4
CG30049
Cpr12A
CG14634
CG7213
CG31827
CG2685
CG14259
mthl15
Gr64f
CG3376
CG13623
CG10576
CG18814
CG14054
Tep3
CG12105
CG12512
Gprk2
CG32833
miple2
otp
CG12836
bt
CG16886
CG9121
CG13430
CG9416
Karl
CG11698
Ppi1
Ucp4C
CG31468
CG4300
Irbp
CG30105
d
CG15201
Nhe2
CG11369
CG9425
FucTB
Spn28Db
InR
Gem2
Ir47a
Gr22d
CG14190
Pep
Six4
CG9664
CG12910
Adhr
CG10747
twf
Lim1
mio
lectin-29Ca
CG3032
CG8920
eve
Sse
CG5543
ssp
Nap1
Liprin-alpha
CG11396
TbCMF46
LIMK1
lea
CG34422
CG18065
CG30007
CG15044
CG30463
aub
up
CG18577
CG12640
CG32845
Vha16-4
CG9380
CG14744
Obp51a
CG11211
CG14072
CG31213
CG31769
CG6793
CG13086
Appl
Inx2
CG4406
CG10830
CG18659
Cyp6a19
CG14736
hui
Ddx1
nAChRbeta3
CG5941
fal
CG3775
Dbi
Sik2
CG9784
CG42383
CG12539
ppk7
CG6018
CG42336
CG42322
miple
CG1137
Osi12
CG16926
tRNA:Y1:85Ad
Vps16A
vnd
CG12773
CG3770
pgant2
Dhc36C
dpn
CG14812
CG17562
Drl-2
CG8119
CG5446
CG3437
128up
alphaSnap
CG42323
CG31102
tRNA:CR30225
CG13538
VhaM9.7-d
CG15881
CG9463
Lcp65Aa
CG5768
CG14313
Mf
Orc5
VhaM9.7-a
Aplip1
CG13312
CG11267
v
CG4036
Lip3
CG4660
CG5989
IM4
CG14658
piwi
CG30272
CG11617
CG15025
CG14420
CG6762
CG33278
Nup153
CG7492
CG4956
CG7587
ect
crp
Eaat1
CG7326
Tim8
dpr5
Uhg2
Toll-6
alpha-Man-Ib
CHIP
CG16711
CG13917
GstT2
Asph
nxf2
CG9967
CG4896
CG11695
mRpL16
CG7130
CG5118
CG12171
CG11345
CG10470
Klp68D
CG1889
SkpE
CG17440
tmod
Spn42De
CG18109
CG3081
CG4570
ms(3)76Ca
Opa1
CG5214
gw
laccase2
sens
CG5921
CaMKII
slp2
ppk17
CG10469
CG5715
CG32563
scf
Upf2
CG32232
Ir56c
CG30053
Zwilch
CG43366
fy
CG10889
CG16848
CG11811
Cpr66D
NK7.1
CG11594
Arr1
l(1)G0334
CG14443
CG31784
NijA
CG32198
Def
LysD
Ir11a
CG15357
CG6296
CG32495
CG4866
twit
Tom7
Mocs1
RpL12
spn-B
GlcT-1
CG15126
Ance-5
Mal-A5
calypso
CG10425
CG9400
CG31122
CG4613
CG5991
Prosbeta2R1
CG9682
Gs1
CG3711
ade3
CG15800
CG32706
Mef2
CG18130
CG32354
GstE9
CG31549
Roe1
CG32568
CG5189
Nrx-IV
CG17108
CR32730
dgt2
emb
CG2124
CG31294
CG15236
CG11550
CG9449
CG7252
Amnionless
CG34057
Hs6st
snRNA:U1:95Cb
TotC
snRNA:U2:14B
CG31717
CG7069
CG32409
mTTF
Lcp65Ag3
Oda
tRNA:R2:84Fe
Lrch
CG12768
CG1360
Eip78C
Idgf4
CG6380
PGRP-SD
Dhit
CG5726
CG30118
CG8170
Cyp309a1
CG30259
CG15382
Orc1
Lcp9
qua
Or1a
CG14452
Nlp
cindr
CheA7a
Dek
CG10862
CG31321
abo
CG5011
CG9384
borr
CG17829
CG4476
CG4324
CG16852
CG1138
CG5522
Cyp12a4
MtnC
pirk
CG15742
vari
dup
oys
Aats-asn
TwdlZ
Tim10
CG4360
CG17717
Not11
Tango8
edl
CG43340
Cdc27
Atg2
qtc
RpL11
PDCD-5
CG11030
CG32238
CG5059
CG17341
CG10565
CG8516
CG9386
CG4950
CG1910
unc-4
Ste:CG33238
CG12344
TwdlN
Pbp45
CG1468
mei-217
dp
Elp1
Tsp96F
wrapper
Ugt86De
l(2)35Bd
rpk
RpI1
Spn77Bc
CG10912
lectin-22C
CG15642
PHDP
Ir84a
CG4398
CR32773
CG8372
CG32985
CG16716
kel
CG3982
CG6800
ex
Hph
CG14684
CG32650
CG6959
CG15336
CG11318
CG18672
Cad96Ca
Cyp1
GlcAT-I
CG32225
CG6836
Cyp6w1
CG9989
Sr-CIII
CG3726
CG31345
CG9497
Upf1
Clc
CG31244
CG6432
sr
CG13023
CG8888
CG15370
CG18004
CG18327
CG4810
CG9231
Eaf6
lqf
CG6689
Est-P
CG12177
CG3797
TpnC41C
pita
CG31010
CG14629
CG14439
CG13295
CG7889
CG10702
alpha-Est6
Npc2b
polo
Cpr47Ea
Karybeta3
cbs
CG9154
E(Pc)
CG5589
Drsl2
CG5665
Eip63F-1
CG15887
Cyp6a23
CG8112
CG31547
Vsx1
Osi14
CG34114
IM1
mthl14
ZnT77C
CG10041
CG33051
l(2)37Bb
Obp50a
Nmdmc
egh
Tbc1d15-17
CG13437
CG10344
Tep2
Mst98Ca
pes
neo
Whamy
Tig
Ppa
CG43373
brv2
CG7275
CG10217
CG10710
ems
CG3071
CG7632
lid
Gmap
Poxn
CG10062
CG17508
mthl5
jagn
MICAL-like
CG13614
CG7920
msl-2
CG15406
PH4alphaPV
CG14506
CG5455
CG42258
Fs
eap
Mur2B
pk
CG32553
CG4017
CG10672
Fer1HCH
par-6
CG3847
ssp6
CG32483
CG7686
Ca-beta
Ada2b
CG4306
Rrp46
RpLP0-like
dm
CG33128
CG5660
CG5056
RpS10a
ssp3
CG5002
Arc1
CG4972
CG13074
CHKov1
mTerf5
CG14879
Or83c
CG32856
CG10026
CG8520
Shroom
CG4151
gl
Idh
CG12159
CG6209
BCL7-like
Socs44A
CG8907
CG31381
CG30283
CG13905
SP2637
CG42458
CG30088
CG31709
Tsp42El
mon2
zpg
CG32850
PPYR1
CG33695
CG10459
CG9759
CG8032
Mal-A4
CG33110
Obp57a
CG6971
CG14020
CG42321
ergic53
CG3927
Ipp
hoe2
ppk14
Tal
CG6036
CG31419
bif
CG7333
lectin-37Da
CG12849
Hmr
CG4558
eIF3-S8
Cpr11B
CG31861
H2.0
CG32407
CG32645
Lgr3
sage
CG12179
CG15773
CG14810
CG9925
Nha2
CG30460
CG5550
Prosalpha5
CG17180
CG2003
mRpS34
larp
Odc1
CG6613
CG32581
CG34391
CG43394
Dhc64C
Or24a
CG13461
Dim1
Neurochondrin
CG2064
ubl
CG14448
Ugt58Fa
endos
CG43066
CG17321
snRNA:U2:34ABa
CG12691
bin
CG15404
CG15614
comm3
cerv
CG9582
amon
yellow-c
cm
CG30395
CG32313
CG1657
CG3769
roX1
rhea
CG4496
CG4452
nullo
CG31935
CG8519
CG11882
Slu7
RpL37a
CG3605
CG14034
CG18809
CG8858
CG3397
CG34402
CG1622
CycH
CG3124
rno
wls
CG1307
pzg
CG2135
RanBPM
bond
CG33170
B4
CG5913
Dlic
Hr39
Rhp
CG17298
CG13244
sktl
cv
kz
CG9628
mRpL37
sob
SMC3
CG17599
CG14314
NPFR
CG4661
CG6972
Rtnl1
mei-P22
igl
CG31627
Nopp140
Rcd4
Osi24
CG4669
Bace
CG9265
Tyler
Ance-3
CG8121
alpha-Est4aPsi
CG10979
CG16732
Cyp6g1
spheroide
CG13807
Cyp304a1
CG5987
Proc-R
Cpn
lectin-28C
CG17192
Osi11
CG3678
CG14374
crn
gammaCOP
Z600
l(3)L1231
CG7140
CG1738
Hexim
CG18606
CG5104
CG13722
Listericin
CG13075
Slimp
Det
CG3285
CG31028
CG9119
Alas
CG8176
CG11835
CG13488
TwdlX
CG32718
Thd1
CG7229
CG17786
CG11147
CG6885
Vdup1
ttm50
CG32369
CG9631
CG7236
CG4835
CG30120
CG12111
glu
CG9915
CG17122
Nplp3
rb
2mit
ry
CG13603
Ada
Cap-H2
TotM
CG32109
omd
CG12075
Orct2
CG11768
CG3117
pfk
spz5
CG13077
Scgbeta
ste14
CG5756
pen-2
CG15878
PTP-ER
vn
CG6340
Syn
gammaTry
CG4702
CG7488
Gr8a
CG4386
CG5139
CG34348
CG10405
dys
CG15067
Lim3
CG5883
tRNA:S4:56D
Or49b
CG7685
bs
cyc
fh
Cyp4ac1
Afti
CG6481
Fdh
CG13083
CG33057
CG18747
TotB
sc
org-1
CG8661
Bmcp
B52
CG2225
inaD
CG12065
Gr39a
CG15803
Decay
dao
CG3294
CG31265
CG15611
s-cup
tRNA:V4:70BCb
CG12239
Best2
B-H1
CG14210
CG10194
nocte
CG3191
Chd3
CG8349
CG10793
CG14857
CG9507
slbo
CG4325
alpha-Spec
CG9372
CG18273
Or59c
CG17760
CG15653
ara
CG32643
Kap-alpha3
CG34404
tRNA:K5:84ABa
qkr58E-2
snoRNA:Me18S-A1576
CG31055
CG32551
CG17768
nmd
mfrn
CG12516
CG30496
CG11436
CG7730
ade2
mod
CG10175
CG14770
CG32795
RpL23
CG18622
jdp
RpL9
PH4alphaNE3
CG4069
CG8036
CG30355
MRP
CG11000
CG14613
Der-2
Gr39b
tinc
sws
CG10435
Hsp67Bc
hop
CG5897
CG14408
Gen
CG12091
Ephrin
CG15196
Drs
Ho
CG5262
CG13872
CG9235
ste24a
psd
CG3342
Pkd2
Dbx
Blos4
IntS4
CG32631
luna
CG12321
SPoCk
Ntf-2
CG1371
CG43347
Arc2
Ir56d
CG5877
CG31454
Phm
CG14450
CG16995
pix
Vha14-1
CG31823
CG1885
tay
CG31278
CG30082
CG30423
CG18528
Vm26Aa
Hsp60B
CG16957
dyn-p25
CG33339
CG9975
CG10097
vir
Nup58
CG2658
CanA1
CG7427
CG8841
CG15879
yellow-k
ihog
Rab9Fa
Taz
cutlet
CG17633
sing
PpD3
CG3598
Fdxh
CG4770
TwdlM
Art2
CG12502
Obp59a
Past1
CG9588
CG9471
ort
CG7203
Dop2R
RpL7A
Fgop2
ZnT86D
CG14292
CngA
CG9095
His3.3A
Clect27
CG32024
Ir85a
Plc21C
dwg
Ets97D
CG8564
CG7046
CG17324
Klp59D
Su(var)3-3
Galphaf
CG7453
TpnC25D
sip1
CG17477
CG12290
CG4970
CG4065
fzo
stck
mtt
Apf
Rab5
CCHa2-R
CG14989
CG16989
Cpr72Ec
CG12006
CG31680
Cdk5alpha
CG5225
gukh
wdn
CG2100
ABCB7
Irc
CG1868
Ran
Ilp3
kek1
CG15536
CG8388
Obp57e
CG32751
CG15412
ppk30
CG2930
CG15200
CG5112
CG9447
Hsp70Aa
CG7603
Gr64d
CG2126
fz3
GlcAT-S
CG9427
CG5773
blot
Arl2
CG43729
snz
CG2701
CG33270
CG13250
CG13708
CG7879
CG10600
CG34398
CG5367
l(1)G0007
CG14431
ru
pinta
blue
Pex16
coil
CG5621
CG17904
Sap130
CG13891
CG11123
Hsp23
Aldh
CG17826
thr
Gmd
mRpS28
CG9040
CG1309
CG6985
CG42708
Cpr49Aa
CG3714
CG3523
TotX
Xrp1
Cyp313a3
Prx2540-2
CG5554
LS2
CG7770
CG12926
CG7548
lush
CG13838
Tango2
Drsl1
Vm26Ac
CG18446
CG11566
pch2
CG17572
CG4996
Pk34A
CG10809
RpS7
CG13243
CG8918
RhoGAP54D
CG8260
Tis11
AttB
Cpsf73
CG5149
CG4483
Rfabg
CG8578
Tsp42Eb
CG43894
CG4133
Ir93a
CG11710
CG5676
Gadd45
CG32983
CG2816
chb
CG7239
LSm3
Hs2st
CG15553
Tsf2
Got2
CG12224
CG31728
CSN1b
tRNA:S774:12Ec
CG30065
Cyp316a1
Psf3
CG5890
Pdi
mtDNA-helicase
CG9875
Elf
CG14756
MrgBP
Ndae1
CG9663
Flo2
CG2938
Aph-4
CG6664
CG6182
CG6106
Phf7
CG3689
CG12448
Mst33A
Rph
CG33714
Cog7
CG11929
CG31705
CG32786
Pex1
CG17571
CG8184
opa
CG9192
CG4860
CG18563
CG9977
CG15725
DNApol-delta
CG1324
BBS8
Eo
GNBP3
Trx-2
hbn
CG6290
CG14322
Taf8
Buffy
CG30427
CG6216
CG7705
Ge-1
Gr64e
mthl4
Tk
CG12034
mAChR-A
Pp2B-14D
MsR1
eIF5
alpha-Est1
ng2
CG4957
CG8093
CG14814
CG30116
zen
CG32791
CG31517
CG14544
Sas-4
aurA
CG10440
Zasp66
CG31886
CG31211
ksr
CG14881
slim
htt
dpr15
CG11412
CG43897
Ugt36Bb
RpS24
SNF4Agamma
CG6300
Cwc25
CG14419
CG31815
tRNA:G3:53E
CG15498
CG32391
SCAP
His1:CG31617
CG18190
CG6028
CG7044
CG18476
arg
Os-C
CG18088
CG4573
CG15461
Pkn
CG4995
CG32235
tRNA:CR30233
PGRP-LB
CD98hc
CanB2
oxt
CG4424
CG18449
Cyp6v1
CG13313
CG11089
CG14174
ATPsyn-Cf6
dgt3
CG12861
CG14671
Rbp4
CG14563
CG14245
CG3335
Teh2
Spn43Ad
sut4
CG14607
GstE10
CG14050
Cyp309a2
FRG1
Spn28F
CG6479
Egfr
CheA75a
CG15822
ap
kuk
GstE1
CG32783
CG1628
conv
CG1674
SPE
CG12084
CG18787
mRpL53
CG5107
CG15369
CG8481
CG2854
sick
CG17658
CG18368
tsh
mge
Mrtf
OstDelta
CG8958
ImpL3
RpL31
Psf1
CG32462
CG5705
CG11771
msi
MRG15
CG2186
CG13361
CG32986
Dic3
CG4282
Lasp
Oscp
Ms
CG10761
ewg
hmw
Sgf29
CG8664
CG42542
CG9008
CG11858
CG11504
ItgalphaPS4
CG4022
Dscam1
CoIV
CG12868
CG16888
CG11052
esc
CG32335
CG8788
Slh
mRpL27
CG9640
prominin-like
CG6733
ppk26
tRNA:S7:23Eb
CG10168
NijB
CG31673
CG12493
dpr14
Gas41
CG8785
tRNA:CR31895
epsilonCOP
CG30371
CG31229
CG8389
CG4250
CG13471
Rpt4R
CG18545
CG14757
PGRP-LA
CG8005
CG4752
Prp31
Vha16-3
CG10700
CG30268
CG10492
CG31467
CG31869
Or59b
snRNA:U1:95Cc
Sesn
CG15484
CG13510
RpS26
CG4174
CG15436
CG6788
Osm6
CG13318
CG15161
Alr
Tsp42Ee
CG43129
CG18128
His2Av
CG7442
Pdf
CG12325
CG33169
CG30020
CG31076
eIF4AIII
CG9240
CG12404
CG31867
Vang
CG1665
grau
Rpn7
CG7394
CG15485
tRNA:R2:42Ab
mrt
Orc2
mRpL40
CG3011
Ir56b
CG30047
CG3919
upd2
SmD2
CG43691
CG14826
Eig71Ej
CG14852
CG13532
CG14851
CG8128
snk
CG30083
CG14052
CG8117
mfas
grn
nAChRalpha7
CG9589
l(2)35Cc
otu
CG15450
Mob3
l(1)G0232
Btd
yellow-b
spartin
laf
CG10824
pasha
CG42588
Spn85F
CG14244
CG42534
CG10924
Cyp9b2
TwdlC
CG3987
Pex7
chif
Asator
Mal-B2
CG7550
betaggt-I
lark
Liprin-beta
Cyp6a17
CG7910
tamo
Pgm
CG4239
Klp31E
AANATL2
CG6283
l(2)35Di
Alh
CG7065
scra
Rpt6R
Cyp12d1-p
CG15625
tRNA:CR30240
cer
Etl1
CG10209
jeb
rpr
Hsc70-3
CG7990
CG4714
h-cup
CG17127
CG18853
CG13436
Pomp
CG13022
CG31668
dsb
CG12594
CG14480
CG30384
kin17
CG13724
Crag
snoRNA:Me18S-G1620
CG9132
CG13171
CG15894
ird1
CG9065
Or65c
Ptr
MAN1
CG3021
Su(dx)
CG16947
qkr58E-3
14-3-3zeta
CG31233
RpS27A
CG3332
CG30472
GluRIA
RpL39
l(2)37Cc
Acox57D-d
l(1)G0020
CG14141
Gbs-70E
Pu
Vrp1
dac
CG14459
Klp59C
Gr92a
GstE4
CG10799
Set2
bsf
Upf3
MSBP
alphaTub84D
Trpml
CG4842
ppk
CG13893
CG15239
Ugt37b1
CG3565
CG30356
CG18746
MED27
CG11178
betaNACtes4
CG5783
CG7971
CG7016
tud
CG13605
CG6726
wge
CG12184
MESK4
Atg13
CG8010
CG32572
CG4267
CG34112
CG7357
CG13551
Drep-2
Tequila
Ugt86Dd
Caf1-180
aph-1
CG13272
CG31921
CG10950
Bub1
CG5521
CG14205
CG2129
CG34113
Rcd2
CG43896
Obp83cd
CG14695
CG9072
CG6321
CG16710
CG10154
CG30099
CG7271
zetaTry
LSm7
CG15829
Drat
CG15890
vis
tRNA:K2:42Eb
CG10555
CG9134
CG1637
Srp72
Dscam3
xit
obst-I
Bzd
CG4820
Dmn
aft
bora
AdamTS-A
CG31855
hyx
CG13658
Flo1
tRNA:CR31602
CG11085
Hs3st-B
Ir54a
gom
CG17233
snoRNA:Me18S-A28a
HdacX
snoRNA:U49:66Db
RpL3
CG31712
CG5613
Rpb4
alpha-Est10
CG15478
Efa6
CG1233
Rbbp5
CG11816
CG17048
CG30340
nudC
CG12093
CG9500
Wwox
RhoGAP16F
ScpX
Galk
CG32442
CG11470
CG6236
CG12963
Sdr
CG18223
CG4806
ACXA
Cpr47Eb
norpA
CG30339
Spec2
primo-2
Obp56a
APC7
CG31633
Hrd3
Gsc
Dfd
CG1791
CG13239
CG5162
CG13082
CG15531
CG13041
Ih
CG6425
CG15024
SCAR
CG9302
phr6-4
Prp19
egl
CG12858
CG11261
pyx
Gr5a
Ror
CTCF
CG13186
st
Eaf
Aats-trp
AMPdeam
ico
toe
CG6927
CG32855
CG17124
CG17221
CG32036
odd
Gr77a
SMC1
CG8006
CG6048
CG8726
CG6184
CG1529
CR32385
CG7164
