zgc:136872
zgc:103599
zgc:113912
bglap
CG6661
nfe2l2b
maptb
si:ch211-284e20.8
si:dkey-86k10.1
chdh
si:dkey-65b12.6
si:dkey-57h18.1
si:ch211-132b12.8
zgc:113255
si:ch211-105d18.8
col16a1
si:dkey-261m9.10
fmn2a
si:ch211-226h8.8
si:ch73-259k18.1
si:ch211-175l6.2
cln6b
si:ch211-266k13.3
si:ch211-121d13.5
si:dkey-108k21.10
pop1
si:dkeyp-46h3.8
si:dkey-16i5.10
si:dkeyp-46h3.5
zgc:92184
si:dkey-18b8.8
si:dkey-49c17.2
si:dkey-86k10.14
sphinx1
vig
CG11726
eIF4E-5
pcs
CLN3
KATNB1
LOC100424380
sult4a1
zgc:154064
zgc:174178
polr3d
zgc:85843
spaw
psat1
si:dkeyp-118h9.7
zgc:171776
si:dkey-32o22.2
casq2
upk3b
si:ch211-191i18.4
zgc:158580
susd5
zgc:113424
ccnb1
dvr1
ttnb
tmem30c
vil1
si:ch211-199g17.3
igfbp5b
si:dkey-58f10.10
ighv9-2
micall2a
tmem184a
zgc:171750
lin28a
zgc:92880
si:ch211-5k11.6
gc
spag1a
si:ch211-5k11.2
myhc4
sc:d0202
olfm2b
snx10a
rnf213a
ftr56
eef1da
si:dkeyp-46h3.3
hapln1a
si:dkeyp-46h3.2
trpa1b
dab2
si:ch211-196f5.2
hrsp12
nanog
c9
alox5b.3
myhz1.1
pmp22a
fbp1b
ugp2b
zgc:163136
cel.1
si:dkey-40c23.2
zgc:55461
tubb4b
ntla
zgc:153650
si:ch211-137i24.10
plcd3a
zgc:158432
si:ch73-190m4.1
zgc:113442
si:ch73-299h12.9
taar11
hoxa3a
zgc:92533
hoxa5a
hoxa4a
tmem86b
si:ch211-15j1.1
si:dkeyp-73d8.8
gfap
neurod6b
kpna2
dab2ipb
cyp2y3
zgc:123305
adamts8a
ehd2
si:ch73-60p2.1
zgc:136930
si:ch211-11k18.4
zar1l
gpr144
tekt2
zgc:173994
zgc:110377
urp2
si:dkey-29j8.3
alas1
sepp1b
krt1-19d
si:dkey-241l7.6
fmo5
si:dkey-241l7.5
cabp5a
galns
pax9
fa2h
zgc:113307
si:dkey-121j17.5
si:dkey-241l7.4
si:dkey-78l4.7
saa
vtg3
si:ch1073-309n14.1
klhl31
ppp3r1b
rabep2
prx
pla2g12b
ipo7
nuf2
morc3b
si:dkey-241l7.3
rrbp1b
si:dkey-241l7.2
fam129aa
gapdh
gdnfa
vtg5
polr3b
si:ch211-226h8.14
si:dkey-270e21.7
arhgap20b
zgc:92137
zp2.2
tyms
si:ch211-14a11.5
myo1ha
zgc:158299
mybpc2a
si:dkeyp-113d7.4
coq7
ephb2b
nap1l4a
pde4ba
ccdc103
has3
eps8l3
lnx2b
si:dkey-240e12.6
hbbe3
ddx46
cbr1l
tgm1l2
matn3a
eprs
si:dkey-27p18.3
tdrd7
nr1h4
trim35-30
prl2
zp2.3
desi1a
si:ch211-12h2.6
pls1
si:dkey-103e21.5
micall2b
zgc:171500
zgc:56231
wee2
trim101
sc5d
zgc:162150
cenpw
col8a1b
trim54
hhatla
si:dkey-14o18.2
naa20
fgd6
ptbp3
ankrd6b
si:ch211-226o13.1
b3gnt7l
angptl2b
zgc:152753
si:ch211-226h8.4
sox5
gtse1
si:dkey-126g1.6
lama4
slc25a4
si:ch73-308m11.1
mxb
nit2
ms4a17a.11
aqp8a.2
si:ch211-242b18.1
zp2.1
rpl6
slc7a7
obsl1a
trib3
tmprss2
dlgap1a
gpr112b
dhdhl
zgc:77739
nolc1
vbp1
skap2
zgc:171445
zgc:171426
ppargc1b
slc35f3a
ugt5b4
zgc:66313
ugt5a2
chrnd
eif4g2a
klf4b
mibp
slc6a9
slc6a13l
pygma
cdh15
elovl1a
ivns1abpb
dmc1
bnipl
dbpa
cyp2k6
gbgt1l4
zgc:113229
otud5a
nphs1
si:dkey-147f3.4
si:dkey-47k20.1
myom1a
slc6a5
ncaph
hsd11b2
ipo8
flncb
phex
sirt1
vtg7
zgc:100997
si:ch73-387e10.3
cav1
si:dkey-46g23.5
mos
lgmn
anxa6
neu3.3
si:dkey-72l14.4
zgc:92518
smyhc2
fabp10a
crb1
zgc:113293
si:dkeyp-1h4.8
zgc:123217
trim35-22
zgc:56622
alpk3a
tatdn2
b3galt2
si:dkey-102c8.3
aqp12
si:ch73-74h11.1
si:ch1073-291c23.2
cbsa
sult1st2
fmn2b
nek2
si:rp71-15i12.1
wnt4b
zgc:92041
aqp7
ifi35
b4galnt3a
sult1st3
fbxo25
wdr90
zgc:123297
plp1a
mep1a.1
g0s2
si:ch211-197g15.7
zgc:153642
zgc:113324
si:dkey-240n22.6
hnf4a
slc12a10.2
vtg2
tbx20
isg15
emilin2a
dgcr6
epas1b
s100s
zgc:153921
hsh2d
atp2b4
plek
btbd11b
fbxw4
dcn
tmem144b
unc5b
skia
serpinc1
si:ch211-226h8.11
cth1
bin2a
ap1g2
si:dkey-228b2.5
si:dkey-238o13.4
si:dkey-21o22.2
zgc:198329
pprc1
phyh
ubtd1a
tmpoa
kdr
hoxc8a
zgc:136472
rfx2
ccnt1
zgc:77778
zgc:174863
dlx3b
mtrf1l
dao.2
mfge8a
ca15b
creb3l2
mych
hcrtr2
fbxo5
ccdc28a
aspn
crabp2a
hoxb3a
si:ch73-60g14.3
si:ch211-250e5.16
zgc:153345
trim35-29
gfpt2
si:ch211-76m11.7
si:ch211-223m11.2
sult1st5
st3gal2l
hectd1
hepacam
cd164
zp3a.2
csnk1g2b
paip2b
si:dkey-46g23.2
b4galt1
lgals9l1
amy2a
cax1
atp8b3
si:ch73-194h10.4
smtnl1
tuba4l
orc3
zgc:101840
si:ch211-59h6.1
si:dkey-265a7.2
zp3a.1
si:dkey-221j11.3
si:dkey-239i20.2
si:ch211-165f21.7
acsl6
bnc2
nt5c2b
pir
zgc:172090
si:ch211-12e13.2
rock2b
slc13a2
si:dkey-90m5.4
si:dkey-20n3.1
zgc:110783
zgc:123282
si:dkey-98f17.3
zgc:92061
im:7137555
nufip2
kcnj8
espnl
vtg4
fip1l1a
si:dkey-42i9.8
si:ch73-239k17.1
srebf2
si:dkey-286j17.3
lsm14b
umps
stm
mxra8a
agbl4
grm3
slc2a15a
apobec2a
rpl19
sobpb
cbfb
acrc
npas4a
ogn
cyp2x9
pkmb
rps27.2
mknk2b
cct5
ctslb
acanb
si:dkey-246j23.5
tspan11
fuca1
ppp1r3b
si:ch211-107o23.1
si:ch211-196c10.11
ing3
slc25a18
cd36
cxcl12b
akr1b1
st3gal5l
vgll2b
gria2a
crp1
sccpdhb
wnt8a
si:dkey-121a11.3
eci1
si:dkey-58f10.11
apod
zgc:153409
arpp21
slc25a37
ucp1
si:ch211-153j24.3
grn2
zgc:171534
eya4
zgc:152791
cyp1b1
btbd3a
lsm12b
mcm6l
cyp4v7
aldh2.1
idh1
si:dkey-56d12.4
xrcc5
cpb1
zgc:91999
tubb5
ackr4b
aspdh
serpina1l
acp5a
plgrkt
zgc:194659
si:ch211-213a13.2
nutf2
brd8
si:dkey-208k4.2
socs1a
pds5a
grin1a
zgc:162879
iqch
npy
slc5a11
shhb
hmgcs1
ccne1
ccdc106b
si:ch211-237l4.6
cenpl
si:ch211-207e19.14
dio2
si:ch211-93f2.1
caprin2
zgc:77439
ace2
ap2m1b
ap2m1a
alg13
capn3b
gdi1
si:ch1073-174d20.1
sult3st1
marco
sema3c
si:dkey-106c17.2
crp3
rsad2
tmed1a
col8a2
si:ch211-233m11.1
si:ch211-262h13.5
ogfrl2
slc2a1b
tinagl1
csdc2b
zgc:174698
zgc:113070
aldh2.2
apobb
or129-1
zgc:101084
tmem136a
zgc:112265
dnttip2
dync1i2b
dhx58
btg4
atf5b
cyb5r2
rdh5
sfxn5b
acsl1a
zgc:65851
ampd1
krcp
crfb4
plac8.2
diras1a
sox9a
bmp15
tm4sf5
serpina1
mmadhc
zgc:136254
ola1
plac8.1
fam213b
zgc:195170
arhgef18b
glra1
rpl5b
zcchc24
rnaseka
slc7a10a
rapsn
igl2v7
cyp2x10.2
calhm2
tfa
slc16a12b
zgc:103482
zgc:110183
elovl7a
asz1
cdc42ep4a
cdh17
slc26a4
cldnc
ivns1abpa
si:dkey-242h9.3
opa1
mad2l1
pnp4b
ammecr1
xkr6
sesn2
CG13426
stk16
mb
tbpl2
cldnk
cfh
CG33012
prodha
hpda
tspo
tpma
si:ch211-288g17.4
zgc:136652
ahsg
mapre1a
zgc:112484
sult6b1
cldn15la
efemp2b
mitfa
bin3
slc6a19b
zbtb2a
lppr2a
si:dkey-21e7.2
zgc:114123
si:ch211-195o19.4
hhipl1
si:rp71-61h23.4
atp1b4
fam212aa
slc35d1b
si:ch73-93k15.2
runx2a
crp2
cyp2j20
si:dkey-31f5.1
fgg
sccpdha
meox2b
gpc4
pdlim5a
wu:fb37b09
si:ch1073-396h14.1
mycla
vwa2
tmprss4b
zgc:63972
acat2
macf1
pfkfb3
irf2bp2a
nmbr
clic5b
poll
mtp
nmnat2
igdcc3
pias4b
zgc:103710
rrm2
unc93a
si:dkey-193c22.2
scn4bb
pdzd2
socs3a
smc4
zgc:65811
plk1
ank1
f7i
traip
sqlea
si:ch211-232i5.1
wnk1b
ppm1ba
si:ch211-284a13.1
tmem238
palmda
cpa1
mtnr1c
zar1
trmt112
zgc:153440
dnmt3
serpinf2b
cyp2p8
her4.2
tdrd5
dpp7
fitm1
hoxa1a
rcc1
pkp3a
myl4
zgc:136858
zgc:103601
ldb3b
ppm1aa
kars
cldng
itih2
aqp4
pygb
hsd17b7
casp7
ces3
zgc:111986
si:rp71-7l19.6
c1qc
asap2a
cntn2
apip
apobl
si:ch211-66h3.1
cyp51
tmem119a
zgc:172246
atp2a1l
tnfsf10l
rbfox2
zgc:174153
adh8a
zgc:77112
orc6
ptn
mcm3l
ccna2
zgc:56235
f13a1a.1
ptgs2a
si:ch211-226h8.6
ccdc47
mpx
tp63
CG3009
prmt1
f2
mknk2a
cyp11a1
slc16a9a
si:dkey-188i13.10
gtpbp1
si:ch211-207i1.2
si:ch211-207i1.1
arfip1
si:dkeyp-46h3.6
trdn
slc22a6l
hoxa10b
nasp
ighv2-1
mef2d
hid1b
tnni2b.2
tgm2a
si:ch211-217k17.9
si:dkey-188i13.9
socs3b
itih5
pdlim3b
pgls
hk2
cfhl5
ccnyl1
col9a2
synpr
ttll12
batf
ttyh2
casq1a
si:dkey-14d8.6
rnf41
c1r
zgc:112052
cul1a
entpd5b
si:ch211-272h9.5
osmr
krt5
si:dkey-201l21.4
si:dkey-112e17.1
plin1
nkx6.2
mfsd10
cyp46a1
ppp1r14ab
fdps
rps6kal
opn1lw1
clcn1a
b2m
nfe2l1a
pnp5a
si:ch211-105d11.2
aoc2
wu:fj20e02
zgc:66382
blnk
abat
pm20d1.1
zgc:123068
dok7
zgc:162612
ociad2
zgc:56676
tceb2
opn1sw1
pard3
msrb2
ctnna2
nqo1
si:dkey-22f5.10
atf7b
npm1a
rtn1a
zgc:153629
zgc:162592
epha4b
gnpda1
tcea1
foxd3
fstl4
si:ch211-160d14.12
hbl3
map1lc3c
cep85l
gpt2l
tbx6
cldna
plg
lss
scarb2
zgc:154125
supt3h
elovl7b
orc1
ccnb2
trak2
dpep1
vgll4l
gtf3ab
si:dkey-266m15.6
zgc:158856
stab2
snapc1a
zgc:64106
rgl3a
sh3gl3b
atad5b
slc35f6
zgc:163121
pvalb2
si:ch73-96b22.2
si:dkey-73n10.1
pcdh10a
tax1bp1b
anxa2a
si:dkey-246g23.2
xbp1
coro2ba
chd
si:dkey-13a21.4
agfg1b
sertad2b
org
si:dkeyp-44a8.4
rps19
chpt1
st8sia1
cacna1r
si:dkey-7c18.24
sap130b
irf7
mef2ca
tex2
elavl3
mxe
ctsl.1
sult2st3
msmo1
themis2
dtl
si:dkey-14o18.6
mpp7
senp7
cpeb1b
lipg
atf3
faah2b
lepr
st6galnac4
nipsnap1
sv2bb
ugt1ab
zgc:174855
mov10b.1
pvalb1
pank2
oxt
retsatl
gorasp2
psme2
hn1l
mafgb
fgf5
zgc:153996
tdrd6
igfn1.1
si:ch211-117n7.7
tmod2
rps2
pus7l
cbr1
has2
slc25a25a
srsf6a
ftr53
sema4ba
si:ch211-202a12.4
pitx1
sync
tp73
si:dkey-176g1.6
rtn2b
lyn
si:ch73-252g14.4
zgc:101744
zgc:123244
fbl
phldb1a
cx27.5
apoc1l
gmnn
copb2
asb2a.1
tram1
pabpc4
rnasel3
zgc:153893
serpina7
nefmb
sema3h
zgc:171704
hal
fkbp5
si:dkey-88l16.2
lamp2
ckma
tacc3
figla
fkbp6
ephx1l
soul5
cbx7a
alpi.2
slc2a12
si:dkey-61p9.9
blcap
lmo7b
nkd2b
eif1b
ncam2
pth1ra
pkd2
si:dkey-73n10.4
tnfrsf18
zgc:103681
cdx1b
ptpro
pglyrp6
dhcr24
prmt2
elovl6l
lft2
si:dkeyp-1h4.9
arglu1b
idi1
rgs4
rhoaa
meox1
tbc1d1
tbx6l
si:ch73-289h5.1
sh3bgr
prdx1
csrnp1a
urah
gys2
cldn15a
tm4sf18
si:ch211-234p6.5
mep1a.2
zgc:101116
si:ch211-86k6.2
mapkapk2b
zgc:162724
prp19
cmya5
acot9.2
prc1a
si:dkey-8k3.2
iars
cebpd
mpv17l2
slc13a5a
msxd
si:dkey-27a13.3
fn1b
flj13639
gnmt
zgc:114181
ft2
gnaia
myoc
her3
arid5b
pax1a
si:dkey-44g23.5
hoxb5b
zgc:162738
tars
hsd17b12b
scn4aa
anks4b
plxnb2a
ctnnbl1
ccdc73
osbpl2b
xpnpep2
dusp1
eif4h
slc26a3
ncalda
si:dkey-211g8.8
zgc:162187
zgc:193751
si:dkey-238c7.13
sparc
b3gnt5b
insig1
zgc:101040
elovl5
scpep1
si:dkey-269i1.3
syvn1
lamc3
fgf8b
slc27a2a
s100v2
si:ch211-129c21.1
prrx1b
lrrfip2
lama5
zgc:161973
zgc:86764
si:ch211-117c19.1
zgc:73075
dock3
si:dkeyp-73d8.6
mthfd1b
ptk6b
gng7
aqp3a
tm4sf4
nes
slc13a1
si:ch211-106h4.4
asb1
si:dkey-97m3.1
mat2ab
cfb
rbbp5
h1m
nt5c1bb
tgfbr1b
tecrl2
zgc:122979
elfn1b
zgc:112160
si:ch211-236l14.4
cyp3a65
ambp
lhx4
si:ch211-217g15.3
mbpb
c1orf109
irf2bp2b
ptgdsb
grhprb
si:dkeyp-114g9.1
wu:fj55b04
pif1
mhc1uba
mthfr
CG31683
acmsd
lypd6b
cyp2p9
znf259
aldh7a1
abhd17b
kcnk1b
rhoub
fosb
esrp1
zgc:113531
si:dkey-269d20.3
agla
mrap
dhrs1
mthfd1l
zgc:112335
rdh10b
cfhl2
ddit3
dazl
c6ast3
zgc:92791
ndor1
dmrt2a
gpa33
myod1
lrrc30a
foxa3
si:ch211-209a2.2
cfhl4
tnr
utp15
si:ch211-14a17.7
zgc:194285
si:dkey-172m14.2
zgc:123284
tsku
furina
zgc:112466
ttna
mrps10
cldn19
zgc:172218
adipoqb
omd
nrbf2b
anxa1b
otx5
ptk2.1
ucn3l
dnah7
itm2ba
tmem161a
atp2b1a
abca1a
zgc:198241
kif23
cdc20
si:dkey-201l21.1
si:ch73-46j18.5
smarca4
rbl1
pygl
pabpn1l
coasy
mylpfa
prss16
xirp1
lrpap1
grn1
gbp1
hpdb
sox7
zgc:113425
atp1a1a.4
opn1mw4
dmd
fundc2
sh3bp5b
zgc:172142
lrig1
sdr16c5b
sult2st1
panx1b
cdca7a
pcdh2ab7
hnf1ba
kpna7
baxb
zgc:153154
zgc:153129
cirh1a
gcc1
npepps
smtnl
ube2d3
fam113
e2f4
ptprc
kdelr2a
psmb7
anpepb
hspd1
ckmb
gnrhr4
cyp2x8
dmrta2
zgc:66449
cacnb3a
picalmb
rrp7a
usp6nl
si:ch211-226h8.13
fam162a
hoxc13a
prg4b
ndrg1a
spg7
c8a
zgc:92411
cyp4v8
acot13
gcshb
gnsb
zgc:92161
shmt1
enpp6
nt5e
slc25a42
mogat2
olfml2ba
bcmo1l
fli1b
nfil3-2
anpepa
arl11
zgc:175128
sirt3
ccdc40
haao
tln2a
ocstamp
elovl2
slc18a3a
slc5a1
vcana
tacr1a
golgb1
lrrc20
hoxc4a
cpa2
c3b
pafah1b1b
try
ncana
lhcgr
itm2cb
pfkmb
si:ch211-137a8.4
zgc:110410
rhbdd1
slc30a2
gpm6bb
acad11
tfdp1a
crsp7
bgna
rnf146
CG14971
CG12942
rumi
Mtap
Or74a
CG15525
MYPT-75D
CG14823
Uba3
CG11912
sals
Gint3
Sirup
CG4936
CG4565
ptr
CG3448
Ilp4
CG8152
brv1
Inx2
CG6689
CG31010
Tsp42El
Sgf29
CG15829
ANGPT1
BLMH
FFAR2
LOC100424530
LOC100424617
LOC100424808
LOC100424861
LOC100424879
LOC100424880
LOC100424891
