CG12116
CG16956
CG11122
CG7506
CG16775
CG8745
CG17264
CG31515
CG31681
CG3394
Xe7
CG7781
CG11753
CG14610
CG4686
CG13704
CG8927
CG15506
Pde1c
CG3603
CG14688
CG43736
CG17737
CG6661
CG7029
CG6701
CG17580
CG8449
CG10383
CG34356
CG3530
CG17129
CG12200
CG7231
CG2082
CG4585
CG11596
CG30026
CG12398
CG16743
CG11138
CG10011
CG8134
CG18493
CG9773
CG12895
CG7099
CG6678
CG1695
CG8485
CG16749
CG42232
CG30458
CG4928
CG33521
CG8303
CG9135
CG5376
CG4998
CG31373
CG9279
CG32150
CG10877
CG4733
CG5849
CG33177
CG31140
Caper
sra
CG7408
CG9706
CG7706
Unr
ds
mrj
tok
Unc-115a
CG17350
HP1D3csd
Papst2
Pkc98E
vig2
CG13749
Ptpmeg
CG31446
CG10472
Dip-C
CG11703
SmG
CG33127
CG18302
CG4623
CG7582
CG8329
CG18278
PGRP-SC2
CG17111
CG30110
acj6
CG13747
PCNA
gudu
dnr1
Obp19d
CG8545
CG33298
mbf1
Dark
nwk
CG1516
CG8708
CG10082
wfs1
Aps
pbl
Sra-1
CG10185
Mlp60A
Herp
CG31619
CG15771
capt
CG1835
CSN5
Tre1
Surf6
CG9086
dj-1beta
fand
CG32102
Efr
Hmt-1
CG4679
if
puf
Mer
CG13901
CG14805
Nup205
AnxB9
PSR
S
CG7653
CG31955
H15
CG10444
rempA
ttk
GstO1
CG7255
msl-1
spn-E
corto
VhaSFD
CR32582
CG4991
CG12713
Ostgamma
Bap55
CG9632
CG42339
mid
Scamp
CG15247
CG18812
Atg14
CG14963
ACC
CG6040
Tsp42Ej
CG11426
Rh50
retn
CG9272
Syngr
Jon25Bi
CG11700
hale
okr
rdgA
CG7542
sxe2
ETH
CG1486
yem
RpL24-like
CG2680
CG7834
5-HT7
Jon66Ci
sm
E(bx)
Men
CG14712
CG4603
wts
CG3502
CG15515
Elp2
Trn-SR
CG42540
Nf1
CG3815
CadN
Nop60B
dock
Kmn1
Ts
Jon74E
aqrs
CG7593
CG6527
CG11699
CG7557
qless
Rs1
janA
CG7763
CG5205
CG9669
CG8909
CG14883
RN-tre
tilB
CG31821
spz
Rm62
Ser
CG15127
CG18643
CG15483
CG12267
C3G
mRpS33
dnc
CG10479
Itp-r83A
Rim2
CG17612
tlk
COQ7
CG3609
CG4159
Prosalpha4
mRpL1
CG32687
CG11137
gig
CG18815
CG4747
CG8009
CG8483
CG4259
milt
CG12057
Sec22
CG12024
CG30196
CG32006
CG13155
l(3)76BDm
Syb
mnd
HisCl1
Cdk5
Nop17l
Task7
Moe
Cyp301a1
CG4962
svp
CG4666
Srp68
Jon99Ci
CG4596
CG31789
Prx6005
CG8460
Btk29A
CG9510
Nmnat
Sap30
CG3542
kuz
Chrac-14
wus
ldlCp
CG8654
Srp54k
msk
yip2
Shaw
Chmp1
CG11112
Pli
CG6543
yip7
CalpA
ftz-f1
Wbp2
Ac76E
CG7371
CG5549
CG4653
CG14762
nesd
Mctp
Pde9
CG8314
Drsl5
CG14153
hts
kdn
Cdk12
SmF
CG13218
CG32698
rasp
CG15523
26-29-p
14-3-3epsilon
CG6962
galectin
Rpn11
mre11
fidipidine
CG15922
CG5955
Lpt
nau
CG31279
krimp
CG30411
Act79B
CG5734
sphinx1
Pp2C1
Rab27
AstA-R2
Ppt2
Iris
CG6686
sNPF-R
p47
CG6910
CG11851
Art3
CG13506
AQP
GstO3
bun
CG7322
tty
Pvf2
CG17190
Golgin245
Tango7
CG5538
CG3918
Sos
Nuf2
CG12877
CheB38c
CG1789
CG14615
magu
CG15005
Trp1
CG32732
CG30033
CG7185
Arpc2
CG30499
stas
CG7966
TkR99D
CG10311
rut
vih
CG6488
C15
CG4266
mRpL43
slgA
Syt4
beta4GalNAcTA
Nmd3
Jon65Ai
fz
MED24
CG6746
CG3860
GstZ1
unpg
Dad
CG11241
CG5608
CG9752
vig
CycB
CG13366
Art7
Poxm
CG3313
CG7028
kn
CG5869
Mipp2
His2A:CG31618
CG1275
HSPC300
CG12795
nct
CG6073
AP-1sigma
Rbp6
CG12605
Rbcn-3A
nAChRbeta2
shi
Khc-73
PKD
moody
Scm
CG12531
CG12659
Clk
ham
CG42593
Vha44
CG2543
Sptr
fuss
Nup160
CG15343
CG17681
CG5337
CG4297
CG9914
viaf
CG13090
l(2)k12914
CG9547
sNPF
Kif3C
Jon65Aii
CG5339
CG5402
CG5805
ifc
CG10477
RpL24
CalpB
CG11726
CG5697
Sur
CG14488
CG17186
mol
CG12782
drk
e(y)3
CG10089
CG1732
lig3
Obp99d
S6k
E(spl)mdelta-HLH
AnxB10
caps
Jon65Aiv
aay
CG34417
ltd
ana
Lin29
CG9003
SmB
trn
AstC
CG31646
CG33003
CG30050
CG9016
DIP2
Zip102B
pr-set7
CG4853
CG4500
CG18367
5-HT2A
Jheh2
mod(mdg4)
Obp8a
CG9870
CG12333
CG10880
CG17917
pgant5
defl
CG7179
Jon44E
CG12310
CG12099
Obp69a
MESK2
Tor
Msp300
CG13102
Klp98A
shf
Adk2
Tfb1
Rheb
Ssdp
PsGEF
AGO1
CG3652
CG16892
CG31041
Sec23
par-1
Reps
CG9186
pum
CG13920
CG3698
CG9018
Arp6
CG5780
CG9934
x16
DopEcR
CG4572
Sdic3
Ccz1
Caf1-105
CG5122
me31B
Tsc1
Pdk
bol
CG8026
neb
Klp10A
U2A
Faf
CG6412
Jon25Biii
CG10495
Nos
nec
Cp15
Cct1
Gos28
Cbs
Aos1
Nnp-1
CG1965
CG1542
CG13557
sro
CG30154
Psn
Rpt6
Stam
CG15014
CG13305
Mmp2
dlg1
CG7510
Rel
nAChRalpha3
BoYb
Aats-gln
Not3
AttA
Cpr50Ca
pip
ear
PIP5K59B
glob1
CG12784
Cul4
Vha36-3
Pi3K21B
shot
msps
CG10053
Hmg-2
CG5770
CG15186
Nup37
CG10077
CG10635
CG16884
Ate1
Lip4
CG9297
Zir
CG3457
Reck
dnd
bnb
CG31156
Cand1
CG13123
CG2076
CG6227
siz
CG12264
CG2681
CG13364
CG12929
CG18301
Indy
Khc
CG6000
pont
Mlp84B
CG1575
CG10734
His3:CG31613
CG10827
CG10333
CG9021
mtd
Cul5
phyl
ens
Rga
Kua
CG30493
CG14131
TrxT
BRWD3
Tgt
cad
MtnB
AstA
CG5909
spt4
Acyp
Ino80
CG6867
CG4066
CG9922
CG31287
comm2
CG9313
CG13641
CG34384
CG13482
CG9377
Rassf
CG4447
Awh
CG10176
CG12863
Sxl
CG11779
osa
CG7992
papi
Keap1
CG30022
CG8475
TSG101
CG10949
CG6765
CG15861
CG13627
Pdcd4
CG30122
Tg
CG31324
CG5500
CG18480
Oxp
CG18404
CG17660
CG5001
tam
CG11593
CG15199
CG18869
Pka-R2
Jon99Fi
Cp7Fa
Syt7
phr
l(3)72Dp
cv-2
CG12016
CG11208
CG11162
CG16736
srpk79D
CG7974
CG1041
Rop
Plap
Cct2
CG3552
CG18599
Trax
sqa
Pez
CG31183
CG6023
CG13428
bab2
O-fut2
pdm3
Smg6
BobA
hgo
CS-2
CG12883
kraken
Rcd-1
CG18180
CG18179
ball
CG12914
Rrp45
Set
CG5966
CG6938
E(spl)m3-HLH
hppy
CG10516
CG15353
l(2)k09913
dpp
CG9396
obst-E
CG32428
CG7956
P58IPK
Frq1
CG14218
sna
VGlut
HIPP1
Muc12Ea
CG7048
CG14894
DJ-1alpha
CG11210
mask
Mgstl
CG9650
stet
CG13887
Asap
aret
Jon25Bii
SerT
CDC45L
mura
CG5830
CG3430
nes
PRL-1
pall
LBR
Smu1
fabp
Ccp84Ac
OstStt3
CG5569
sff
twin
CG8311
Ubi-p63E
Crc
CG15784
Atxn7
Myb
trbl
Corp
CG30059
ncm
mspo
PH4alphaEFB
CG17664
Rtf1
CG11034
CG5384
Cbl
CG2906
CG5776
CG32191
FER
CG11148
CG5604
botv
CG42271
mRpL2
IntS9
CG18173
swa
sns
PGRP-SC1b
Ptth
CG3679
CG17662
foxo
NAA20
CG10116
CG11899
CG8155
CG3663
Hel89B
CG16758
Gad1
Ssrp
bbx
fwd
lobo
CG32537
Kebab
dpr10
CG31550
CG3902
CG7849
CG6870
CkIIalpha-i3
RpS11
CG5150
l(2)k05819
CG15083
CG17765
be
kat80
CadN2
sens-2
Coq2
rogdi
Cals
Piezo
Su(z)12
Fcp3C
CG11876
CG4914
CG14591
CG3077
Sod2
CG8414
PIG-U
Myo61F
CG15414
PCCB
PLS1
PPM1F
RB1
RCC1
RNF141
STK17A
TAC1
WEE2
ZDHHC3
ZMYND11
crn-4
dao-5
fmo-3
frk-1
gem-4
map-1
msh-2
rab-37
gyg-1
vab-10
C18E9.2
fbxa-82
C31C9.2
C33A12.3
cfim-2
F07A11.2
F21D9.3
F25D1.4
F39B2.1
fip-5
F42E11.3
F55D12.5
F58E10.7
uso-1
K11H3.6
R10H10.4
T11G6.8
T26G10.4
W02D9.4
W06D11.3
Y39B6A.34
Y40H7A.4
Y48C3A.1
ddl-2
Y48G10A.3
rga-2
Y53F4B.5
Y105C5B.9
ZK666.4
lntl-1
C43H6.7
F28C10.1
F33D4.7
F33D11.12
F41D9.2
tbc-16
F55A4.2
Y8A9A.3
Y71G12B.26
W02B12.15
Y17G7B.23
F56D6.9
CG13992
CG31704
CG10407
CG30485
CG13766
CG10910
CG7884
CG13204
CG7824
CG17687
Mt2
CG4658
CG17646
oaf
tyf
heph
CG9986
CG18213
CG4884
Ets21C
CG6125
CG10211
CG30160
ct
TppII
trr
CG2617
CG8299
Synj
CG31810
CG15282
CG6540
ko
CG15358
Npl4
CG16772
CG30398
CG32599
VhaAC39-2
CG15717
CG43427
Imp
CG31148
dtr
CG4577
Mnt
CG31683
msta
Caps
CG8060
lambdaTry
CG31688
CG42327
Inr-a
mtm
CG32638
CG16986
CG5612
r
CG7296
CG14561
yellow-e
Sln
CG8607
Muc14A
CG9305
lbe
Trim9
Blimp-1
CG10139
TER94
beat-IIa
nsr
TkR86C
geminin
ATP8B
7B2
SNCF
Pkc53E
CG1718
Ack-like
CG17475
Prm
dgt4
CG5853
GLaz
CG7381
et
CG18467
CG3955
trk
Npc2e
CG31872
loj
Paip2
CG11327
Tsf3
Rpt3
CG17549
ftz
CG1234
CG9338
dikar
CG15423
CG8326
CG4554
CG7631
Nrt
Catsup
Cyp6a2
CG4830
CG8370
Actn
CG7058
CG31272
CG43867
orb2
Rpn12
CG14312
CG3290
fsd
CG7443
CG17746
CG7288
Cp38
gny
BicD
CG17294
gro
CG12716
mtacp1
lz
RhoGAP19D
CG6329
CG42342
CG7211
JTBR
Ser6
CG7358
Atac2
Klp3A
CG14618
etaTry
DOR
CCHa2
CG32579
CG5160
CG2781
klg
Mal-A6
CG5171
Exn
Rpb11
CG7967
TRAM
CG11583
RapGAP1
Fbp1
CG1988
CG8157
aurB
RhoGAP71E
CG7110
CG31296
CG10680
CG13409
ss
CG9684
CG12672
CG8378
hk
CG2291
rdo
LysP
CG31301
tef
CG11381
cuff
CG15651
Kaz-m1
Nmda1
CG2202
Tret1-2
Ubx
Lcp1
CG3907
CG11251
nito
CG11342
casp
slou
Smvt
CG6353
CG2772
CG6852
CG12637
ATPsyn-beta
CG2006
sgll
Dcr-1
icln
CG1701
TotA
Obp99a
Spx
Pk17E
Vm32E
CG4462
EcR
CG32588
GCC185
CG12560
SsRbeta
CG14777
Hex-A
CG7911
P5CDh1
CG14893
spz3
qsm
Graf
Patsas
CG15661
CG8791
CG4161
lama
cav
CG10625
CG9926
CG9940
CG18268
Edem2
CG32267
bam
spin
ago
Not1
esn
CG7277
CG13049
CG3868
msd1
Scr
Taf1
Cap-D2
CG11911
CG14630
Ude
CG43795
twi
Alk
Ance-4
GATAe
CycJ
Fad2
CG8316
CG31274
SmD3
rst
cdc14
Hsc70-5
CG3746
alpha-Est9
CG1504
rap
CG30269
Ag5r
Ak6
CapaR
CG34127
CG11893
inaC
CG5567
Gtp-bp
Smn
jim
CG5704
CG1827
CG10466
CG17271
beat-Ib
Ehbp1
CG8209
Acp24A4
CG13427
CG32695
CG4287
CG7378
RnpS1
CG32061
CG6707
Cpr47Ef
Vinc
Dgp-1
CG7182
CG10512
CG31475
Seipin
CG4408
Ork1
CG44085
Eip63E
dre4
CG17752
CG17738
l(2)35Df
CG18135
CG32164
iotaTry
Spn47C
Cyp4ad1
TwdlT
salm
CG11453
scaf6
CG30222
apt
PIP82
Lnk
CHOp24
lkb1
Mtap
wry
CG9509
CG8336
CG7601
Trf
CG5687
Rab3-GEF
U26
Hen1
CG12909
Qtzl
CG5399
CG13921
Cpr100A
nAChRalpha5
wupA
CG7800
S-Lap5
CG8021
CG3709
CG30151
Lis-1
CG15530
Fnta
RpL22
p38a
CG15022
CG18107
dj
sa
Mp
Alg10
ckd
eloF
shu
CG4580
MED31
fry
CG12288
CG1677
Ibf1
eys
Gld
CoRest
CG30008
SK
CG5250
CG13324
ctp
sosie
Mdr50
CG9106
mex1
knrl
Cht5
CG12744
CG10660
CG6044
POSH
bbc
ec
CG3224
pgant6
Aats-asp
Ten-m
CG2889
CG15705
Cp18
Jhe
CG5819
CG11537
CG32368
Cht6
CG14966
CG9629
Or47a
CG31913
CG34354
Edg84A
Ranbp21
Top1
Cp19
PGRP-SB1
Ank2
kto
net
CG10103
crim
CG17625
cN-IIIB
sowah
CG16799
Cyp313a1
CG11168
Brd8
Prosbeta3
Cul3
CG12163
Oatp30B
CG8837
CG10307
sun
Pdk1
CG15258
Adgf-A
Spt
Elo68beta
Syt1
CG8258
CG15012
CG4455
p38b
CG18265
CG6567
CG31730
CG1532
CG4301
arx
PP2A-B'
grp
CG15347
amd
akirin
CG32755
Cyp6a21
msb1l
rdgB
Vps28
Myo10A
CG17994
CG2187
elB
CG17258
CG4825
CG7059
GC2
Rh5
CG9717
CG3295
Gfrl
Gclm
CG8834
Rrp40
Sec61beta
D19B
CycB3
Cep135
CG13185
CG8952
CG1635
CG9451
Pepck
ade5
CG8949
CG18745
mRpL4
CG33062
cp309
Cyp4d2
CG15617
CG31809
Prat
Jhedup
CG14990
CG8065
Gclc
CG18131
hep
CG15270
CG9988
CG17360
CG6499
ssp2
Obp19c
CG10035
CG13309
CG42673
Ca-alpha1D
Lectin-galC1
CG31813
CG14882
Jafrac1
Pmp70
nej
Bsg25A
Nrg
Mur29B
CG7208
CG17780
CG7567
maf-S
TfIIFbeta
CG34362
Grip71
Dok
CG9466
CG11221
CG13321
CG31108
Tom
Pex2
CG7194
CG5096
BI-1
Cdep
CG15480
Cdk2
Bub3
Camta
CG31266
Hk
CG31030
CG11842
CG11982
Atg7
Spred
CG13868
Mkp3
CG11529
NaPi-T
Ubqn
CG31414
BthD
CG31275
CG15431
Dip2
pygo
Prosbeta2R2
Nse1
PPO3
Jarid2
BEAF-32
fzy
pen
Cyp4g1
CG13850
Act42A
CG11577
wek
Dys
Chd1
CG43759
CG31343
CG11837
CG4783
CG10188
CG10943
CG6041
CG3776
CG3558
Sfmbt
CG16974
Ccp84Ab
RpL23A
CG15262
Grp
CG5916
CG14191
CG4753
CG32121
l(2)06496
PPP4R2r
Sir2
CG9153
DNaseII
CG31269
Oga
mia
CG4364
Sdc
CG8550
Antp
atilla
rt
qkr54B
slp1
HipHop
gd
CecB
Sirt6
CG13438
mal
Fmo-1
Cpr60D
ImpE2
CG5767
CG1315
CG5126
GstT3
mu2
Cys
CG9743
muskelin
TfIIB
SF2
CG16885
Glut3
Tgi
Shal
CG14120
Prx5
dnt
CG32110
CG1399
CG14715
Sclp
CG8239
CG3589
Cas
sni
Mob2
CG6293
CG13326
E(spl)malpha-BFM
vanin-like
fkh
Nelf-E
CG11658
Csl4
bib
gcl
CG33123
CG11399
Rfx
CG15743
Gnf1
brat
RhoGEF4
CG18598
CR32111
v(2)k05816
Mal-A3
p24-1
CG14767
CG6201
CG17032
CG32473
CG10584
CG14022
CG17778
CG6750
cas
PH4alphaSG1
RpI135
CG30148
GstD7
ZnT63C
mats
CG17109
CG17896
CG14298
CG2046
Pvf1
Ser7
pnt
CG9864
CG3817
Cyp28a5
CG6429
CG13056
vret
CG14219
hng3
CG30467
CG5778
XRCC1
Ilp8
Obp99b
snRNP-U1-70K
pim
CG10163
CG3687
CG4716
CG3570
DNApol-eta
CG32066
Gcn2
CG34386
CG8083
grh
CG14457
fd3F
Map205
CG4880
beat-Vb
Pino
fra
CheA87a
CG9346
CG13978
CG9519
Vha100-4
gcm2
CG13890
TfIIA-S
lbl
CG12814
CG6523
CG17560
CG7627
CG13650
CG7337
CG5885
CG5568
CG7200
CG31176
pgant4
CG2004
Rbp2
metl
Thiolase
ana2
CG16890
CG32000
wg
CG17270
CG33181
CG8620
CG33136
epsilonTry
tin
bin3
GstD10
fw
CG32022
CG18628
CG14933
BubR1
sta
spict
cdi
Vmat
CG10881
w
LanA
Rab9
CG4822
CG5439
CG31267
tweek
Prosap
mam
CG11920
DIP1
CG13877
slif
CG10550
CG3831
CG7433
CG11321
CG3301
CG1847
CG6912
side
MED10
Cog3
ci
GluClalpha
CG5611
insv
TpnC4
Treh
CG6271
gek
Skeletor
CG11378
poe
beta3GalTII
Hsp26
SdhB
CG13947
Fife
Adk3
Dh44-R2
CG17387
Obp83a
CG3270
hth
CG14864
CG15863
CG4019
CG3106
CG32206
RecQ4
Tapdelta
Cyp4d21
Act57B
att-ORFA
rols
CG15169
Mid1
CG13690
CG6908
KLHL18
CG2678
CG10467
PVRAP
CG7841
CG9596
E(spl)mgamma-HLH
Ef1alpha48D
CG14834
Syx8
CG42404
ca
CG32365
CG12693
Trl
CG3819
mus81
CG3581
CG42269
O-fut1
mib1
Rat1
mthl2
Ilp7
Mal-A8
mtrm
CG17834
CG5375
Nca
CG7903
CG7695
dgt5
ktub
Alg-2
CG8248
CG8611
GAPcenA
slam
CG16857
Fak
nrv2
CG11018
CG2656
CG6424
CG8925
z
CG15432
pHCl
CG31075
Rac2
CG6006
CG42492
mip40
CG18744
Cpr62Bb
CG42255
CG5043
pins
CG17272
Vps13
plum
Est-Q
yellow-g
Duox
CG6465
CG8386
mirr
yata
Rbpn-5
CG4433
CG42672
CG7402
Cad74A
CG3961
Cyp28d1
CG7979
Aats-lys
cora
CG6602
antdh
CG8563
CG7054
GILT3
NimC1
Fancl
hebe
CG3566
CG18233
Ubp64E
CG12576
CG5381
CG3703
CG14400
CG3238
CG6695
ash1
CG17751
nab
CG4020
daw
CG7079
Ugt35a
Cyt-b5
Gpo-1
CG12182
CG6812
CG5592
CG9897
fs(1)Ya
Vps25
CG18508
ver
Mical
CG7366
KCNQ
CG31300
CG12721
spg
feo
Lar
msl-3
Grip84
Vps16B
CG4199
Lrt
trpl
CG7668
Rme-8
Rpi
CG5639
Adk1
CG17977
Hsc70-1
CG12825
GstE7
Ice1
Myo31DF
CG12090
CG4053
Hrb87F
CG7523
Obp56h
CG5745
CG2321
Con
CG10286
dhd
Tango13
CG9727
CG16935
Pex19
dap
l(2)not
slo
robo3
Ubc4
CG11160
CG15255
Pat1
Slip1
P5cr
Takl1
CG30457
RIOK1
CG33090
CG14102
ema
CG13029
polybromo
Sec61gamma
UbcE2H
CG31743
CG16908
tank
Muc11A
CG11322
CG11076
Sirt2
CG42741
CG9344
CG43367
CG31404
NaCP60E
tos
ush
Nmdar1
Mdr49
GstE6
ken
Top2
toy
Ugt35b
CG33080
CG1927
CG7916
SKIP
Fib
CG7384
ZnT35C
LKR
Gyk
Surf1
Obp28a
CG32444
CG1317
Tl
NimC3
sbr
CG13053
Side
hipk
CG6282
Rb97D
sut1
CG18808
GstD5
oc
rau
CG30382
CG10186
car
CG4186
CG3344
CG5808
CG17278
GstD2
Act87E
Naam
CG3706
CG32392
Pa1
TfIIFalpha
CG7220
rig
CG14984
CG13946
sbb
CG12125
Tet
CG5080
CG31320
CG31524
HP4
rdx
CG17027
dsf
Eip74EF
CG32939
CtsB1
CG33514
Eip75B
GstD1
CG1344
CG5261
CG16898
CG2691
frac
unc80
CG15643
E23
tum
CG32082
CG11629
tomb
CG4629
Tina-1
CG15385
MYPT-75D
l(1)G0469
hec
Tsp2A
CG12464
CG33158
Axs
CG4594
ssp7
Cp36
RpL7-like
bab1
nop5
CG12268
tai
Mst98Cb
CG6738
stil
CG14434
CG3841
RIOK2
Semp1
CG2604
Gem3
Rpn2
osk
Aats-ala
CG6654
CG13315
Ide
Cks85A
zfh1
CG6495
CG10424
CG7272
jp
CG14691
CG11674
yps
Zip42C.2
CG15170
CG2254
Nup93-1
CG11696
timeout
cmet
CG14983
CG11984
Pex13
jar
Ost48
CG1358
Tm1
CG8031
Nse4
PAN2
olf186-M
Cpr49Ag
GNBP-like3
CrebA
ltl
hig
cwo
edin
mino
CG8602
CG7881
CG14823
Vago
mus101
CG5999
CG32241
PK1-R
CG12950
RasGAP1
mRpS9
mth
CG4670
CG3008
rho
CG10621
Shawl
CG10140
CG7342
CBP
CG31436
CG17287
CG32054
CG10483
Cdc6
su(w[a])
Npc2a
CG17322
mthl3
Rae1
CG17107
CG32023
Ca-P60A
RhoGAP100F
CG14567
kek2
CG30285
CG32364
SLC5A11
uzip
CG31664
Wnt6
Non1
CG31874
CG33120
CG13084
Mst84Dd
Cngl
NetB
Nckx30C
tou
CG11999
CG31910
CG7744
CG7991
CG43707
mRpL12
mdy
SP1173
uif
Cpr49Ab
l(2)gl
rod
pav
Sbf
CG11391
CG9125
Fuca
CG6950
alphaTub67C
Mcm5
CG42784
Ugt86Dh
Vps4
sls
CG9691
GluRIB
bsh
CG4562
Lsp1beta
CG9813
CG7298
CG30471
bdg
Mlc1
CG12728
Ilp6
CG14327
cpb
CG8353
GstD11
Ing3
CG17819
CG8323
ACXD
Ady43A
zfh2
CG3611
CG14082
CG17110
Apoltp
CG30373
dsx
MFS16
CG7551
CG7777
enok
rin
CG30101
I-2
CG13014
CG2017
CG13311
bgm
CG13830
mle
CG6453
CG9555
DNApol-epsilon58
scrib
Cchl
CG18540
Lsd-2
CG4586
CG18609
SmD1
Bin1
Irk2
disp
CG32984
Cyp4s3
CG15279
CG30172
garz
Nelf-A
CG18469
Aats-ile
CG16978
CG6901
CG9981
CG8628
CG7135
5-HT1B
Hsp70Ab
dpr12
koko
CG17193
Vha100-1
nonA
Pxt
Hmgs
CG30095
DAT
Slob
CG8334
Mst89B
Atg8a
Hel25E
CG11444
CG12018
CG13667
CG13855
gammaTub23C
CG4741
alpha-Est2
CG31262
Cyp4ac2
Ir25a
pyd
CG4960
Wnk
lola
GstE3
CG13784
elg1
abd-A
CG7837
CG13743
gt
CG31760
CG8997
mad2
Mtpalpha
CG5379
CG7896
CG30394
Pex14
CG5525
Fibp
CG15914
CG43338
CG5267
CG9701
CG18249
wnd
Mipp1
Ac78C
cry
CG32250
CG18304
CG2065
AttD
CG9568
CG15870
Cda5
CG2217
CG10513
CG5535
CG31231
CG9286
unc79
br
Hsp70Ba
CG9459
CG5506
CG18477
sisA
sl
Act88F
CG11912
CG8358
CG16985
CG13640
rept
CG30016
CG5168
WRNexo
CG11951
bi
Df31
sca
ldbr
CG3822
ninaD
plu
CG5414
CG14476
scaf
mthl10
Nplp4
CG11852
4EHP
CG13091
CG7708
CG1648
CG7747
Lamp1
mys
CG8596
sals
pot
CG31729
Fen1
fas
CG5177
CG5758
Hexo2
dmt
CG7387
CG17300
CG12499
mira
CG9815
CG11672
CG33109
ssx
Cp16
Ugt86Dj
CG8142
kug
GXIVsPLA2
CG13806
CG13397
CG32271
CG6084
GAA1
ninaC
wit
SP2353
CG4598
Npc2h
CG11398
CG7154
Cyp12e1
Cpr62Bc
alpha-Man-I
CG18542
CG11619
Rx
Pglym87
CG7338
FoxP
CG17029
ppk28
mst
Dr
hyd
Sug
lgs
GstE2
CG13299
CG7017
Ir8a
Med
CG14590
CG30495
wisp
CG6508
Sirup
flw
CG1722
beat-Ia
GstS1
CG9331
Fit1
spi
CG17556
CG13247
CG9300
fab1
Kr
Hsl
CG13631
Chrac-16
CG12004
CG16953
px
Fim
Cp1
Nmt
Pi3K92E
CG8891
upSET
mute
GstE14
Sod
lbk
CG5791
CG13827
Ace
CG31676
Mal-A7
Trxr-1
MBD-R2
csw
CG4009
RpS9
CG13693
Gasz
dnk
ome
CG31259
CG1561
link
CG11505
CG1806
CG2493
CG1774
CG7656
GstT4
alpha-Est5
Traf-like
Spc105R
CG3045
CG11413
CG15093
gce
CG15099
CG12708
CanB
CG5706
CG5044
ndl
CG8552
skl
Sry-alpha
RpII215
rho-4
Gp150
CG3500
Sip1
CG10962
CG34383
Mlf
TTLL3B
Muc55B
ImpL2
fne
CG11456
Or19a
nAChRalpha6
CG8145
CG10553
CG2113
CG13101
NFAT
dpr18
Brd
retinin
lectin-46Ca
c11.1
NiPp1
CG17570
CG10384
CG2556
veil
CG9422
CG14036
CG8397
Aats-ala-m
CG4440
dom
GstD8
CG8929
Arl1
Drip
CG43693
Drep-4
fu12
CG16727
SelD
CG10560
PhKgamma
Ranbp9
CG30419
CG11379
Dh44
CG15116
CG13114
CG9044
CG4563
Cp7Fc
CG32817
Npc1b
CG42449
Rok
stum
CG32243
QC
jumu
CG42237
mRpS18B
CG13531
CG9107
P5cr-2
Tcp-1eta
CG4662
CG2519
Hers
CG32485
CG12692
Ppcs
GV1
CG14803
Trc8
cert
CG30354
CG12480
CG17239
LRP1
Spn28Da
CG8042
Gasp
Pal1
Calx
LpR1
CG14247
su(Hw)
Sara
eco
CG8498
l(3)psg2
CG18067
CG17244
rhi
CG32081
CG1213
Psi
CG12209
Lsp1gamma
Dic1
Cpr49Ae
lok
D
Nnf1b
Git
Pask
CG3835
CG4338
asp
Rh7
CG15211
pad
CG30001
Obp84a
yellow-g2
CG8478
MFS15
CG10631
Cyp12a5
CG17807
CG32834
CG1143
exu
Gbp
Hmt4-20
CG14892
CAP
CG11598
RyR
CG1319
SA
CG7115
GstO2
GC1
Ada1-1
Tsp97E
CG32639
CG10581
CG32432
RpL13
Idgf5
Hmx
CG5644
CG42249
CG13314
CG32642
cactin
CG15399
CG34340
CG18336
CG14655
GstD3
CG32264
Cyp6a13
CG14669
CG14407
CG31773
CG32017
Timp
Droj2
mmy
Sirt7
Sbp2
pio
dpr9
gammaTub37C
Sh
Rbm13
CG33671
Cp190
Cht12
CG4341
CG10144
Unc-76
NimB5
Rgk1
CG2662
CG7882
CG15096
CG32201
CG14195
CG17816
CG14545
CG31548
kar
CG9336
CG4781
tun
Lerp
CG14931
CG11377
blanks
CG32521
CG42389
CG10543
CG7191
CG8960
CG13492
sfl
Scgdelta
CG2941
Nup154
Teh4
msn
CG10205
HBS1
CG6729
CG30377
CG9267
Nle
ptr
CG11980
blow
uri
CheB93b
CG32829
CG5958
Ipk1
Phae2
CG5793
CG2993
CG1354
H
CG42326
esg
Rcc1
CG8549
Obp83b
CG16833
CG11275
Mcm10
CG5953
CG1941
CG5642
CG34396
Sox15
l(2)08717
Fas3
fend
Eip55E
KrT95D
os
HLH106
CG8908
CG9672
Cctgamma
Evi5
CG42747
CG34353
Cyp18a1
CG7300
Corin
Pop2
hiw
CG12213
CG3168
Gal
CG13991
CG13622
Dp
asun
CG13937
Traf4
CG13359
mRpL33
CG11854
GABA-B-R1
CG7341
HHEX
CG4797
CG6308
CG6830
CG3213
CG11249
CG3040
CG13116
Nrx-1
CG17026
slpr
betaggt-II
Sr-CII
CG5194
CG6012
per
mRpL54
CG32676
CG9175
Mal-A1
Gl
CG4757
Npc1a
jvl
sli
RnrS
Mys45A
CG30438
CG16753
Ser8
CG30093
CG2736
Cda4
CG15695
RhoGAP102A
CG42360
rib
CG17378
CG6891
CG8243
Cyp6t3
spri
Cyp6g2
CG12592
pst
kek3
GABA-B-R2
CG8008
CG5151
chas
Osi6
mRpL14
Pvr
CG30325
CG31958
CG11107
CG12934
Doc1
verm
AdipoR
LysX
sgg
Ptp52F
CanA-14F
CG14516
CG6791
intr
CG31198
CG1544
CG13306
Cyp12d1-d
CG14627
PGRP-LF
eEF1delta
Tpc2
Rlb1
CG10170
Dro
Cisd2
bocksbeutel
Ski6
CG9270
Dlc90F
CG6415
CG14301
Cyp4d20
CG13965
CG31205
Dph5
CG4768
CG42724
Patj
CG15673
Arp3
Oatp33Ea
Cyp6a9
gb
MFS3
CG7655
CG30080
vimar
a
raw
CG16791
CG14606
mew
CG17337
Pabp2
vkg
Cyp4d14
TpnC47D
vfl
CG14820
CG17119
CG14291
CG11334
CG5807
JhI-26
His2B:CG17949
CG1909
pico
SkpB
Arpc3B
CG6690
CG9205
CG18136
CG14946
mbm
CG12484
CG9468
CG2837
Manf
dare
CG3812
CG15443
CG18095
Mcm6
CG14011
IM10
CG3894
CG10562
CG6967
Ref1
beta4GalNAcTB
Gbeta76C
GstE13
CG5273
CG9062
CG17068
RhoGAP92B
Got1
Thor
tacc
Tsp29Fa
ogre
Spn55B
CG10859
CG33096
Lip2
l(3)neo18
CG12107
Xbp1
CG6583
Hsp67Bb
CG9485
Sod3
CG11686
bsk
PGRP-SA
RhoBTB
CG30069
CG1434
CG15043
elav
CG3939
RabX5
CG34126
wmd
Membrin
CG10132
CCHa1
ncd
CkIIbeta2
CG5398
a5
CG7786
CG32278
dlp
CREG
Ald
CG16825
CG34120
Edem1
CG42450
cnc
su(r)
Tango11
qin
CG17376
wa-cup
nmdyn-D6
Zip48C
CG17030
Cht7
Sps2
Wnt2
vg
slik
CG4049
CG15107
Victoria
slmb
CG15706
CG32079
lds
CG4705
CG12279
Sulf1
mos
Dhc98D
CG3513
dysc
Fas2
tex
CG1545
CG1671
kek4
CG31195
CG16965
sug
sdk
Jheh3
fd59A
CG42337
CG8108
toc
CG4038
CG9673
CG14070
CG31326
Parg
row
CG5285
Dab
CG32085
Snm1
CG9376
CG15571
Rab3-GAP
peb
Galphai
Rim
Atpalpha
CG9498
psidin
RfC3
Hr96
CG14619
CG8526
CG18661
CG12920
CG7218
CG18094
CG2199
CG13369
Prosbeta1
CG12428
JIL-1
msd5
Ssadh
RFeSP
CG17266
CG14968
DNA-ligI
CG43980
CG10092
CG6700
OdsH
CG15253
CG12123
Gr63a
Pgd
CG12014
CG17574
CG14500
CG9505
N
CG12375
Ncc69
Fur2
dia
CG1129
orb
CG17019
CG32113
Obp56d
del
CG11236
Hex-C
hh
Surf4
beta'COP
CG7840
Oat
CG14949
CG6685
CG5323
CG4332
mTerf3
CG10508
e
HmgZ
CG15876
Spc25
CG9896
RpS5b
mRpS10
Tsp26A
Dl
CG32683
Mio
Cnot4
Strica
Phae1
CG1809
CG14562
Pcmt
Sox21a
Ance
CG3223
CG15747
CG14207
Oamb
Prp8
Hsp27
Plip
nAChRbeta1
Sgs3
Orc6
CG17104
CG14499
CG1942
CG10527
Vav
CG9458
CG3655
gk
CG31248
CG12316
Atg18b
CG17776
mus301
CG33111
CG11317
CG10365
CG9993
sda
MTF-1
Sox14
Syt12
CG18769
Dyrk2
gnu
Notum
CG11023
spen
sky
loco
Cyp4d1
mtSSB
Mul1
dUTPase
CG30344
CG7376
betaNACtes3
CG15434
CG10597
CG32982
CG17734
CG12162
CG30480
CG6083
CG14277
CG14982
CG6145
CG31189
CrzR
CG9259
obst-A
Ef1beta
CG13748
CG18132
RfC4
mRpL18
CG7367
SCOT
CG11286
Clic
Ac13E
CG34376
Rh3
CG18673
Sardh
hb
baz
CG9536
CNMa
CG10257
CG15579
osp
CG5724
CG12081
CG8204
HDAC6
Torsin
Arpc1
drpr
Cyp6a8
CG8321
CG5482
Ggamma1
Hr46
Myo28B1
Obp49a
CG32590
CG17931
ninaA
Cpr65Au
CG3326
nompC
B-H2
mRpL30
CG7137
gry
Csp
CG9168
Max
DNApol-iota
Taf4
mei-38
Men-b
eIF2B-epsilon
CG4619
pan
Cyp6d4
CG10086
Proc
r-l
ADD1
CG9686
aly
CG6279
CG7033
CG8202
CG3984
Fkbp14
mRpL35
babos
Hrb98DE
CG31710
CG15630
Pkcdelta
dan
CG30015
CG15152
CG12945
CG1902
CG1239
Plzf
Ama
CG1662
Cap-D3
CG13458
CG13476
CG3838
CG15020
CG8147
CG32750
clumsy
erm
CG16771
CG6638
CG4286
cold
CG4302
bchs
l(3)02640
Elo68alpha
Damm
Diedel
l(2)k10201
Cyp6a18
List
Pal2
Actn3
CG14186
Sry-delta
rho-7
Cka
CG31926
MtnA
CG32302
CG11164
CG2051
WASp
CG31431
Su(var)2-10
Gr61a
Pax
Oatp58Dc
psq
Hsf
CG1109
T-cp1
CG14693
CG7518
CheB42b
CG6512
OS9
CG30089
h
CG4365
CG6961
RSG7
Papss
CG6178
CG5355
Cyp313a4
CG7470
CG2469
CG31086
CG31413
CG5693
IM23
Rab7
CG33970
CG13078
CG6362
WDR79
CG17352
CG12119
dob
Gip
CG18735
RhoL
CG5888
CG5048
cher
PICK1
didum
CG2162
RanGAP
CG15765
CG4911
CkIIbeta
Eps-15
Krn
CG9642
CG15023
CG4723
puc
metro
CG16904
CG6617
CG12848
mnb
EndoGI
CG18662
Oatp58Da
CG3338
DnaJ-60
CG11044
Tsf1
CG6565
ptip
dpa
Rpt2
Arp10
CG12974
CG13775
betaTub60D
alpha4GT1
boss
Hsp70Bc
CG6123
CG42668
CG7810
Mbs
sina
CG13404
CG31636
CG11841
CG18537
CG16812
dmrt93B
pcl
CG32425
Orco
jhamt
CG1492
scyl
PK2-R2
zuc
Mip
kon
CG15547
Incenp
Fit2
Rab1
CG10514
dila
S-Lap2
clu
Msh6
CG6051
CG9068
CG32262
Meltrin
CG8671
CG9172
CG31960
ovo
fl(2)d
CG15210
Mes-4
dpr8
eIF3-S9
CG18231
fz2
CG5174
Mcm7
l(3)72Dn
Sec24CD
CG4766
CG6833
CG31780
CG12811
Nox
CG4587
CG17597
so
Smg5
faf
Spn
clos
CG1311
Spn88Eb
Cat
CG7589
p53
dome
CG3967
CG42564
CG10659
lectin-33A
CG18507
lab
CG10474
lox2
Glt
CheB93a
SdhC
CG7755
eIF4G
CG7091
Peritrophin-A
CG11073
Hcs
Dat
Rpd3
CG12231
Girdin
CG12129
CG5728
CG31675
Jabba
Cht2
exex
dve
CG5397
tim
Sin3A
CG15711
GIIIspla2
CG13618
CG10688
sol
CG8910
CG5065
CG1603
CG17600
tutl
CG14507
tey
CG6398
Prosalpha6
CG30178
arm
Mhcl
CG3690
CG2267
TrissinR
CG6660
Cip4
CG10911
danr
CG32086
ninaB
Hsp68
Ziz
Drsl4
pps
rost
Mtk
Gie
CG14906
eIF-1A
Tsp42Ec
nkd
CG9715
mRpL36
frma
gol
DptB
NimB2
Dredd
CG8102
Ccp84Ae
CHKov2
Fbl6
CG30389
CG6761
srp
Obp56e
CG5144
CG3097
Hr51
ref(2)P
CG8774
ast
lectin-24A
nub
CG2121
CG4165
CG11697
Map60
CG10909
CG15408
Lig4
ths
CG30287
l(1)G0196
ZAP3
Aats-cys
Octbeta1R
CG32548
CG6024
MED22
CG13949
Marcal1
Taf12L
Rpn13
Ack
MED14
CG1946
CG7946
Tom70
CG16836
Pebp1
CG4270
RpL41
Mal-B1
CG12050
Zn72D
Gnmt
mbo
Adgf-C
CG11340
CG42541
Spn28Dc
CG18324
Mp20
hfw
CG14109
Prosbeta6
Gk
Cyp4d8
Hip1
Obp19a
CG4887
CG15422
CG9626
lig
c(2)M
Pi3K68D
Sap-r
CG31612
CG5828
CG3700
Met
mRpS11
pog
pdm2
Sp1
CG31104
CG14967
CG10725
Eno
nuf
CG10566
CG32192
CG12112
Oaz
Dak1
Hsp60C
Vps29
CG32812
Tsp39D
CG9674
CG1077
CG6805
CG17777
Pcl
CG7320
Vm34Ca
CG1598
CG11151
mgl
Use1
bnl
Adh
Arp2
CG13643
Phlpp
CG10681
Rcd1
CG11149
CG32379
Obp19b
cos
Mco1
Atet
dpr6
CG6597
brm
rho-6
CG16713
Akt1
Hex-t2
CG9149
Glut1
CG1146
shn
CecC
Orc4
CG14817
CG7768
Nep3
CG9317
nompA
CG10178
Ubc6
Tmhs
CG13933
iPLA2-VIA
CG1304
CG13737
dl
CG14977
CG13659
bip1
YT521-B
cort
alpha-Est8
CG2918
CG13003
CG5246
CG31463
CG11659
Klp61F
disco-r
CG2926
tej
CG10638
TM4SF
CG4078
CG32413
CG3348
pnr
CG12054
Vm26Ab
FK506-bp1
stau
CG15570
CG4610
wuc
Ilp4
CG42265
CG7968
Art1
TM9SF4
sba
fs(1)h
CG7102
salt
CG10592
CG4847
CG8064
Prat2
CG8086
ventrally-expressed-protein-D
Try29F
Dpck
Sodh-2
Mi-2
FMRFa
Cpr57A
barr
put
CG5804
Hop
CG7372
fru
CG11417
Cpr56F
CG13999
CG15534
Mal-A2
Cp7Fb
CG32039
CG1667
wat
RpLP2
CG5694
to
Mcm3
CG15618
CG9360
FucTA
CG2865
CG15065
CG1416
tx
ine
CG5928
t-cup
CG6553
CHES-1-like
CG11170
CG8562
CG6171
CG31739
CG30281
Myo95E
CG14749
Rho1
SkpF
CG11656
Mhc
Pbp95
Br140
chrb
Pif1A
Adgf-D
Gbeta13F
CG15390
Pka-C1
CG15120
CG15631
tho2
CG5590
scpr-C
CG3264
Der-1
CG42613
Irk3
Sems
CG14445
fs(1)N
VGAT
CG6175
CG13907
CG13795
CG11362
Nop56
CG17930
Eip71CD
zormin
Lrrk
Strn-Mlck
CG13360
CG2962
Picot
twe
jing
hdly
Acp32CD
path
alpha-Man-IIb
Cyp6d2
CG3669
Pten
His4:CG31611
CG9890
Eph
Hil
CG33108
CG7276
FLASH
Irk1
ab
CG34394
CG30424
dec-1
CG11635
g
Ssk
CG3739
bcd
CG6834
vri
Or49a
Xport
Prosbeta4R1
CG3257
kay
E(z)
CG9170
CG5335
Sce
CG12269
Aats-gly
CG5707
Spat
CG32199
CG9812
PH4alphaMP
CG13773
ph-p
CG4706
CG8343
CG16762
NT5E-2
lace
Abd-B
Ent2
Mvl
CG31121
CYLD
CG30184
CG14315
CG10184
CG18292
CG1428
Su(var)2-HP2
dpr20
HERC2
CG6180
armi
dos
CG16734
CG10357
CG9328
CG13599
RnrL
CycA
CG8245
CG8665
ERp60
Tsp29Fb
CG5024
para
CG4849
CG6409
CG10748
CG13895
CG11808
CG6485
Ppn
Oatp58Db
Baldspot
BicC
Liprin-gamma
R
mRpS18C
CG30096
Swim
CG10671
CG31998
Sap47
CG10226
Mur18B
hoip
CG8773
CG7456
Sox21b
bru
Trh
CG8839
Oatp74D
FMRFaR
CG31313
Adf1
Irp-1B
Cyp9b1
Rbp9
CG10802
lute
CG12964
CG15721
CG1578
jbug
Sodh-1
Ahcy13
CG12824
smo
CG11878
CG7564
CG12723
flr
CG43778
CG11961
CG14529
CG10208
Pi3K59F
CG30466
Actbeta
4E-T
Nrk
bmm
en
CG15128
CG17202
CG13843
CG12278
CG42795
Spn28B
CG9733
CG31804
lox
Grip91
prtp
CG1707
Spn42Dd
fliI
CG4210
RpS23
Or63a
ft
CG11562
Dcp-1
tor
CG3604
Or67d
CG18418
CG9246
CG2269
Drep-1
CG2846
CG7953
CG10960
pic
Sgt1
CG4984
Pis
Jafrac2
ALiX
CG1116
IM2
gwl
CG6272
sala
Hdc
tobi
Npc2d
Patronin
fa2h
CG11407
CG3699
Dhc93AB
CG10359
Atg3
SkpD
Rab23
CG3814
Trf4-2
Sema-1b
CG4168
CG31544
CG10602
l(2)efl
Mlc2
CG13365
CG31689
CG5789
Grx-1
Tango1
Pdp1
CG4198
thetaTry
Jupiter
pnut
CG4377
Cyp6a14
CG7718
Tsp74F
nonC
pros
Vps39
CG42235
l(2)tid
CG32641
AP-1gamma
Psc
Bdbt
Pld
CG31883
Aats-glupro
Dll
CG18607
IM3
CG17292
Plod
CG17754
CG18417
CG1582
Ncoa6
Grip128
beat-IV
CG4611
Gpdh
CG8531
CG15715
CG5514
Rab3
Ptp99A
CG14234
CG32437
CG31380
CG7330
CG10182
CG8916
ste24b
CG1440
CstF-50
Rcp
Tsp42Er
modSP
SoxN
Non2
CG15160
L
IA-2
Sep1
CG10737
Syp
Muc4B
chico
CG9996
Peritrophin-15a
Ca-alpha1T
CG31917
dgo
Klp67A
mag
ppk22
Ddr
CG31752
CG31406
CG7025
CG18473
Pgam5
CG10345
CG7214
Tep4
CG12717
CG1698
Spn27A
CG7860
Cyp6a22
tadr
Sema-1a
Prosbeta5R1
Hexo1
CG4203
sip2
Aprt
ari-1
CG32625
CG5618
CG7006
CG13689
Teh1
CG7702
CG6712
scb
Hr4
CG33172
SIDL
Ccp84Af
Lmpt
CG31174
mop
Ccp84Ag
CG9945
CG8173
CG10029
Rab8
Idgf3
CG2747
ssp5
CG14635
step
CG7299
Dd
CG30094
Zip99C
CG8331
sim
Ubi-p5E
Dot
CG1636
tll
CG12071
Phk-3
CG15254
Nup50
CG32147
fit
shd
Ppat-Dpck
Nha1
EloB
HLH4C
Gug
lilli
CG13624
BCAS2
CG15772
CG12128
Ime4
CG5577
CG8866
CAH2
CG11458
CG14521
Lsm10
CG15820
CG9997
Cyp6a20
CG32816
Art4
CG42678
capu
Socs36E
CG5191
CG6115
Dip1
CG4495
CG4734
wun2
CG12681
RhoU
CG17856
CG34380
Nnf1a
CG11263
CG3597
mxt
Snoo
HmgD
CG7466
CG9084
CG16700
CG1979
CG15202
CG15649
CG7675
CG11099
Cht8
Cpr73D
AttC
CG31635
Rpt5
CG13005
Rbp
CG9304
Dop1R1
CG15533
CG5626
Reg-2
CG3358
CG15635
CG10126
CG8312
CG6310
CG4213
yuri
CG33124
ATPCL
CG7720
Cbp80
CG12236
Hsc70Cb
Peritrophin-15b
Tsp42Ed
Ir10a
stj
Tm2
CG2812
CG9492
MED15
CG9932
CLIP-190
CG30350
fs(1)M3
CG2789
CG8129
CG15739
FBXO11
rho-5
Rrp1
CG8132
CG32103
Pur-alpha
zen2
vsg
CG5938
mRpS6
CG31731
CheA29a
CG15155
mbc
CtBP
Npc2f
CG12483
St1
CG13731
CG2915
CG10165
Mat89Ba
l(2)35Be
CG3420
Optix
Cyp4e1
CG6739
MtnD
CG11425
CG3061
csul
CG3608
jet
CG10254
trio
CG32344
AcCoAS
CG13884
fu2
CG7530
stc
CG31106
DNApol-alpha60
CG15674
GstE5
CG17377
eIF2B-delta
CG13344
CG5646
Nlg1
Ugt36Bc
CG4788
CG12896
CG1407
CG7789
Hrb27C
pelo
ITP
wbl
CG15312
CG13215
CG6767
Mcm2
CG13876
Hmu
subdued
CG4576
htl
Rpb5
CG4294
CG6923
Sytalpha
CG9098
CLS
CG13564
Txl
Cirl
CG17732
sofe
onecut
GABA-B-R3
CG9662
CG4164
CG6984
CG9801
CG8172
CG32647
CG5862
CG7084
CG4328
mRpL51
a10
pb
Vha100-5
CG14502
CG15710
alpha-catenin-related
Trf2
CG12299
Jheh1
CG17118
NLaz
CG4751
Elba2
Ptx1
CG9452
CG43901
sqh
Uch-L5
GstD9
CG7386
dmGlut
Galphaq
unk
CG7639
trol
CG13675
CG6403
serp
CG15475
BTBD9
Orct
tara
CG31157
CG10754
stg
CG18731
CG14285
retm
smg
Acp1
CG1494
Mdr65
mesh
CG31661
sPLA2
FK506-bp2
Tsp42Eq
CG3476
CG15145
CG14608
CG10348
Npc2g
Ir60e
CG1607
CG12788
Cyp4e2
Idgf2
ebi
CG14694
GABPI
regucalcin
trp
CG32301
E5
CG17999
CG10399
dor
CG8503
dgt6
nmdyn-D7
DNApol-alpha50
CG10237
Lsd-1
CG31344
eag
lectin-46Cb
CG7852
ctrip
RpS30
Sucb
RtGEF
CG11523
CG11671
Rbf2
CG32088
CG15539
Slc45-1
laza
CG8673
CG9512
CG32281
CG30334
GluRIIC
Femcoat
Unc-89
halo
swi2
Ag5r2
boca
CG8861
mud
CG11509
Menl-2
Nufip
CG3534
CG11414
Cks30A
mus210
eyg
CG31087
yl
ppk24
CaBP1
CG17219
tup
CG13113
CG8539
CG6996
CG12780
CG31715
CG14786
CG15646
pds5
CG8635
CG31077
CG7845
CG17173
CG6262
CG32269
Tbce
Rh4
nSyb
CG30431
CG13856
CG17841
lic
CG11828
CG14995
Axn
nos
Cyp4ae1
CG6509
CG8560
CG8292
CG4497
zetaCOP
Ilp2
CG10915
Ranbp16
Aatf
alt
brp
CG31694
RpL27A
Mtor
CG6195
CG6149
CG13398
Mct1
CG2861
Claspin
CG12935
Mur11Da
CG31064
mmd
Pka-C3
CG11576
CG42671
NimC4
hbs
Itgbetanu
CG31674
sowi
vir-1
cid
CG14523
Als2
bru-3
CG1673
GstZ2
CG17224
beat-IIIc
Rif1
CG32075
S1P
DNApol-gamma35
CG4169
f
CG13700
inaE
mAChR-B
RIC-3
DLP
PpN58A
CG5418
CG4592
A2bp1
hydra
CG5235
CG15100
CG5180
CG2316
dpr19
Cyp4ac3
CG1246
CG4096
Gp93
Peb
nemy
ApepP
CG4933
CG18585
Nep4
Ugt86Dc
BigH1
hpo
salr
CG7924
CG11257
CG10916
Hsp60
CG4607
CG15021
CG13741
mRpL38
Top3beta
Uro
Cyp4e3
Shab
PH4alphaNE1
Sec24AB
ckn
Lsp2
CG3163
CG7246
ps
RhoGDI
CG3734
wun
BtbVII
CG42390
RfC38
Cpr
HGTX
CG15213
Cg25C
CG13096
grsm
CG11248
CG9702
CG9323
CG4678
CG9436
Esp
pdgy
ms(3)72Dt
CG6230
CG10650
Acox57D-p
Cdk1
Hug
Ac3
crc
CG16704
Cyp9h1
CG14985
c(3)G
CG15628
Ku80
CG7546
ChLD3
nht
CG43689
CG7650
CG10657
CG43921
CG12118
Ect4
CG2010
mael
fu
cbt
CG3165
Prx3
CG9935
Phb2
shep
hubl
kst
CG5359
yellow-d
NT1
CG15221
CG9911
kappaTry
CG2909
CG4935
CG13117
CG7201
fax
Spn31A
CG18635
pn
CG10559
Top3alpha
CG10137
CG32633
eIF-3p66
CG10339
Cyp6d5
m
Faa
CG6484
CG17078
CG11892
Clp
CG14528
CG10674
Nhe3
pgant8
spel1
CG4041
Atg9
AIF
CG9825
inv
CG7970
ics
CG31288
CG7365
Cry
CG13283
CG14880
CG8500
Ggt-1
CG30273
CycE
CG16984
CG9826
NfI
CG4363
Debcl
Dsp1
Rh2
CIAPIN1
Hr38
CG11796
Ada1-2
mthl8
skd
Blos2
CG5946
mago
hdc
CG5731
mdlc
CG32532
CG11897
klar
SIP2
CG9917
noi
ranshi
Spase25
CG12237
CG8051
CG17650
CG14299
CG30090
CG4650
CG3303
CG30291
mas
cpo
png
CG8636
CG8177
Egm
HPS4
CG3091
CG10505
Lcp65Ag2
Cyp4p1
Oatp33Eb
ERR
CG1812
CG5527
Fst
smp-30
CG8736
CG14000
CG14740
Roc1a
Syn2
Lon
temp
Ocrl
fus
CG8613
CG17150
Zw
CG3036
Pxn
vls
Zfrp8
Cpr67Fb
CG3792
aPKC
CG18586
CG12134
RpL28
cac
CG8878
eya
CG34371
CG8317
Cnb
CG31937
CG3529
Bre1
SPR
CG17803
knk
NHP2
CG15263
CG5039
CG10073
CG7713
CG9616
spaw
CG8931
bur
GstE11
CG13325
CG8543
Dap160
Spindly
CG30031
CG14556
CG9527
tj
CG7309
chinmo
Pitslre
LpR2
nAChRalpha1
Cpr97Eb
CG12766
Rgk3
SRm160
Pkg21D
CG33269
CG11134
CG5757
nyo
olf186-F
Tango9
CG31235
mxc
spz4
CG30049
mthl15
CG12512
Gprk2
CG32833
miple2
otp
bt
CG9121
CG9416
Irbp
CG30105
d
CG9425
InR
Six4
CG9664
CG12910
CG10747
Lim1
mio
lectin-29Ca
CG8920
eve
Sse
CG5543
Liprin-alpha
CG11396
lea
CG30007
CG15044
aub
CG18577
CG9380
Obp51a
CG11211
CG14072
CG13086
Inx2
CG10830
Cyp6a19
hui
nAChRbeta3
Dbi
CG9784
CG6018
CG42336
miple
CG16926
vnd
CG14812
CG17562
CG5446
CG31102
VhaM9.7-d
CG15881
CG9463
Mf
Orc5
CG11267
v
CG4660
IM4
piwi
CG30272
CG11617
CG6762
CG4956
Eaat1
dpr5
Toll-6
Asph
nxf2
CG4896
CG5118
CG10470
tmod
CG4570
laccase2
sens
CG5921
CaMKII
CG10469
Zwilch
CG11811
Cpr66D
CG11594
Def
CG6296
CG32495
CG4866
twit
Mocs1
RpL12
Ance-5
Mal-A5
CG10425
CG9400
CG5991
CG9682
Gs1
CG3711
ade3
CG15800
Mef2
CG18130
GstE9
Roe1
emb
CG11550
CG9449
Amnionless
Hs6st
TotC
CG31717
CG7069
CG32409
CG1360
Idgf4
PGRP-SD
CG8170
Cyp309a1
CG30259
CG15382
Orc1
qua
CG14452
Nlp
CG5011
CG9384
borr
CG17829
CG4476
Cyp12a4
MtnC
pirk
dup
oys
Aats-asn
Not11
edl
CG43340
Atg2
qtc
CG17341
CG8516
CG9386
unc-4
CG12344
CG1468
dp
Tsp96F
wrapper
Ugt86De
rpk
RpI1
Spn77Bc
CG10912
CG4398
CG32985
CG16716
ex
Hph
CG18672
CG32225
CG6836
Cyp6w1
CG9989
CG31345
CG9497
CG6432
sr
CG18327
lqf
CG12177
TpnC41C
pita
CG14439
CG13295
CG10702
Npc2b
polo
Karybeta3
cbs
CG9154
E(Pc)
CG5589
Drsl2
CG15887
Cyp6a23
CG8112
CG31547
Vsx1
IM1
ZnT77C
CG33051
l(2)37Bb
Nmdmc
egh
CG10344
Tep2
Mst98Ca
pes
neo
Whamy
Tig
Ppa
CG3071
lid
Gmap
Poxn
CG10062
CG17508
jagn
MICAL-like
msl-2
CG15406
PH4alphaPV
eap
Mur2B
CG4017
CG10672
CG32483
CG7686
Ca-beta
Ada2b
CG4306
Rrp46
dm
ssp3
Arc1
CG4972
CHKov1
CG14879
CG10026
Shroom
gl
BCL7-like
CG8907
CG13905
SP2637
Tsp42El
zpg
CG32850
Mal-A4
CG33110
Obp57a
CG14020
CG42321
ergic53
CG3927
Ipp
hoe2
bif
Hmr
eIF3-S8
Cpr11B
H2.0
CG32407
Lgr3
CG9925
Nha2
CG5550
CG2003
larp
Odc1
CG6613
CG32581
CG43394
Dhc64C
Dim1
Neurochondrin
CG2064
Ugt58Fa
CG43066
bin
comm3
CG9582
yellow-c
cm
CG32313
CG1657
rhea
CG4452
CG8519
CG8858
CG3397
CG34402
CG1622
CycH
rno
pzg
CG2135
B4
Dlic
Hr39
sktl
kz
SMC3
CG14314
CG6972
Rtnl1
igl
CG31627
Nopp140
Bace
CG9265
Ance-3
CG16732
spheroide
Cpn
lectin-28C
CG17192
gammaCOP
l(3)L1231
CG1738
CG18606
CG13722
Listericin
Det
CG3285
CG9119
Alas
CG8176
CG32718
CG7229
Vdup1
ttm50
CG32369
CG7236
CG4835
CG12111
glu
Nplp3
rb
ry
CG13603
Cap-H2
TotM
pfk
CG13077
Scgbeta
ste14
pen-2
CG15878
PTP-ER
CG6340
Syn
CG4702
CG7488
CG4386
CG34348
dys
CG15067
bs
fh
Cyp4ac1
Afti
Fdh
CG13083
CG18747
CG8661
Bmcp
B52
CG2225
inaD
Decay
CG31265
s-cup
CG12239
Best2
B-H1
CG14210
nocte
CG9507
slbo
alpha-Spec
CG18273
CG17760
CG15653
ara
CG32551
nmd
CG11436
CG7730
ade2
mod
CG10175
CG18622
jdp
CG8036
MRP
CG11000
Der-2
sws
hop
CG14408
CG15196
Drs
Ho
psd
Dbx
IntS4
luna
CG12321
SPoCk
CG43347
Arc2
CG31454
tay
CG31278
CG18528
Vm26Aa
CG16957
dyn-p25
vir
CG2658
CG15879
Taz
cutlet
CG17633
PpD3
Fdxh
Obp59a
CG9471
ort
CG7203
Dop2R
CG14292
CngA
CG9095
His3.3A
CG32024
Plc21C
Galphaf
TpnC25D
sip1
CG12290
CG4065
stck
mtt
CG14989
CG16989
Cpr72Ec
CG12006
Cdk5alpha
ABCB7
Irc
Ran
kek1
CG32751
CG15412
CG2930
Hsp70Aa
fz3
GlcAT-S
CG9427
CG43729
snz
CG2701
CG10600
CG34398
CG5367
l(1)G0007
ru
pinta
blue
Pex16
coil
CG5621
Sap130
CG13891
CG11123
Hsp23
Aldh
thr
mRpS28
CG6985
CG3714
CG3523
TotX
Prx2540-2
LS2
lush
Tango2
CG18446
pch2
CG17572
RhoGAP54D
Tis11
Cpsf73
CG5149
Rfabg
CG4133
CG5676
Gadd45
CG15553
Got2
CG30065
CG5890
mtDNA-helicase
Ndae1
CG9663
Aph-4
CG6182
Phf7
CG3689
CG11929
CG31705
Pex1
opa
CG9192
CG4860
CG18563
CG9977
Trx-2
hbn
CG6290
CG14322
CG7705
Ge-1
mthl4
Tk
CG12034
alpha-Est1
CG8093
CG14814
CG30116
CG31517
CG14544
aurA
CG10440
Zasp66
CG31886
htt
dpr15
Ugt36Bb
SNF4Agamma
CG14419
CG31815
CG15498
CG32391
SCAP
His1:CG31617
CG18190
CG6028
Os-C
CG18088
Pkn
PGRP-LB
CanB2
CG18449
Cyp6v1
CG13313
CG11089
Teh2
CG14607
GstE10
CG14050
Cyp309a2
Spn28F
CheA75a
CG15822
ap
kuk
GstE1
CG1628
CG1674
SPE
CG18787
CG5107
CG8481
sick
OstDelta
ImpL3
Psf1
CG2186
CG4282
Lasp
ewg
CG9008
CG11858
CG4022
Dscam1
CG12868
esc
CG8788
CG9640
prominin-like
CG6733
CG10168
NijB
CG31673
CG8785
epsilonCOP
CG30371
CG8389
CG4250
Rpt4R
PGRP-LA
CG8005
CG4752
CG10492
Sesn
CG15484
CG13510
CG15436
Alr
CG43129
His2Av
Pdf
CG12325
CG31076
CG9240
Vang
grau
CG7394
mrt
CG3011
CG30047
CG13532
CG8128
CG30083
grn
nAChRalpha7
otu
l(1)G0232
yellow-b
laf
CG10824
CG42588
CG10924
CG3987
chif
Mal-B2
betaggt-I
Cyp6a17
CG7910
CG6283
Alh
scra
Cyp12d1-p
CG15625
jeb
Hsc70-3
CG7990
CG17127
CG18853
CG13436
CG13022
dsb
Crag
ird1
CG9065
Ptr
CG31233
CG3332
Acox57D-d
l(1)G0020
Gbs-70E
dac
GstE4
bsf
Upf3
Ugt37b1
CG18746
MED27
CG11178
CG5783
tud
CG6726
wge
CG8010
CG4267
Drep-2
Ugt86Dd
Caf1-180
aph-1
CG14205
CG34113
Obp83cd
CG14695
CG6321
zetaTry
LSm7
Drat
CG15890
vis
CG10555
CG1637
xit
CG4820
AdamTS-A
CG13658
Flo1
CG11085
Hs3st-B
HdacX
RpL3
CG31712
alpha-Est10
CG1233
Rbbp5
nudC
CG12093
Wwox
RhoGAP16F
CG12963
norpA
Obp56a
APC7
CG31633
Dfd
CG15531
Ih
egl
CG12858
st
Aats-trp
AMPdeam
ico
toe
CG6927
CG17124
odd
CG6048
CG6184
CG7164
PARL
PLEK2
PLEKHO1
RBL2
RBM3
RCN1
REXO4
RGS10
RHOJ
SMARCA4
TACC3
TCTEX1D1
TESSP1
THBS1
THBS1
TNRC6A
TOE1
TSPAN9
WDR47
XCL1
ZNF526
ZNF579
ZNF642
ZNF70
ZNF703
ZNF704
col-64
dgk-3
dnj-1
dnj-2
dop-2
dpl-1
dre-1
dyf-1
egl-1
fre-1
frh-1
frm-1
frm-2
frm-10
fars-1
fsn-1
gei-18
ggr-1
grd-13
grl-18
grl-28
gst-16
gst-27
hmp-1
hpd-1
hsp-6
lbp-3
ldb-1
lov-1
mcm-7
nhr-2
nlp-17
pqn-31
pqn-42
pqn-45
puf-3
rab-1
rrf-3
snx-1
soc-2
spn-4
srg-36
srh-47
srh-75
srh-82
srh-243
srh-244
srh-251
srw-138
srx-80
srx-116
ssp-19
str-89
str-168
str-227
sup-10
tag-130
unc-60
zig-3
C06C6.8
C08F11.12
C15H11.10
C16C10.3
tomm-40
otub-1
C27H6.8
C29F7.1
C32C4.3
srz-15
dod-24
C35C5.8
C37E2.3
sre-13
scl-7
C47E12.10
C49C3.4
C50B6.7
fipr-10
C52E4.5
C53D6.8
D1081.4
E01G6.1
F08G12.1
F11A5.4
mig-32
F11E6.4
F11F1.4
F13B12.4
F13E6.2
F15G9.3
F17C11.7
eef-1G
cutl-3
F21H7.2
ekl-1
F22D6.15
F22G12.4
F25D7.4
F26D2.15
clec-196
F28B1.2
F28C6.8
cyp-37B1
F28H6.4
F30F8.10
F31B9.1
F31D4.8
F33E2.4
F33H2.6
clec-63
F35C11.3
F36F2.7
F36F2.8
F38E11.6
F40F8.1
F40F8.3
nspc-13
F43D9.3
F44A6.3
F44A6.5
F44D12.8
sdz-19
F48F7.6
F52E10.4
F53B6.5
F54D5.4
sre-45
F55A11.6
capg-2
F58E6.11
F58G1.8
cri-3
F59E10.3
ttr-51
K02B12.6
K03A11.4
K08F8.1
K10D6.3
K10H10.1
K11H3.7
M03B6.2
M03B6.4
M04C3.2
M05D6.3
atg-7
R06B9.5
R06C1.4
ztf-15
nhr-208
R09D1.1
R11.1
R11A8.2
R53.1
R90.1
ocam-1
him-18
T04C12.3
T05B9.2
imp-2
T05F1.11
rmd-1
T06E4.5
T06E4.9
T06E6.1
umps-1
flp-33
T09E11.8
T10B9.9
T10C6.5
T11F9.12
T13H5.5
T14C1.1
T15H9.5
T16A9.5
T16G12.1
T21B10.1
T23D8.3
oac-48
T23G4.5
T27E7.9
T28D6.5
ifta-2
T28F4.6
W01A8.6
W02B12.10
W03H9.2
W05B2.7
W06D11.5
Y6B3B.9
Y6E2A.4
Y6G8.2
srz-91
Y17G7B.19
Y18D10A.23
Y32B12A.1
Y37A1B.5
Y39A1A.12
Y39B6A.8
Y39B6A.29
Y41C4A.13
Y41E3.7
eef-1B.2
set-24
Y47D3A.31
Y48A6B.3
fipr-17
Y56A3A.6
faah-4
Y56A3A.30
sre-41
Y69E1A.2
Y69H2.7
tag-336
Y70C5B.1
vps-28
Y102A5C.27
Y105C5B.20
Y116A8C.30
ZC15.5
ZC116.3
ZC376.6
ZC504.1
clec-93
ZK507.1
ZK596.3
clec-59
ZK809.3
ZK1225.1
ZK1307.1
ZK675.3
B0228.1
rpia-1
vps-33.1
cyp-23A1
B0495.7
B0563.6
B0563.7
C01B10.8
C02B8.6
C02B8.7
C06E4.2
C10A4.4
kca-1
C12D5.4
C14C11.7
C15H9.3
clec-135
C17A2.7
C17H11.5
C18A11.3
C18G1.6
C24A3.4
C25E10.5
C25E10.7
C28G1.5
C29F9.1
fbxc-18
C32D5.10
C35E7.4
C38C5.1
math-19
C44B7.10
C46H11.3
C48C5.3
acdh-12
F13H8.8
F16H11.1
F18F11.4
F21C10.7
F22E5.7
F27C1.4
F29B9.10
F29C4.2
F31E8.4
F33H12.1
F35C8.8
F41B4.3
F46H5.2
F49F1.12
F52C6.3
F53G2.1
F54C1.1
F55C12.4
glit-1
F58F9.6
F58F12.3
sdz-23
F58H7.1
rpa-3
F59D6.6
F59E11.6
F59H6.3
H04M03.11
H12I13.2
K04F1.1
K05F1.1
cpt-4
pqn-52
M60.4
W05H9.1
W05H9.3
W05H9.4
pghm-1
ZC308.4
T04B2.8
F48E8.8
F46F11.11
Y20F4.8
Y51F10.11
adpr-1
F09G8.10
F23F12.13
Y55F3C.10
Y77E11A.16
F13E9.16
Y49E10.29
ttr-42
F46G11.6
